EESchema Schematic File Version 4
LIBS:amp-cache
EELAYER 29 0
EELAYER END
$Descr A4 11693 8268
encoding utf-8
Sheet 1 1
Title ""
Date ""
Rev ""
Comp ""
Comment1 ""
Comment2 ""
Comment3 ""
Comment4 ""
$EndDescr
$Comp
L Device:Q_NJFET_SGD Q1
U 1 1 5E14F9B5
P 2625 2475
F 0 "Q1" H 2815 2521 50  0000 L CNN
F 1 "2SK246" H 2350 2650 50  0000 L CNN
F 2 "TO_SOT_Packages_THT:TO-92_Molded_Narrow" H 2825 2575 50  0001 C CNN
F 3 "~" H 2625 2475 50  0001 C CNN
	1    2625 2475
	1    0    0    -1  
$EndComp
$Comp
L Device:Q_PJFET_SGD Q2
U 1 1 5E150133
P 2625 3325
F 0 "Q2" H 2815 3279 50  0000 L CNN
F 1 "2SJ103" H 2775 3525 50  0000 L CNN
F 2 "TO_SOT_Packages_THT:TO-92_Molded_Narrow" H 2825 3425 50  0001 C CNN
F 3 "~" H 2625 3325 50  0001 C CNN
	1    2625 3325
	1    0    0    1   
$EndComp
$Comp
L Device:Q_NPN_CBE Q3
U 1 1 5E150D40
P 2825 1975
F 0 "Q3" H 3016 2021 50  0000 L CNN
F 1 "BC550" H 3016 1930 50  0000 L CNN
F 2 "TO_SOT_Packages_THT:TO-92_Molded_Narrow" H 3025 2075 50  0001 C CNN
F 3 "~" H 2825 1975 50  0001 C CNN
	1    2825 1975
	-1   0    0    -1  
$EndComp
$Comp
L Device:Q_PNP_CBE Q4
U 1 1 5E151BD4
P 2825 3825
F 0 "Q4" H 3016 3871 50  0000 L CNN
F 1 "BC560" H 2550 3675 50  0000 L CNN
F 2 "TO_SOT_Packages_THT:TO-92_Molded_Narrow" H 3025 3925 50  0001 C CNN
F 3 "~" H 2825 3825 50  0001 C CNN
	1    2825 3825
	-1   0    0    -1  
$EndComp
$Comp
L Device:Q_NPN_CBE Q6
U 1 1 5E1521C6
P 3950 4075
F 0 "Q6" H 4141 4121 50  0000 L CNN
F 1 "BC550" H 4141 4030 50  0000 L CNN
F 2 "TO_SOT_Packages_THT:TO-92_Molded_Narrow" H 4150 4175 50  0001 C CNN
F 3 "~" H 3950 4075 50  0001 C CNN
	1    3950 4075
	1    0    0    -1  
$EndComp
$Comp
L Device:Q_PNP_CBE Q5
U 1 1 5E15252D
P 3950 1725
F 0 "Q5" H 4141 1771 50  0000 L CNN
F 1 "BC560" H 4141 1680 50  0000 L CNN
F 2 "TO_SOT_Packages_THT:TO-92_Molded_Narrow" H 4150 1825 50  0001 C CNN
F 3 "~" H 3950 1725 50  0001 C CNN
	1    3950 1725
	1    0    0    -1  
$EndComp
$Comp
L Device:Q_NPN_BCE Q8
U 1 1 5E152C55
P 4325 3625
F 0 "Q8" H 4515 3671 50  0000 L CNN
F 1 "MJL21193" H 4515 3580 50  0000 L CNN
F 2 "TO_SOT_Packages_THT:TO-3PB__Vertical" H 4525 3725 50  0001 C CNN
F 3 "~" H 4325 3625 50  0001 C CNN
	1    4325 3625
	1    0    0    -1  
$EndComp
$Comp
L Device:Q_PNP_BCE Q7
U 1 1 5E15350C
P 4325 2125
F 0 "Q7" H 4515 2171 50  0000 L CNN
F 1 "MJL21194" H 4515 2080 50  0000 L CNN
F 2 "TO_SOT_Packages_THT:TO-3PB__Vertical" H 4525 2225 50  0001 C CNN
F 3 "~" H 4325 2125 50  0001 C CNN
	1    4325 2125
	1    0    0    -1  
$EndComp
$Comp
L Device:R_POT_TRIM RV1
U 1 1 5E143CF4
P 2725 2900
F 0 "RV1" H 2656 2946 50  0000 R CNN
F 1 "100" H 2656 2855 50  0000 R CNN
F 2 "Potentiometers:Potentiometer_Trimmer_Bourns_3296Y" H 2725 2900 50  0001 C CNN
F 3 "~" H 2725 2900 50  0001 C CNN
	1    2725 2900
	1    0    0    -1  
$EndComp
Wire Wire Line
	2425 2475 2350 2475
Wire Wire Line
	2350 2475 2350 2900
Wire Wire Line
	2350 3325 2425 3325
$Comp
L Device:R R1
U 1 1 5E144E8D
P 2125 2900
F 0 "R1" V 1918 2900 50  0000 C CNN
F 1 "1K2" V 2009 2900 50  0000 C CNN
F 2 "Resistors_ThroughHole:R_Axial_DIN0207_L6.3mm_D2.5mm_P10.16mm_Horizontal" V 2055 2900 50  0001 C CNN
F 3 "~" H 2125 2900 50  0001 C CNN
	1    2125 2900
	0    1    1    0   
$EndComp
Wire Wire Line
	2275 2900 2350 2900
Connection ~ 2350 2900
Wire Wire Line
	2350 2900 2350 3325
Wire Wire Line
	2725 2675 2725 2750
Wire Wire Line
	2725 3050 2725 3125
$Comp
L Connector_Generic:Conn_01x02 J1
U 1 1 5E1461E4
P 1675 2900
F 0 "J1" H 1593 3117 50  0000 C CNN
F 1 "IN" H 1593 3026 50  0000 C CNN
F 2 "Connectors_JST:JST_EH_B02B-EH-A_02x2.50mm_Straight" H 1675 2900 50  0001 C CNN
F 3 "~" H 1675 2900 50  0001 C CNN
	1    1675 2900
	-1   0    0    -1  
$EndComp
$Comp
L power:GND #PWR02
U 1 1 5E146FF0
P 2350 3750
F 0 "#PWR02" H 2350 3500 50  0001 C CNN
F 1 "GND" H 2355 3577 50  0000 C CNN
F 2 "" H 2350 3750 50  0001 C CNN
F 3 "" H 2350 3750 50  0001 C CNN
	1    2350 3750
	1    0    0    -1  
$EndComp
Wire Wire Line
	1975 2900 1875 2900
Wire Wire Line
	1875 3075 1875 3000
$Comp
L Device:R R2
U 1 1 5E147CEB
P 2350 3525
F 0 "R2" H 2420 3571 50  0000 L CNN
F 1 "47K" H 2420 3480 50  0000 L CNN
F 2 "Resistors_ThroughHole:R_Axial_DIN0207_L6.3mm_D2.5mm_P10.16mm_Horizontal" V 2280 3525 50  0001 C CNN
F 3 "~" H 2350 3525 50  0001 C CNN
	1    2350 3525
	1    0    0    -1  
$EndComp
$Comp
L power:GND #PWR01
U 1 1 5E1482F2
P 1875 3075
F 0 "#PWR01" H 1875 2825 50  0001 C CNN
F 1 "GND" H 1880 2902 50  0000 C CNN
F 2 "" H 1875 3075 50  0001 C CNN
F 3 "" H 1875 3075 50  0001 C CNN
	1    1875 3075
	1    0    0    -1  
$EndComp
Wire Wire Line
	2350 3325 2350 3375
Connection ~ 2350 3325
Wire Wire Line
	2350 3675 2350 3750
Wire Wire Line
	2725 2175 2725 2275
Wire Wire Line
	2725 3525 2725 3625
$Comp
L Device:R R3
U 1 1 5E14AFCB
P 2725 1250
F 0 "R3" H 2795 1296 50  0000 L CNN
F 1 "470" H 2795 1205 50  0000 L CNN
F 2 "Resistors_ThroughHole:R_Axial_DIN0207_L6.3mm_D2.5mm_P10.16mm_Horizontal" V 2655 1250 50  0001 C CNN
F 3 "~" H 2725 1250 50  0001 C CNN
	1    2725 1250
	1    0    0    -1  
$EndComp
$Comp
L Device:R R5
U 1 1 5E14BA43
P 3150 1250
F 0 "R5" H 3220 1296 50  0000 L CNN
F 1 "2K" H 3220 1205 50  0000 L CNN
F 2 "Resistors_ThroughHole:R_Axial_DIN0207_L6.3mm_D2.5mm_P10.16mm_Horizontal" V 3080 1250 50  0001 C CNN
F 3 "~" H 3150 1250 50  0001 C CNN
	1    3150 1250
	1    0    0    -1  
$EndComp
$Comp
L Device:R R4
U 1 1 5E14C1C1
P 2725 4550
F 0 "R4" H 2795 4596 50  0000 L CNN
F 1 "470" H 2795 4505 50  0000 L CNN
F 2 "Resistors_ThroughHole:R_Axial_DIN0207_L6.3mm_D2.5mm_P10.16mm_Horizontal" V 2655 4550 50  0001 C CNN
F 3 "~" H 2725 4550 50  0001 C CNN
	1    2725 4550
	1    0    0    -1  
$EndComp
$Comp
L Device:R R6
U 1 1 5E14CB0E
P 3150 2475
F 0 "R6" H 3220 2521 50  0000 L CNN
F 1 "2K" H 3220 2430 50  0000 L CNN
F 2 "Resistors_ThroughHole:R_Axial_DIN0207_L6.3mm_D2.5mm_P10.16mm_Horizontal" V 3080 2475 50  0001 C CNN
F 3 "~" H 3150 2475 50  0001 C CNN
	1    3150 2475
	1    0    0    -1  
$EndComp
$Comp
L Device:R R7
U 1 1 5E14DBB1
P 3150 3325
F 0 "R7" H 3220 3371 50  0000 L CNN
F 1 "2K" H 3220 3280 50  0000 L CNN
F 2 "Resistors_ThroughHole:R_Axial_DIN0207_L6.3mm_D2.5mm_P10.16mm_Horizontal" V 3080 3325 50  0001 C CNN
F 3 "~" H 3150 3325 50  0001 C CNN
	1    3150 3325
	1    0    0    -1  
$EndComp
$Comp
L Device:R R8
U 1 1 5E14E44A
P 3150 4550
F 0 "R8" H 3220 4596 50  0000 L CNN
F 1 "2K" H 3220 4505 50  0000 L CNN
F 2 "Resistors_ThroughHole:R_Axial_DIN0207_L6.3mm_D2.5mm_P10.16mm_Horizontal" V 3080 4550 50  0001 C CNN
F 3 "~" H 3150 4550 50  0001 C CNN
	1    3150 4550
	1    0    0    -1  
$EndComp
$Comp
L power:+12V #PWR03
U 1 1 5E14EF8E
P 2725 975
F 0 "#PWR03" H 2725 825 50  0001 C CNN
F 1 "+12V" H 2740 1148 50  0000 C CNN
F 2 "" H 2725 975 50  0001 C CNN
F 3 "" H 2725 975 50  0001 C CNN
	1    2725 975 
	1    0    0    -1  
$EndComp
$Comp
L power:-12V #PWR04
U 1 1 5E14F532
P 2725 4825
F 0 "#PWR04" H 2725 4925 50  0001 C CNN
F 1 "-12V" H 2740 4998 50  0000 C CNN
F 2 "" H 2725 4825 50  0001 C CNN
F 3 "" H 2725 4825 50  0001 C CNN
	1    2725 4825
	-1   0    0    1   
$EndComp
Wire Wire Line
	2725 1400 2725 1725
Wire Wire Line
	2725 4025 2725 4075
Wire Wire Line
	2725 4700 2725 4775
Wire Wire Line
	2725 4775 3150 4775
Wire Wire Line
	3150 4775 3150 4700
Connection ~ 2725 4775
Wire Wire Line
	2725 4775 2725 4825
Wire Wire Line
	3150 4400 3150 3825
Wire Wire Line
	3150 2625 3150 3050
Wire Wire Line
	3150 1400 3150 1975
Wire Wire Line
	2725 975  2725 1025
Wire Wire Line
	2725 1025 3150 1025
Wire Wire Line
	3150 1025 3150 1100
Connection ~ 2725 1025
Wire Wire Line
	2725 1025 2725 1100
Wire Wire Line
	3025 1975 3150 1975
Connection ~ 3150 1975
Wire Wire Line
	3150 1975 3150 2325
Wire Wire Line
	3025 3825 3150 3825
Connection ~ 3150 3825
Wire Wire Line
	3150 3825 3150 3475
$Comp
L Device:R R11
U 1 1 5E1531B2
P 3475 1725
F 0 "R11" V 3268 1725 50  0000 C CNN
F 1 "240" V 3359 1725 50  0000 C CNN
F 2 "Resistors_ThroughHole:R_Axial_DIN0207_L6.3mm_D2.5mm_P10.16mm_Horizontal" V 3405 1725 50  0001 C CNN
F 3 "~" H 3475 1725 50  0001 C CNN
	1    3475 1725
	0    1    1    0   
$EndComp
$Comp
L Device:R R10
U 1 1 5E153CC4
P 3450 4075
F 0 "R10" V 3243 4075 50  0000 C CNN
F 1 "240" V 3334 4075 50  0000 C CNN
F 2 "Resistors_ThroughHole:R_Axial_DIN0207_L6.3mm_D2.5mm_P10.16mm_Horizontal" V 3380 4075 50  0001 C CNN
F 3 "~" H 3450 4075 50  0001 C CNN
	1    3450 4075
	0    1    1    0   
$EndComp
Wire Wire Line
	3325 1725 2725 1725
Connection ~ 2725 1725
Wire Wire Line
	2725 1725 2725 1775
Wire Wire Line
	3300 4075 2725 4075
Connection ~ 2725 4075
Wire Wire Line
	2725 4075 2725 4400
Wire Wire Line
	3625 1725 3750 1725
$Comp
L Device:R R13
U 1 1 5E15A69C
P 4425 1250
F 0 "R13" H 4495 1296 50  0000 L CNN
F 1 "1/5W" H 4495 1205 50  0000 L CNN
F 2 "TO_SOT_Packages_THT:TO-220-2_Vertical" V 4355 1250 50  0001 C CNN
F 3 "~" H 4425 1250 50  0001 C CNN
	1    4425 1250
	1    0    0    -1  
$EndComp
Wire Wire Line
	3150 1025 4425 1025
Wire Wire Line
	4425 1025 4425 1100
Connection ~ 3150 1025
Wire Wire Line
	4425 1400 4425 1475
Wire Wire Line
	4050 1925 4050 2125
Wire Wire Line
	4050 2125 4125 2125
Wire Wire Line
	4050 1525 4050 1475
Wire Wire Line
	4050 1475 4425 1475
Connection ~ 4425 1475
Wire Wire Line
	4425 1475 4425 1925
$Comp
L Device:R R14
U 1 1 5E15FEAF
P 4425 4550
F 0 "R14" H 4495 4596 50  0000 L CNN
F 1 "1/5W" H 4495 4505 50  0000 L CNN
F 2 "TO_SOT_Packages_THT:TO-220-2_Vertical" V 4355 4550 50  0001 C CNN
F 3 "~" H 4425 4550 50  0001 C CNN
	1    4425 4550
	1    0    0    -1  
$EndComp
Wire Wire Line
	4425 3825 4425 4325
Wire Wire Line
	4050 4275 4050 4325
Wire Wire Line
	4050 4325 4425 4325
Connection ~ 4425 4325
Wire Wire Line
	4425 4325 4425 4400
Wire Wire Line
	4050 3875 4050 3625
Wire Wire Line
	4050 3625 4125 3625
Wire Wire Line
	3600 4075 3750 4075
Wire Wire Line
	3150 4775 4425 4775
Wire Wire Line
	4425 4775 4425 4700
Connection ~ 3150 4775
Wire Wire Line
	4425 2325 4425 2900
$Comp
L Device:R R12
U 1 1 5E1660B7
P 4175 2900
F 0 "R12" V 3968 2900 50  0000 C CNN
F 1 "220" V 4059 2900 50  0000 C CNN
F 2 "Resistors_ThroughHole:R_Axial_DIN0207_L6.3mm_D2.5mm_P10.16mm_Horizontal" V 4105 2900 50  0001 C CNN
F 3 "~" H 4175 2900 50  0001 C CNN
	1    4175 2900
	0    1    1    0   
$EndComp
Wire Wire Line
	4425 2900 4325 2900
Connection ~ 4425 2900
Wire Wire Line
	4425 2900 4425 3425
Wire Wire Line
	4025 2900 3750 2900
$Comp
L Device:R R9
U 1 1 5E168D23
P 3450 3050
F 0 "R9" V 3243 3050 50  0000 C CNN
F 1 "10" V 3334 3050 50  0000 C CNN
F 2 "Resistors_ThroughHole:R_Axial_DIN0207_L6.3mm_D2.5mm_P10.16mm_Horizontal" V 3380 3050 50  0001 C CNN
F 3 "~" H 3450 3050 50  0001 C CNN
	1    3450 3050
	0    1    1    0   
$EndComp
Wire Wire Line
	3300 3050 3150 3050
Connection ~ 3150 3050
Wire Wire Line
	3150 3050 3150 3175
Wire Wire Line
	3600 3050 3750 3050
Wire Wire Line
	3750 3050 3750 2900
Connection ~ 3750 2900
Wire Wire Line
	3750 2900 2875 2900
$Comp
L power:GND #PWR05
U 1 1 5E16BC12
P 3000 3125
F 0 "#PWR05" H 3000 2875 50  0001 C CNN
F 1 "GND" H 3005 2952 50  0000 C CNN
F 2 "" H 3000 3125 50  0001 C CNN
F 3 "" H 3000 3125 50  0001 C CNN
	1    3000 3125
	1    0    0    -1  
$EndComp
Wire Wire Line
	3000 3125 3000 3050
Wire Wire Line
	3000 3050 3150 3050
$Comp
L Device:C C1
U 1 1 5E16D6BD
P 3750 3875
F 0 "C1" H 3865 3921 50  0000 L CNN
F 1 "56pF" H 3865 3830 50  0000 L CNN
F 2 "Capacitors_ThroughHole:C_Disc_D3.0mm_W1.6mm_P2.50mm" H 3788 3725 50  0001 C CNN
F 3 "~" H 3750 3875 50  0001 C CNN
	1    3750 3875
	1    0    0    -1  
$EndComp
Wire Wire Line
	3750 4025 3750 4075
Connection ~ 3750 4075
Wire Wire Line
	4050 3625 3750 3625
Wire Wire Line
	3750 3625 3750 3725
Connection ~ 4050 3625
$Comp
L Connector_Generic:Conn_01x02 J2
U 1 1 5E173307
P 4825 2900
F 0 "J2" H 4905 2892 50  0000 L CNN
F 1 "OUT" H 4905 2801 50  0000 L CNN
F 2 "suf_connector_ncw:CONN_NCW396-02S" H 4825 2900 50  0001 C CNN
F 3 "~" H 4825 2900 50  0001 C CNN
	1    4825 2900
	1    0    0    -1  
$EndComp
$Comp
L power:GND #PWR06
U 1 1 5E175518
P 4550 3075
F 0 "#PWR06" H 4550 2825 50  0001 C CNN
F 1 "GND" H 4555 2902 50  0000 C CNN
F 2 "" H 4550 3075 50  0001 C CNN
F 3 "" H 4550 3075 50  0001 C CNN
	1    4550 3075
	1    0    0    -1  
$EndComp
Wire Wire Line
	4625 2900 4425 2900
Wire Wire Line
	4625 3000 4550 3000
Wire Wire Line
	4550 3000 4550 3075
$Comp
L Device:C C2
U 1 1 5E178514
P 4925 1275
F 0 "C2" H 5040 1321 50  0000 L CNN
F 1 "1uF/63V" H 4575 1150 50  0000 L CNN
F 2 "Capacitors_ThroughHole:C_Rect_L7.2mm_W5.5mm_P5.00mm_FKS2_FKP2_MKS2_MKP2" H 4963 1125 50  0001 C CNN
F 3 "~" H 4925 1275 50  0001 C CNN
	1    4925 1275
	1    0    0    -1  
$EndComp
$Comp
L Device:CP C4
U 1 1 5E178ED0
P 5325 1275
F 0 "C4" H 5443 1321 50  0000 L CNN
F 1 "100uF/16V" H 5375 1150 50  0000 L CNN
F 2 "Capacitors_ThroughHole:CP_Radial_D10.0mm_P5.00mm" H 5363 1125 50  0001 C CNN
F 3 "~" H 5325 1275 50  0001 C CNN
	1    5325 1275
	1    0    0    -1  
$EndComp
$Comp
L power:GND #PWR07
U 1 1 5E1796AD
P 4925 1525
F 0 "#PWR07" H 4925 1275 50  0001 C CNN
F 1 "GND" H 4930 1352 50  0000 C CNN
F 2 "" H 4925 1525 50  0001 C CNN
F 3 "" H 4925 1525 50  0001 C CNN
	1    4925 1525
	1    0    0    -1  
$EndComp
$Comp
L power:GND #PWR09
U 1 1 5E179FA1
P 5325 1525
F 0 "#PWR09" H 5325 1275 50  0001 C CNN
F 1 "GND" H 5330 1352 50  0000 C CNN
F 2 "" H 5325 1525 50  0001 C CNN
F 3 "" H 5325 1525 50  0001 C CNN
	1    5325 1525
	1    0    0    -1  
$EndComp
Wire Wire Line
	4425 1025 4925 1025
Wire Wire Line
	5325 1025 5325 1125
Connection ~ 4425 1025
Wire Wire Line
	4925 1125 4925 1025
Connection ~ 4925 1025
Wire Wire Line
	4925 1025 5325 1025
Wire Wire Line
	4925 1425 4925 1525
Wire Wire Line
	5325 1425 5325 1525
$Comp
L Device:C C3
U 1 1 5E17FEDC
P 4975 4525
F 0 "C3" H 5090 4571 50  0000 L CNN
F 1 "1uF/63V" H 4600 4625 50  0000 L CNN
F 2 "Capacitors_ThroughHole:C_Rect_L7.2mm_W5.5mm_P5.00mm_FKS2_FKP2_MKS2_MKP2" H 5013 4375 50  0001 C CNN
F 3 "~" H 4975 4525 50  0001 C CNN
	1    4975 4525
	1    0    0    -1  
$EndComp
$Comp
L Device:CP C5
U 1 1 5E17FEE6
P 5375 4525
F 0 "C5" H 5493 4571 50  0000 L CNN
F 1 "100uF/16V" H 5400 4425 50  0000 L CNN
F 2 "Capacitors_ThroughHole:CP_Radial_D10.0mm_P5.00mm" H 5413 4375 50  0001 C CNN
F 3 "~" H 5375 4525 50  0001 C CNN
	1    5375 4525
	1    0    0    -1  
$EndComp
$Comp
L power:GND #PWR08
U 1 1 5E18309D
P 4975 4300
F 0 "#PWR08" H 4975 4050 50  0001 C CNN
F 1 "GND" H 4980 4127 50  0000 C CNN
F 2 "" H 4975 4300 50  0001 C CNN
F 3 "" H 4975 4300 50  0001 C CNN
	1    4975 4300
	-1   0    0    1   
$EndComp
$Comp
L power:GND #PWR010
U 1 1 5E183A7E
P 5375 4300
F 0 "#PWR010" H 5375 4050 50  0001 C CNN
F 1 "GND" H 5380 4127 50  0000 C CNN
F 2 "" H 5375 4300 50  0001 C CNN
F 3 "" H 5375 4300 50  0001 C CNN
	1    5375 4300
	-1   0    0    1   
$EndComp
Wire Wire Line
	4425 4775 4975 4775
Wire Wire Line
	5375 4775 5375 4675
Connection ~ 4425 4775
Wire Wire Line
	4975 4675 4975 4775
Connection ~ 4975 4775
Wire Wire Line
	4975 4775 5375 4775
Wire Wire Line
	4975 4300 4975 4375
Wire Wire Line
	5375 4300 5375 4375
$Comp
L Connector_Generic:Conn_01x03 J3
U 1 1 5E1481AD
P 5925 3000
F 0 "J3" H 6005 3042 50  0000 L CNN
F 1 "PWR" H 6005 2951 50  0000 L CNN
F 2 "Connector_Phoenix_MSTB:PhoenixContact_MSTBVA_2,5_3-G_1x03_P5.00mm_Vertical" H 5925 3000 50  0001 C CNN
F 3 "~" H 5925 3000 50  0001 C CNN
	1    5925 3000
	1    0    0    -1  
$EndComp
$Comp
L power:GND #PWR011
U 1 1 5E14879B
P 5450 3175
F 0 "#PWR011" H 5450 2925 50  0001 C CNN
F 1 "GND" H 5455 3002 50  0000 C CNN
F 2 "" H 5450 3175 50  0001 C CNN
F 3 "" H 5450 3175 50  0001 C CNN
	1    5450 3175
	1    0    0    -1  
$EndComp
$Comp
L power:-12V #PWR013
U 1 1 5E1490ED
P 5650 3175
F 0 "#PWR013" H 5650 3275 50  0001 C CNN
F 1 "-12V" H 5665 3348 50  0000 C CNN
F 2 "" H 5650 3175 50  0001 C CNN
F 3 "" H 5650 3175 50  0001 C CNN
	1    5650 3175
	-1   0    0    1   
$EndComp
$Comp
L power:+12V #PWR012
U 1 1 5E149A19
P 5650 2825
F 0 "#PWR012" H 5650 2675 50  0001 C CNN
F 1 "+12V" H 5665 2998 50  0000 C CNN
F 2 "" H 5650 2825 50  0001 C CNN
F 3 "" H 5650 2825 50  0001 C CNN
	1    5650 2825
	1    0    0    -1  
$EndComp
Wire Wire Line
	5650 2825 5650 2900
Wire Wire Line
	5650 2900 5725 2900
Wire Wire Line
	5725 3100 5650 3100
Wire Wire Line
	5650 3100 5650 3175
Wire Wire Line
	5725 3000 5450 3000
Wire Wire Line
	5450 3000 5450 3175
$EndSCHEMATC
