EESchema Schematic File Version 4
EELAYER 29 0
EELAYER END
$Descr A4 11693 8268
encoding utf-8
Sheet 1 1
Title ""
Date ""
Rev ""
Comp ""
Comment1 ""
Comment2 ""
Comment3 ""
Comment4 ""
$EndDescr
Text Notes 700  1100 0    50   ~ 0
- Ideal Diode Bridge\n- Center taped transformer\n- max +-36VDC (LT4320 limitation)\n- LED connector\n- Protection circuit connector
$Comp
L suf_power_management:LT4320_MSOP U1
U 1 1 5E11A004
P 3050 1650
F 0 "U1" H 2800 1350 50  0000 C CNN
F 1 "LT4320-1" H 3275 1950 50  0000 C CNN
F 2 "Housings_SSOP:MSOP-12-1EP_3x4mm_Pitch0.65mm" H 3050 1650 50  0001 C CNN
F 3 "" H 3050 1650 50  0001 C CNN
	1    3050 1650
	1    0    0    -1  
$EndComp
Wire Wire Line
	3000 2000 3000 2025
Wire Wire Line
	3000 2025 3050 2025
Wire Wire Line
	3100 2025 3100 2000
$Comp
L Device:Q_NMOS_GDS Q1
U 1 1 5E11AF18
P 2600 1200
F 0 "Q1" V 2943 1200 50  0000 C CNN
F 1 "SUM110N04-04" V 2852 1200 50  0000 C CNN
F 2 "TO_SOT_Packages_SMD:TO-263-2" H 2800 1300 50  0001 C CNN
F 3 "~" H 2600 1200 50  0001 C CNN
	1    2600 1200
	0    1    -1   0   
$EndComp
$Comp
L Device:Q_NMOS_GDS Q3
U 1 1 5E11C1C0
P 3500 1200
F 0 "Q3" V 3843 1200 50  0000 C CNN
F 1 "SUM110N04-04" V 3752 1200 50  0000 C CNN
F 2 "TO_SOT_Packages_SMD:TO-263-2" H 3700 1300 50  0001 C CNN
F 3 "~" H 3500 1200 50  0001 C CNN
	1    3500 1200
	0    -1   -1   0   
$EndComp
$Comp
L Device:Q_NMOS_GDS Q2
U 1 1 5E11D65A
P 2600 2100
F 0 "Q2" V 2851 2100 50  0000 C CNN
F 1 "SUM110N04-04" V 2942 2100 50  0000 C CNN
F 2 "TO_SOT_Packages_SMD:TO-263-2" H 2800 2200 50  0001 C CNN
F 3 "~" H 2600 2100 50  0001 C CNN
	1    2600 2100
	0    -1   1    0   
$EndComp
$Comp
L Device:Q_NMOS_GDS Q4
U 1 1 5E11EC2B
P 3500 2100
F 0 "Q4" V 3751 2100 50  0000 C CNN
F 1 "SUM110N04-04" V 3842 2100 50  0000 C CNN
F 2 "TO_SOT_Packages_SMD:TO-263-2" H 3700 2200 50  0001 C CNN
F 3 "~" H 3500 2100 50  0001 C CNN
	1    3500 2100
	0    1    1    0   
$EndComp
Wire Wire Line
	2600 1400 2600 1450
Wire Wire Line
	2600 1450 2650 1450
Wire Wire Line
	2600 1900 2600 1850
Wire Wire Line
	2600 1850 2650 1850
Wire Wire Line
	3450 1450 3500 1450
Wire Wire Line
	3500 1450 3500 1400
Wire Wire Line
	3450 1850 3500 1850
Wire Wire Line
	3500 1850 3500 1900
$Comp
L power:VCC #PWR024
U 1 1 5E123B39
P 3050 1050
F 0 "#PWR024" H 3050 900 50  0001 C CNN
F 1 "VCC" H 3067 1223 50  0000 C CNN
F 2 "" H 3050 1050 50  0001 C CNN
F 3 "" H 3050 1050 50  0001 C CNN
	1    3050 1050
	1    0    0    -1  
$EndComp
$Comp
L power:VDD #PWR025
U 1 1 5E12461D
P 3050 2250
F 0 "#PWR025" H 3050 2100 50  0001 C CNN
F 1 "VDD" H 3068 2423 50  0000 C CNN
F 2 "" H 3050 2250 50  0001 C CNN
F 3 "" H 3050 2250 50  0001 C CNN
	1    3050 2250
	-1   0    0    1   
$EndComp
Wire Wire Line
	3050 1050 3050 1100
Wire Wire Line
	3050 2025 3050 2200
Connection ~ 3050 2025
Wire Wire Line
	3050 2025 3100 2025
Wire Wire Line
	2800 1100 3050 1100
Connection ~ 3050 1100
Wire Wire Line
	3050 1100 3050 1300
Wire Wire Line
	3300 1100 3050 1100
Wire Wire Line
	2800 2200 3050 2200
Connection ~ 3050 2200
Wire Wire Line
	3050 2200 3050 2250
Wire Wire Line
	3300 2200 3050 2200
Wire Wire Line
	2400 1100 2350 1100
Wire Wire Line
	2350 1100 2350 1650
Wire Wire Line
	2350 2200 2400 2200
Wire Wire Line
	3700 1100 3750 1100
Wire Wire Line
	3750 1100 3750 1650
Wire Wire Line
	3750 2200 3700 2200
Wire Wire Line
	3450 1650 3750 1650
Connection ~ 3750 1650
Wire Wire Line
	3750 1650 3750 2200
Wire Wire Line
	2650 1650 2350 1650
Connection ~ 2350 1650
Wire Wire Line
	2350 1650 2350 2200
$Comp
L conn:Conn_01x04 J1
U 1 1 5E1285A5
P 750 1650
F 0 "J1" H 750 1325 50  0000 C CNN
F 1 "PWR" H 750 1850 50  0000 C CNN
F 2 "Connector_Phoenix_GMSTB:PhoenixContact_GMSTBVA_2,5_4-G_1x04_P7.50mm_Vertical" H 750 1650 50  0001 C CNN
F 3 "~" H 750 1650 50  0001 C CNN
	1    750  1650
	-1   0    0    -1  
$EndComp
$Comp
L power:GND #PWR05
U 1 1 5E129226
P 1375 1750
F 0 "#PWR05" H 1375 1500 50  0001 C CNN
F 1 "GND" H 1380 1577 50  0000 C CNN
F 2 "" H 1375 1750 50  0001 C CNN
F 3 "" H 1375 1750 50  0001 C CNN
	1    1375 1750
	1    0    0    -1  
$EndComp
Wire Wire Line
	950  1650 1025 1650
Wire Wire Line
	1025 1650 1025 1700
Wire Wire Line
	1025 1750 950  1750
Wire Wire Line
	1025 1700 1375 1700
Wire Wire Line
	1375 1700 1375 1750
Connection ~ 1025 1700
Wire Wire Line
	1025 1700 1025 1750
Text GLabel 1025 1550 2    50   Input ~ 0
AC1
Text GLabel 1025 1850 2    50   Input ~ 0
AC2
Wire Wire Line
	950  1550 1025 1550
Wire Wire Line
	950  1850 1025 1850
Text GLabel 2275 1650 0    50   Input ~ 0
AC1
Wire Wire Line
	2275 1650 2350 1650
Text GLabel 3825 1650 2    50   Input ~ 0
AC2
Wire Wire Line
	3750 1650 3825 1650
$Comp
L conn:Conn_01x03 J2
U 1 1 5E12DD52
P 750 2425
F 0 "J2" H 700 2200 50  0000 L CNN
F 1 "Protect" H 600 2650 50  0000 L CNN
F 2 "Connectors_JST:JST_EH_B03B-EH-A_03x2.50mm_Straight" H 750 2425 50  0001 C CNN
F 3 "~" H 750 2425 50  0001 C CNN
	1    750  2425
	-1   0    0    -1  
$EndComp
$Comp
L power:GND #PWR04
U 1 1 5E12E4A9
P 1025 2600
F 0 "#PWR04" H 1025 2350 50  0001 C CNN
F 1 "GND" H 1030 2427 50  0000 C CNN
F 2 "" H 1025 2600 50  0001 C CNN
F 3 "" H 1025 2600 50  0001 C CNN
	1    1025 2600
	-1   0    0    -1  
$EndComp
Text GLabel 1125 2425 2    50   Input ~ 0
AC2
$Comp
L power:VCC #PWR03
U 1 1 5E12EF90
P 1025 2250
F 0 "#PWR03" H 1025 2100 50  0001 C CNN
F 1 "VCC" H 1042 2423 50  0000 C CNN
F 2 "" H 1025 2250 50  0001 C CNN
F 3 "" H 1025 2250 50  0001 C CNN
	1    1025 2250
	-1   0    0    -1  
$EndComp
Wire Wire Line
	1125 2425 950  2425
Wire Wire Line
	1025 2250 1025 2325
Wire Wire Line
	1025 2325 950  2325
Wire Wire Line
	1025 2600 1025 2525
Wire Wire Line
	1025 2525 950  2525
$Comp
L conn:Conn_01x02 J3
U 1 1 5E131B23
P 975 3425
F 0 "J3" H 1055 3417 50  0000 L CNN
F 1 "PWR_LED" H 1055 3326 50  0000 L CNN
F 2 "Connectors_JST:JST_EH_B02B-EH-A_02x2.50mm_Straight" H 975 3425 50  0001 C CNN
F 3 "~" H 975 3425 50  0001 C CNN
	1    975  3425
	1    0    0    -1  
$EndComp
$Comp
L Device:R R1
U 1 1 5E132375
P 725 3225
F 0 "R1" H 795 3271 50  0000 L CNN
F 1 "1.8K" H 795 3180 50  0000 L CNN
F 2 "Resistors_SMD:R_1206" V 655 3225 50  0001 C CNN
F 3 "~" H 725 3225 50  0001 C CNN
	1    725  3225
	1    0    0    -1  
$EndComp
$Comp
L power:VCC #PWR01
U 1 1 5E132F98
P 725 3000
F 0 "#PWR01" H 725 2850 50  0001 C CNN
F 1 "VCC" H 742 3173 50  0000 C CNN
F 2 "" H 725 3000 50  0001 C CNN
F 3 "" H 725 3000 50  0001 C CNN
	1    725  3000
	1    0    0    -1  
$EndComp
$Comp
L power:GND #PWR02
U 1 1 5E1334A5
P 725 3575
F 0 "#PWR02" H 725 3325 50  0001 C CNN
F 1 "GND" H 730 3402 50  0000 C CNN
F 2 "" H 725 3575 50  0001 C CNN
F 3 "" H 725 3575 50  0001 C CNN
	1    725  3575
	1    0    0    -1  
$EndComp
Wire Wire Line
	725  3000 725  3075
Wire Wire Line
	725  3375 725  3425
Wire Wire Line
	725  3425 775  3425
Wire Wire Line
	775  3525 725  3525
Wire Wire Line
	725  3525 725  3575
Text Notes 1000 3250 0    50   ~ 0
Calculated to 12V
$Comp
L Device:C C1
U 1 1 5E14F607
P 900 4325
F 0 "C1" H 1015 4371 50  0000 L CNN
F 1 "10nF" H 1015 4280 50  0000 L CNN
F 2 "Capacitors_SMD:C_1206_HandSoldering" H 938 4175 50  0001 C CNN
F 3 "~" H 900 4325 50  0001 C CNN
	1    900  4325
	1    0    0    -1  
$EndComp
$Comp
L Device:C C2
U 1 1 5E150069
P 1225 4550
F 0 "C2" H 1340 4596 50  0000 L CNN
F 1 "150nF" H 1340 4505 50  0000 L CNN
F 2 "Capacitors_SMD:C_2220_HandSoldering" H 1263 4400 50  0001 C CNN
F 3 "~" H 1225 4550 50  0001 C CNN
	1    1225 4550
	1    0    0    -1  
$EndComp
$Comp
L Device:R R2
U 1 1 5E1509D1
P 1225 4125
F 0 "R2" H 1295 4171 50  0000 L CNN
F 1 "150" H 1295 4080 50  0000 L CNN
F 2 "Resistors_SMD:R_2512_HandSoldering" V 1155 4125 50  0001 C CNN
F 3 "~" H 1225 4125 50  0001 C CNN
	1    1225 4125
	1    0    0    -1  
$EndComp
Text GLabel 850  3900 0    50   Input ~ 0
AC1
Text GLabel 850  4775 0    50   Input ~ 0
AC2
Wire Wire Line
	850  3900 900  3900
Wire Wire Line
	1225 3900 1225 3975
Wire Wire Line
	850  4775 900  4775
Wire Wire Line
	1225 4775 1225 4700
Wire Wire Line
	900  4475 900  4775
Connection ~ 900  4775
Wire Wire Line
	900  4775 1225 4775
Wire Wire Line
	900  4175 900  3900
Connection ~ 900  3900
Wire Wire Line
	900  3900 1225 3900
Wire Wire Line
	1225 4275 1225 4400
$Comp
L Device:CP C3
U 1 1 5E1578D0
P 2225 3025
F 0 "C3" V 2300 3100 50  0000 L CNN
F 1 "4700uF/16V" V 2150 2475 50  0000 L CNN
F 2 "Capacitors_ThroughHole:CP_Radial_D18.0mm_P7.50mm" H 2263 2875 50  0001 C CNN
F 3 "~" H 2225 3025 50  0001 C CNN
	1    2225 3025
	1    0    0    -1  
$EndComp
$Comp
L Device:CP C4
U 1 1 5E15BE57
P 2225 3825
F 0 "C4" V 2300 3650 50  0000 L CNN
F 1 "4700uF/16V" V 2300 3875 50  0000 L CNN
F 2 "Capacitors_ThroughHole:CP_Radial_D18.0mm_P7.50mm" H 2263 3675 50  0001 C CNN
F 3 "~" H 2225 3825 50  0001 C CNN
	1    2225 3825
	1    0    0    -1  
$EndComp
$Comp
L power:GND #PWR06
U 1 1 5E15CC65
P 2050 3700
F 0 "#PWR06" H 2050 3450 50  0001 C CNN
F 1 "GND" H 2055 3527 50  0000 C CNN
F 2 "" H 2050 3700 50  0001 C CNN
F 3 "" H 2050 3700 50  0001 C CNN
	1    2050 3700
	-1   0    0    -1  
$EndComp
$Comp
L power:VCC #PWR08
U 1 1 5E15D3BA
P 2225 2800
F 0 "#PWR08" H 2225 2650 50  0001 C CNN
F 1 "VCC" H 2242 2973 50  0000 C CNN
F 2 "" H 2225 2800 50  0001 C CNN
F 3 "" H 2225 2800 50  0001 C CNN
	1    2225 2800
	1    0    0    -1  
$EndComp
$Comp
L power:VDD #PWR09
U 1 1 5E15DBD7
P 2225 4050
F 0 "#PWR09" H 2225 3900 50  0001 C CNN
F 1 "VDD" H 2243 4223 50  0000 C CNN
F 2 "" H 2225 4050 50  0001 C CNN
F 3 "" H 2225 4050 50  0001 C CNN
	1    2225 4050
	-1   0    0    1   
$EndComp
Wire Wire Line
	2225 2800 2225 2875
Wire Wire Line
	2225 3175 2225 3450
Wire Wire Line
	2225 3975 2225 4050
Wire Wire Line
	2050 3700 2050 3450
Wire Wire Line
	2050 3450 2225 3450
Connection ~ 2225 3450
Wire Wire Line
	2225 3450 2225 3675
$Comp
L Device:CP C5
U 1 1 5E16A7FC
P 2225 4725
F 0 "C5" V 2300 4800 50  0000 L CNN
F 1 "4700uF/16V" V 2150 4175 50  0000 L CNN
F 2 "Capacitors_ThroughHole:CP_Radial_D18.0mm_P7.50mm" H 2263 4575 50  0001 C CNN
F 3 "~" H 2225 4725 50  0001 C CNN
	1    2225 4725
	1    0    0    -1  
$EndComp
$Comp
L Device:CP C6
U 1 1 5E16A806
P 2225 5525
F 0 "C6" V 2300 5350 50  0000 L CNN
F 1 "4700uF/16V" V 2300 5575 50  0000 L CNN
F 2 "Capacitors_ThroughHole:CP_Radial_D18.0mm_P7.50mm" H 2263 5375 50  0001 C CNN
F 3 "~" H 2225 5525 50  0001 C CNN
	1    2225 5525
	1    0    0    -1  
$EndComp
$Comp
L power:GND #PWR07
U 1 1 5E16A810
P 2050 5400
F 0 "#PWR07" H 2050 5150 50  0001 C CNN
F 1 "GND" H 2055 5227 50  0000 C CNN
F 2 "" H 2050 5400 50  0001 C CNN
F 3 "" H 2050 5400 50  0001 C CNN
	1    2050 5400
	-1   0    0    -1  
$EndComp
$Comp
L power:VCC #PWR010
U 1 1 5E16A81A
P 2225 4500
F 0 "#PWR010" H 2225 4350 50  0001 C CNN
F 1 "VCC" H 2242 4673 50  0000 C CNN
F 2 "" H 2225 4500 50  0001 C CNN
F 3 "" H 2225 4500 50  0001 C CNN
	1    2225 4500
	1    0    0    -1  
$EndComp
$Comp
L power:VDD #PWR011
U 1 1 5E16A824
P 2225 5750
F 0 "#PWR011" H 2225 5600 50  0001 C CNN
F 1 "VDD" H 2243 5923 50  0000 C CNN
F 2 "" H 2225 5750 50  0001 C CNN
F 3 "" H 2225 5750 50  0001 C CNN
	1    2225 5750
	-1   0    0    1   
$EndComp
Wire Wire Line
	2225 4500 2225 4575
Wire Wire Line
	2225 4875 2225 5150
Wire Wire Line
	2225 5675 2225 5750
Wire Wire Line
	2050 5400 2050 5150
Wire Wire Line
	2050 5150 2225 5150
Connection ~ 2225 5150
Wire Wire Line
	2225 5150 2225 5375
$Comp
L Device:CP C7
U 1 1 5E16F680
P 2625 3025
F 0 "C7" V 2700 3100 50  0000 L CNN
F 1 "4700uF/16V" V 2550 2475 50  0000 L CNN
F 2 "Capacitors_ThroughHole:CP_Radial_D18.0mm_P7.50mm" H 2663 2875 50  0001 C CNN
F 3 "~" H 2625 3025 50  0001 C CNN
	1    2625 3025
	1    0    0    -1  
$EndComp
$Comp
L Device:CP C8
U 1 1 5E16F68A
P 2625 3825
F 0 "C8" V 2700 3650 50  0000 L CNN
F 1 "4700uF/16V" V 2700 3875 50  0000 L CNN
F 2 "Capacitors_ThroughHole:CP_Radial_D18.0mm_P7.50mm" H 2663 3675 50  0001 C CNN
F 3 "~" H 2625 3825 50  0001 C CNN
	1    2625 3825
	1    0    0    -1  
$EndComp
$Comp
L power:GND #PWR012
U 1 1 5E16F694
P 2450 3700
F 0 "#PWR012" H 2450 3450 50  0001 C CNN
F 1 "GND" H 2455 3527 50  0000 C CNN
F 2 "" H 2450 3700 50  0001 C CNN
F 3 "" H 2450 3700 50  0001 C CNN
	1    2450 3700
	-1   0    0    -1  
$EndComp
$Comp
L power:VCC #PWR014
U 1 1 5E16F69E
P 2625 2800
F 0 "#PWR014" H 2625 2650 50  0001 C CNN
F 1 "VCC" H 2642 2973 50  0000 C CNN
F 2 "" H 2625 2800 50  0001 C CNN
F 3 "" H 2625 2800 50  0001 C CNN
	1    2625 2800
	1    0    0    -1  
$EndComp
$Comp
L power:VDD #PWR015
U 1 1 5E16F6A8
P 2625 4050
F 0 "#PWR015" H 2625 3900 50  0001 C CNN
F 1 "VDD" H 2643 4223 50  0000 C CNN
F 2 "" H 2625 4050 50  0001 C CNN
F 3 "" H 2625 4050 50  0001 C CNN
	1    2625 4050
	-1   0    0    1   
$EndComp
Wire Wire Line
	2625 2800 2625 2875
Wire Wire Line
	2625 3175 2625 3450
Wire Wire Line
	2625 3975 2625 4050
Wire Wire Line
	2450 3700 2450 3450
Wire Wire Line
	2450 3450 2625 3450
Connection ~ 2625 3450
Wire Wire Line
	2625 3450 2625 3675
$Comp
L Device:CP C9
U 1 1 5E16F6B9
P 2625 4725
F 0 "C9" V 2700 4800 50  0000 L CNN
F 1 "4700uF/16V" V 2550 4175 50  0000 L CNN
F 2 "Capacitors_ThroughHole:CP_Radial_D18.0mm_P7.50mm" H 2663 4575 50  0001 C CNN
F 3 "~" H 2625 4725 50  0001 C CNN
	1    2625 4725
	1    0    0    -1  
$EndComp
$Comp
L Device:CP C10
U 1 1 5E16F6C3
P 2625 5525
F 0 "C10" V 2700 5350 50  0000 L CNN
F 1 "4700uF/16V" V 2700 5575 50  0000 L CNN
F 2 "Capacitors_ThroughHole:CP_Radial_D18.0mm_P7.50mm" H 2663 5375 50  0001 C CNN
F 3 "~" H 2625 5525 50  0001 C CNN
	1    2625 5525
	1    0    0    -1  
$EndComp
$Comp
L power:GND #PWR013
U 1 1 5E16F6CD
P 2450 5400
F 0 "#PWR013" H 2450 5150 50  0001 C CNN
F 1 "GND" H 2455 5227 50  0000 C CNN
F 2 "" H 2450 5400 50  0001 C CNN
F 3 "" H 2450 5400 50  0001 C CNN
	1    2450 5400
	-1   0    0    -1  
$EndComp
$Comp
L power:VCC #PWR016
U 1 1 5E16F6D7
P 2625 4500
F 0 "#PWR016" H 2625 4350 50  0001 C CNN
F 1 "VCC" H 2642 4673 50  0000 C CNN
F 2 "" H 2625 4500 50  0001 C CNN
F 3 "" H 2625 4500 50  0001 C CNN
	1    2625 4500
	1    0    0    -1  
$EndComp
$Comp
L power:VDD #PWR017
U 1 1 5E16F6E1
P 2625 5750
F 0 "#PWR017" H 2625 5600 50  0001 C CNN
F 1 "VDD" H 2643 5923 50  0000 C CNN
F 2 "" H 2625 5750 50  0001 C CNN
F 3 "" H 2625 5750 50  0001 C CNN
	1    2625 5750
	-1   0    0    1   
$EndComp
Wire Wire Line
	2625 4500 2625 4575
Wire Wire Line
	2625 4875 2625 5150
Wire Wire Line
	2625 5675 2625 5750
Wire Wire Line
	2450 5400 2450 5150
Wire Wire Line
	2450 5150 2625 5150
Connection ~ 2625 5150
Wire Wire Line
	2625 5150 2625 5375
$Comp
L Device:CP C11
U 1 1 5E174521
P 3025 3025
F 0 "C11" V 3100 3100 50  0000 L CNN
F 1 "4700uF/16V" V 2950 2475 50  0000 L CNN
F 2 "Capacitors_ThroughHole:CP_Radial_D18.0mm_P7.50mm" H 3063 2875 50  0001 C CNN
F 3 "~" H 3025 3025 50  0001 C CNN
	1    3025 3025
	1    0    0    -1  
$EndComp
$Comp
L Device:CP C12
U 1 1 5E17452B
P 3025 3825
F 0 "C12" V 3100 3650 50  0000 L CNN
F 1 "4700uF/16V" V 3100 3875 50  0000 L CNN
F 2 "Capacitors_ThroughHole:CP_Radial_D18.0mm_P7.50mm" H 3063 3675 50  0001 C CNN
F 3 "~" H 3025 3825 50  0001 C CNN
	1    3025 3825
	1    0    0    -1  
$EndComp
$Comp
L power:GND #PWR018
U 1 1 5E174535
P 2850 3700
F 0 "#PWR018" H 2850 3450 50  0001 C CNN
F 1 "GND" H 2855 3527 50  0000 C CNN
F 2 "" H 2850 3700 50  0001 C CNN
F 3 "" H 2850 3700 50  0001 C CNN
	1    2850 3700
	-1   0    0    -1  
$EndComp
$Comp
L power:VCC #PWR020
U 1 1 5E17453F
P 3025 2800
F 0 "#PWR020" H 3025 2650 50  0001 C CNN
F 1 "VCC" H 3042 2973 50  0000 C CNN
F 2 "" H 3025 2800 50  0001 C CNN
F 3 "" H 3025 2800 50  0001 C CNN
	1    3025 2800
	1    0    0    -1  
$EndComp
$Comp
L power:VDD #PWR021
U 1 1 5E174549
P 3025 4050
F 0 "#PWR021" H 3025 3900 50  0001 C CNN
F 1 "VDD" H 3043 4223 50  0000 C CNN
F 2 "" H 3025 4050 50  0001 C CNN
F 3 "" H 3025 4050 50  0001 C CNN
	1    3025 4050
	-1   0    0    1   
$EndComp
Wire Wire Line
	3025 2800 3025 2875
Wire Wire Line
	3025 3175 3025 3450
Wire Wire Line
	3025 3975 3025 4050
Wire Wire Line
	2850 3700 2850 3450
Wire Wire Line
	2850 3450 3025 3450
Connection ~ 3025 3450
Wire Wire Line
	3025 3450 3025 3675
$Comp
L Device:CP C13
U 1 1 5E17455A
P 3025 4725
F 0 "C13" V 3100 4800 50  0000 L CNN
F 1 "4700uF/16V" V 2950 4175 50  0000 L CNN
F 2 "Capacitors_ThroughHole:CP_Radial_D18.0mm_P7.50mm" H 3063 4575 50  0001 C CNN
F 3 "~" H 3025 4725 50  0001 C CNN
	1    3025 4725
	1    0    0    -1  
$EndComp
$Comp
L Device:CP C14
U 1 1 5E174564
P 3025 5525
F 0 "C14" V 3100 5350 50  0000 L CNN
F 1 "4700uF/16V" V 3100 5575 50  0000 L CNN
F 2 "Capacitors_ThroughHole:CP_Radial_D18.0mm_P7.50mm" H 3063 5375 50  0001 C CNN
F 3 "~" H 3025 5525 50  0001 C CNN
	1    3025 5525
	1    0    0    -1  
$EndComp
$Comp
L power:GND #PWR019
U 1 1 5E17456E
P 2850 5400
F 0 "#PWR019" H 2850 5150 50  0001 C CNN
F 1 "GND" H 2855 5227 50  0000 C CNN
F 2 "" H 2850 5400 50  0001 C CNN
F 3 "" H 2850 5400 50  0001 C CNN
	1    2850 5400
	-1   0    0    -1  
$EndComp
$Comp
L power:VCC #PWR022
U 1 1 5E174578
P 3025 4500
F 0 "#PWR022" H 3025 4350 50  0001 C CNN
F 1 "VCC" H 3042 4673 50  0000 C CNN
F 2 "" H 3025 4500 50  0001 C CNN
F 3 "" H 3025 4500 50  0001 C CNN
	1    3025 4500
	1    0    0    -1  
$EndComp
$Comp
L power:VDD #PWR023
U 1 1 5E174582
P 3025 5750
F 0 "#PWR023" H 3025 5600 50  0001 C CNN
F 1 "VDD" H 3043 5923 50  0000 C CNN
F 2 "" H 3025 5750 50  0001 C CNN
F 3 "" H 3025 5750 50  0001 C CNN
	1    3025 5750
	-1   0    0    1   
$EndComp
Wire Wire Line
	3025 4500 3025 4575
Wire Wire Line
	3025 4875 3025 5150
Wire Wire Line
	3025 5675 3025 5750
Wire Wire Line
	2850 5400 2850 5150
Wire Wire Line
	2850 5150 3025 5150
Connection ~ 3025 5150
Wire Wire Line
	3025 5150 3025 5375
$Comp
L Device:CP C15
U 1 1 5E174593
P 3425 3025
F 0 "C15" V 3500 3100 50  0000 L CNN
F 1 "4700uF/16V" V 3350 2475 50  0000 L CNN
F 2 "Capacitors_ThroughHole:CP_Radial_D18.0mm_P7.50mm" H 3463 2875 50  0001 C CNN
F 3 "~" H 3425 3025 50  0001 C CNN
	1    3425 3025
	1    0    0    -1  
$EndComp
$Comp
L Device:CP C16
U 1 1 5E17459D
P 3425 3825
F 0 "C16" V 3500 3650 50  0000 L CNN
F 1 "4700uF/16V" V 3500 3875 50  0000 L CNN
F 2 "Capacitors_ThroughHole:CP_Radial_D18.0mm_P7.50mm" H 3463 3675 50  0001 C CNN
F 3 "~" H 3425 3825 50  0001 C CNN
	1    3425 3825
	1    0    0    -1  
$EndComp
$Comp
L power:GND #PWR026
U 1 1 5E1745A7
P 3250 3700
F 0 "#PWR026" H 3250 3450 50  0001 C CNN
F 1 "GND" H 3255 3527 50  0000 C CNN
F 2 "" H 3250 3700 50  0001 C CNN
F 3 "" H 3250 3700 50  0001 C CNN
	1    3250 3700
	-1   0    0    -1  
$EndComp
$Comp
L power:VCC #PWR028
U 1 1 5E1745B1
P 3425 2800
F 0 "#PWR028" H 3425 2650 50  0001 C CNN
F 1 "VCC" H 3442 2973 50  0000 C CNN
F 2 "" H 3425 2800 50  0001 C CNN
F 3 "" H 3425 2800 50  0001 C CNN
	1    3425 2800
	1    0    0    -1  
$EndComp
$Comp
L power:VDD #PWR029
U 1 1 5E1745BB
P 3425 4050
F 0 "#PWR029" H 3425 3900 50  0001 C CNN
F 1 "VDD" H 3443 4223 50  0000 C CNN
F 2 "" H 3425 4050 50  0001 C CNN
F 3 "" H 3425 4050 50  0001 C CNN
	1    3425 4050
	-1   0    0    1   
$EndComp
Wire Wire Line
	3425 2800 3425 2875
Wire Wire Line
	3425 3175 3425 3450
Wire Wire Line
	3425 3975 3425 4050
Wire Wire Line
	3250 3700 3250 3450
Wire Wire Line
	3250 3450 3425 3450
Connection ~ 3425 3450
Wire Wire Line
	3425 3450 3425 3675
$Comp
L Device:CP C17
U 1 1 5E1745CC
P 3425 4725
F 0 "C17" V 3500 4800 50  0000 L CNN
F 1 "4700uF/16V" V 3350 4175 50  0000 L CNN
F 2 "Capacitors_ThroughHole:CP_Radial_D18.0mm_P7.50mm" H 3463 4575 50  0001 C CNN
F 3 "~" H 3425 4725 50  0001 C CNN
	1    3425 4725
	1    0    0    -1  
$EndComp
$Comp
L Device:CP C18
U 1 1 5E1745D6
P 3425 5525
F 0 "C18" V 3500 5350 50  0000 L CNN
F 1 "4700uF/16V" V 3500 5575 50  0000 L CNN
F 2 "Capacitors_ThroughHole:CP_Radial_D18.0mm_P7.50mm" H 3463 5375 50  0001 C CNN
F 3 "~" H 3425 5525 50  0001 C CNN
	1    3425 5525
	1    0    0    -1  
$EndComp
$Comp
L power:GND #PWR027
U 1 1 5E1745E0
P 3250 5400
F 0 "#PWR027" H 3250 5150 50  0001 C CNN
F 1 "GND" H 3255 5227 50  0000 C CNN
F 2 "" H 3250 5400 50  0001 C CNN
F 3 "" H 3250 5400 50  0001 C CNN
	1    3250 5400
	-1   0    0    -1  
$EndComp
$Comp
L power:VCC #PWR030
U 1 1 5E1745EA
P 3425 4500
F 0 "#PWR030" H 3425 4350 50  0001 C CNN
F 1 "VCC" H 3442 4673 50  0000 C CNN
F 2 "" H 3425 4500 50  0001 C CNN
F 3 "" H 3425 4500 50  0001 C CNN
	1    3425 4500
	1    0    0    -1  
$EndComp
$Comp
L power:VDD #PWR031
U 1 1 5E1745F4
P 3425 5750
F 0 "#PWR031" H 3425 5600 50  0001 C CNN
F 1 "VDD" H 3443 5923 50  0000 C CNN
F 2 "" H 3425 5750 50  0001 C CNN
F 3 "" H 3425 5750 50  0001 C CNN
	1    3425 5750
	-1   0    0    1   
$EndComp
Wire Wire Line
	3425 4500 3425 4575
Wire Wire Line
	3425 4875 3425 5150
Wire Wire Line
	3425 5675 3425 5750
Wire Wire Line
	3250 5400 3250 5150
Wire Wire Line
	3250 5150 3425 5150
Connection ~ 3425 5150
Wire Wire Line
	3425 5150 3425 5375
$Comp
L Device:CP C19
U 1 1 5E180C84
P 3825 3025
F 0 "C19" V 3900 3100 50  0000 L CNN
F 1 "4700uF/16V" V 3750 2475 50  0000 L CNN
F 2 "Capacitors_ThroughHole:CP_Radial_D18.0mm_P7.50mm" H 3863 2875 50  0001 C CNN
F 3 "~" H 3825 3025 50  0001 C CNN
	1    3825 3025
	1    0    0    -1  
$EndComp
$Comp
L Device:CP C20
U 1 1 5E180C8E
P 3825 3825
F 0 "C20" V 3900 3650 50  0000 L CNN
F 1 "4700uF/16V" V 3900 3875 50  0000 L CNN
F 2 "Capacitors_ThroughHole:CP_Radial_D18.0mm_P7.50mm" H 3863 3675 50  0001 C CNN
F 3 "~" H 3825 3825 50  0001 C CNN
	1    3825 3825
	1    0    0    -1  
$EndComp
$Comp
L power:GND #PWR032
U 1 1 5E180C98
P 3650 3700
F 0 "#PWR032" H 3650 3450 50  0001 C CNN
F 1 "GND" H 3655 3527 50  0000 C CNN
F 2 "" H 3650 3700 50  0001 C CNN
F 3 "" H 3650 3700 50  0001 C CNN
	1    3650 3700
	-1   0    0    -1  
$EndComp
$Comp
L power:VCC #PWR034
U 1 1 5E180CA2
P 3825 2800
F 0 "#PWR034" H 3825 2650 50  0001 C CNN
F 1 "VCC" H 3842 2973 50  0000 C CNN
F 2 "" H 3825 2800 50  0001 C CNN
F 3 "" H 3825 2800 50  0001 C CNN
	1    3825 2800
	1    0    0    -1  
$EndComp
$Comp
L power:VDD #PWR035
U 1 1 5E180CAC
P 3825 4050
F 0 "#PWR035" H 3825 3900 50  0001 C CNN
F 1 "VDD" H 3843 4223 50  0000 C CNN
F 2 "" H 3825 4050 50  0001 C CNN
F 3 "" H 3825 4050 50  0001 C CNN
	1    3825 4050
	-1   0    0    1   
$EndComp
Wire Wire Line
	3825 2800 3825 2875
Wire Wire Line
	3825 3175 3825 3450
Wire Wire Line
	3825 3975 3825 4050
Wire Wire Line
	3650 3700 3650 3450
Wire Wire Line
	3650 3450 3825 3450
Connection ~ 3825 3450
Wire Wire Line
	3825 3450 3825 3675
$Comp
L Device:CP C21
U 1 1 5E180CBD
P 3825 4725
F 0 "C21" V 3900 4800 50  0000 L CNN
F 1 "4700uF/16V" V 3750 4175 50  0000 L CNN
F 2 "Capacitors_ThroughHole:CP_Radial_D18.0mm_P7.50mm" H 3863 4575 50  0001 C CNN
F 3 "~" H 3825 4725 50  0001 C CNN
	1    3825 4725
	1    0    0    -1  
$EndComp
$Comp
L Device:CP C22
U 1 1 5E180CC7
P 3825 5525
F 0 "C22" V 3900 5350 50  0000 L CNN
F 1 "4700uF/16V" V 3900 5575 50  0000 L CNN
F 2 "Capacitors_ThroughHole:CP_Radial_D18.0mm_P7.50mm" H 3863 5375 50  0001 C CNN
F 3 "~" H 3825 5525 50  0001 C CNN
	1    3825 5525
	1    0    0    -1  
$EndComp
$Comp
L power:GND #PWR033
U 1 1 5E180CD1
P 3650 5400
F 0 "#PWR033" H 3650 5150 50  0001 C CNN
F 1 "GND" H 3655 5227 50  0000 C CNN
F 2 "" H 3650 5400 50  0001 C CNN
F 3 "" H 3650 5400 50  0001 C CNN
	1    3650 5400
	-1   0    0    -1  
$EndComp
$Comp
L power:VCC #PWR036
U 1 1 5E180CDB
P 3825 4500
F 0 "#PWR036" H 3825 4350 50  0001 C CNN
F 1 "VCC" H 3842 4673 50  0000 C CNN
F 2 "" H 3825 4500 50  0001 C CNN
F 3 "" H 3825 4500 50  0001 C CNN
	1    3825 4500
	1    0    0    -1  
$EndComp
$Comp
L power:VDD #PWR037
U 1 1 5E180CE5
P 3825 5750
F 0 "#PWR037" H 3825 5600 50  0001 C CNN
F 1 "VDD" H 3843 5923 50  0000 C CNN
F 2 "" H 3825 5750 50  0001 C CNN
F 3 "" H 3825 5750 50  0001 C CNN
	1    3825 5750
	-1   0    0    1   
$EndComp
Wire Wire Line
	3825 4500 3825 4575
Wire Wire Line
	3825 4875 3825 5150
Wire Wire Line
	3825 5675 3825 5750
Wire Wire Line
	3650 5400 3650 5150
Wire Wire Line
	3650 5150 3825 5150
Connection ~ 3825 5150
Wire Wire Line
	3825 5150 3825 5375
$Comp
L Device:CP C23
U 1 1 5E18914D
P 4225 3025
F 0 "C23" V 4300 3100 50  0000 L CNN
F 1 "4700uF/16V" V 4150 2475 50  0000 L CNN
F 2 "Capacitors_ThroughHole:CP_Radial_D18.0mm_P7.50mm" H 4263 2875 50  0001 C CNN
F 3 "~" H 4225 3025 50  0001 C CNN
	1    4225 3025
	1    0    0    -1  
$EndComp
$Comp
L Device:CP C24
U 1 1 5E189157
P 4225 3825
F 0 "C24" V 4300 3650 50  0000 L CNN
F 1 "4700uF/16V" V 4300 3875 50  0000 L CNN
F 2 "Capacitors_ThroughHole:CP_Radial_D18.0mm_P7.50mm" H 4263 3675 50  0001 C CNN
F 3 "~" H 4225 3825 50  0001 C CNN
	1    4225 3825
	1    0    0    -1  
$EndComp
$Comp
L power:GND #PWR038
U 1 1 5E189161
P 4050 3700
F 0 "#PWR038" H 4050 3450 50  0001 C CNN
F 1 "GND" H 4055 3527 50  0000 C CNN
F 2 "" H 4050 3700 50  0001 C CNN
F 3 "" H 4050 3700 50  0001 C CNN
	1    4050 3700
	-1   0    0    -1  
$EndComp
$Comp
L power:VCC #PWR040
U 1 1 5E18916B
P 4225 2800
F 0 "#PWR040" H 4225 2650 50  0001 C CNN
F 1 "VCC" H 4242 2973 50  0000 C CNN
F 2 "" H 4225 2800 50  0001 C CNN
F 3 "" H 4225 2800 50  0001 C CNN
	1    4225 2800
	1    0    0    -1  
$EndComp
$Comp
L power:VDD #PWR041
U 1 1 5E189175
P 4225 4050
F 0 "#PWR041" H 4225 3900 50  0001 C CNN
F 1 "VDD" H 4243 4223 50  0000 C CNN
F 2 "" H 4225 4050 50  0001 C CNN
F 3 "" H 4225 4050 50  0001 C CNN
	1    4225 4050
	-1   0    0    1   
$EndComp
Wire Wire Line
	4225 2800 4225 2875
Wire Wire Line
	4225 3175 4225 3450
Wire Wire Line
	4225 3975 4225 4050
Wire Wire Line
	4050 3700 4050 3450
Wire Wire Line
	4050 3450 4225 3450
Connection ~ 4225 3450
Wire Wire Line
	4225 3450 4225 3675
$Comp
L Device:CP C25
U 1 1 5E189186
P 4225 4725
F 0 "C25" V 4300 4800 50  0000 L CNN
F 1 "4700uF/16V" V 4150 4175 50  0000 L CNN
F 2 "Capacitors_ThroughHole:CP_Radial_D18.0mm_P7.50mm" H 4263 4575 50  0001 C CNN
F 3 "~" H 4225 4725 50  0001 C CNN
	1    4225 4725
	1    0    0    -1  
$EndComp
$Comp
L Device:CP C26
U 1 1 5E189190
P 4225 5525
F 0 "C26" V 4300 5350 50  0000 L CNN
F 1 "4700uF/16V" V 4300 5575 50  0000 L CNN
F 2 "Capacitors_ThroughHole:CP_Radial_D18.0mm_P7.50mm" H 4263 5375 50  0001 C CNN
F 3 "~" H 4225 5525 50  0001 C CNN
	1    4225 5525
	1    0    0    -1  
$EndComp
$Comp
L power:GND #PWR039
U 1 1 5E18919A
P 4050 5400
F 0 "#PWR039" H 4050 5150 50  0001 C CNN
F 1 "GND" H 4055 5227 50  0000 C CNN
F 2 "" H 4050 5400 50  0001 C CNN
F 3 "" H 4050 5400 50  0001 C CNN
	1    4050 5400
	-1   0    0    -1  
$EndComp
$Comp
L power:VCC #PWR042
U 1 1 5E1891A4
P 4225 4500
F 0 "#PWR042" H 4225 4350 50  0001 C CNN
F 1 "VCC" H 4242 4673 50  0000 C CNN
F 2 "" H 4225 4500 50  0001 C CNN
F 3 "" H 4225 4500 50  0001 C CNN
	1    4225 4500
	1    0    0    -1  
$EndComp
$Comp
L power:VDD #PWR043
U 1 1 5E1891AE
P 4225 5750
F 0 "#PWR043" H 4225 5600 50  0001 C CNN
F 1 "VDD" H 4243 5923 50  0000 C CNN
F 2 "" H 4225 5750 50  0001 C CNN
F 3 "" H 4225 5750 50  0001 C CNN
	1    4225 5750
	-1   0    0    1   
$EndComp
Wire Wire Line
	4225 4500 4225 4575
Wire Wire Line
	4225 4875 4225 5150
Wire Wire Line
	4225 5675 4225 5750
Wire Wire Line
	4050 5400 4050 5150
Wire Wire Line
	4050 5150 4225 5150
Connection ~ 4225 5150
Wire Wire Line
	4225 5150 4225 5375
$Comp
L Device:CP C27
U 1 1 5E1891BF
P 4625 3025
F 0 "C27" V 4700 3100 50  0000 L CNN
F 1 "4700uF/16V" V 4550 2475 50  0000 L CNN
F 2 "Capacitors_ThroughHole:CP_Radial_D18.0mm_P7.50mm" H 4663 2875 50  0001 C CNN
F 3 "~" H 4625 3025 50  0001 C CNN
	1    4625 3025
	1    0    0    -1  
$EndComp
$Comp
L Device:CP C28
U 1 1 5E1891C9
P 4625 3825
F 0 "C28" V 4700 3650 50  0000 L CNN
F 1 "4700uF/16V" V 4700 3875 50  0000 L CNN
F 2 "Capacitors_ThroughHole:CP_Radial_D18.0mm_P7.50mm" H 4663 3675 50  0001 C CNN
F 3 "~" H 4625 3825 50  0001 C CNN
	1    4625 3825
	1    0    0    -1  
$EndComp
$Comp
L power:GND #PWR044
U 1 1 5E1891D3
P 4450 3700
F 0 "#PWR044" H 4450 3450 50  0001 C CNN
F 1 "GND" H 4455 3527 50  0000 C CNN
F 2 "" H 4450 3700 50  0001 C CNN
F 3 "" H 4450 3700 50  0001 C CNN
	1    4450 3700
	-1   0    0    -1  
$EndComp
$Comp
L power:VCC #PWR046
U 1 1 5E1891DD
P 4625 2800
F 0 "#PWR046" H 4625 2650 50  0001 C CNN
F 1 "VCC" H 4642 2973 50  0000 C CNN
F 2 "" H 4625 2800 50  0001 C CNN
F 3 "" H 4625 2800 50  0001 C CNN
	1    4625 2800
	1    0    0    -1  
$EndComp
$Comp
L power:VDD #PWR047
U 1 1 5E1891E7
P 4625 4050
F 0 "#PWR047" H 4625 3900 50  0001 C CNN
F 1 "VDD" H 4643 4223 50  0000 C CNN
F 2 "" H 4625 4050 50  0001 C CNN
F 3 "" H 4625 4050 50  0001 C CNN
	1    4625 4050
	-1   0    0    1   
$EndComp
Wire Wire Line
	4625 2800 4625 2875
Wire Wire Line
	4625 3175 4625 3450
Wire Wire Line
	4625 3975 4625 4050
Wire Wire Line
	4450 3700 4450 3450
Wire Wire Line
	4450 3450 4625 3450
Connection ~ 4625 3450
Wire Wire Line
	4625 3450 4625 3675
$Comp
L Device:CP C29
U 1 1 5E1891F8
P 4625 4725
F 0 "C29" V 4700 4800 50  0000 L CNN
F 1 "4700uF/16V" V 4550 4175 50  0000 L CNN
F 2 "Capacitors_ThroughHole:CP_Radial_D18.0mm_P7.50mm" H 4663 4575 50  0001 C CNN
F 3 "~" H 4625 4725 50  0001 C CNN
	1    4625 4725
	1    0    0    -1  
$EndComp
$Comp
L Device:CP C30
U 1 1 5E189202
P 4625 5525
F 0 "C30" V 4700 5350 50  0000 L CNN
F 1 "4700uF/16V" V 4700 5575 50  0000 L CNN
F 2 "Capacitors_ThroughHole:CP_Radial_D18.0mm_P7.50mm" H 4663 5375 50  0001 C CNN
F 3 "~" H 4625 5525 50  0001 C CNN
	1    4625 5525
	1    0    0    -1  
$EndComp
$Comp
L power:GND #PWR045
U 1 1 5E18920C
P 4450 5400
F 0 "#PWR045" H 4450 5150 50  0001 C CNN
F 1 "GND" H 4455 5227 50  0000 C CNN
F 2 "" H 4450 5400 50  0001 C CNN
F 3 "" H 4450 5400 50  0001 C CNN
	1    4450 5400
	-1   0    0    -1  
$EndComp
$Comp
L power:VCC #PWR048
U 1 1 5E189216
P 4625 4500
F 0 "#PWR048" H 4625 4350 50  0001 C CNN
F 1 "VCC" H 4642 4673 50  0000 C CNN
F 2 "" H 4625 4500 50  0001 C CNN
F 3 "" H 4625 4500 50  0001 C CNN
	1    4625 4500
	1    0    0    -1  
$EndComp
$Comp
L power:VDD #PWR049
U 1 1 5E189220
P 4625 5750
F 0 "#PWR049" H 4625 5600 50  0001 C CNN
F 1 "VDD" H 4643 5923 50  0000 C CNN
F 2 "" H 4625 5750 50  0001 C CNN
F 3 "" H 4625 5750 50  0001 C CNN
	1    4625 5750
	-1   0    0    1   
$EndComp
Wire Wire Line
	4625 4500 4625 4575
Wire Wire Line
	4625 4875 4625 5150
Wire Wire Line
	4625 5675 4625 5750
Wire Wire Line
	4450 5400 4450 5150
Wire Wire Line
	4450 5150 4625 5150
Connection ~ 4625 5150
Wire Wire Line
	4625 5150 4625 5375
$Comp
L Device:CP C31
U 1 1 5E189231
P 5025 3025
F 0 "C31" V 5100 3100 50  0000 L CNN
F 1 "4700uF/16V" V 4950 2475 50  0000 L CNN
F 2 "Capacitors_ThroughHole:CP_Radial_D18.0mm_P7.50mm" H 5063 2875 50  0001 C CNN
F 3 "~" H 5025 3025 50  0001 C CNN
	1    5025 3025
	1    0    0    -1  
$EndComp
$Comp
L Device:CP C32
U 1 1 5E18923B
P 5025 3825
F 0 "C32" V 5100 3650 50  0000 L CNN
F 1 "4700uF/16V" V 5100 3875 50  0000 L CNN
F 2 "Capacitors_ThroughHole:CP_Radial_D18.0mm_P7.50mm" H 5063 3675 50  0001 C CNN
F 3 "~" H 5025 3825 50  0001 C CNN
	1    5025 3825
	1    0    0    -1  
$EndComp
$Comp
L power:GND #PWR050
U 1 1 5E189245
P 4850 3700
F 0 "#PWR050" H 4850 3450 50  0001 C CNN
F 1 "GND" H 4855 3527 50  0000 C CNN
F 2 "" H 4850 3700 50  0001 C CNN
F 3 "" H 4850 3700 50  0001 C CNN
	1    4850 3700
	-1   0    0    -1  
$EndComp
$Comp
L power:VCC #PWR052
U 1 1 5E18924F
P 5025 2800
F 0 "#PWR052" H 5025 2650 50  0001 C CNN
F 1 "VCC" H 5042 2973 50  0000 C CNN
F 2 "" H 5025 2800 50  0001 C CNN
F 3 "" H 5025 2800 50  0001 C CNN
	1    5025 2800
	1    0    0    -1  
$EndComp
$Comp
L power:VDD #PWR053
U 1 1 5E189259
P 5025 4050
F 0 "#PWR053" H 5025 3900 50  0001 C CNN
F 1 "VDD" H 5043 4223 50  0000 C CNN
F 2 "" H 5025 4050 50  0001 C CNN
F 3 "" H 5025 4050 50  0001 C CNN
	1    5025 4050
	-1   0    0    1   
$EndComp
Wire Wire Line
	5025 2800 5025 2875
Wire Wire Line
	5025 3175 5025 3450
Wire Wire Line
	5025 3975 5025 4050
Wire Wire Line
	4850 3700 4850 3450
Wire Wire Line
	4850 3450 5025 3450
Connection ~ 5025 3450
Wire Wire Line
	5025 3450 5025 3675
$Comp
L Device:CP C33
U 1 1 5E18926A
P 5025 4725
F 0 "C33" V 5100 4800 50  0000 L CNN
F 1 "4700uF/16V" V 4950 4175 50  0000 L CNN
F 2 "Capacitors_ThroughHole:CP_Radial_D18.0mm_P7.50mm" H 5063 4575 50  0001 C CNN
F 3 "~" H 5025 4725 50  0001 C CNN
	1    5025 4725
	1    0    0    -1  
$EndComp
$Comp
L Device:CP C34
U 1 1 5E189274
P 5025 5525
F 0 "C34" V 5100 5350 50  0000 L CNN
F 1 "4700uF/16V" V 5100 5575 50  0000 L CNN
F 2 "Capacitors_ThroughHole:CP_Radial_D18.0mm_P7.50mm" H 5063 5375 50  0001 C CNN
F 3 "~" H 5025 5525 50  0001 C CNN
	1    5025 5525
	1    0    0    -1  
$EndComp
$Comp
L power:GND #PWR051
U 1 1 5E18927E
P 4850 5400
F 0 "#PWR051" H 4850 5150 50  0001 C CNN
F 1 "GND" H 4855 5227 50  0000 C CNN
F 2 "" H 4850 5400 50  0001 C CNN
F 3 "" H 4850 5400 50  0001 C CNN
	1    4850 5400
	-1   0    0    -1  
$EndComp
$Comp
L power:VCC #PWR054
U 1 1 5E189288
P 5025 4500
F 0 "#PWR054" H 5025 4350 50  0001 C CNN
F 1 "VCC" H 5042 4673 50  0000 C CNN
F 2 "" H 5025 4500 50  0001 C CNN
F 3 "" H 5025 4500 50  0001 C CNN
	1    5025 4500
	1    0    0    -1  
$EndComp
$Comp
L power:VDD #PWR055
U 1 1 5E189292
P 5025 5750
F 0 "#PWR055" H 5025 5600 50  0001 C CNN
F 1 "VDD" H 5043 5923 50  0000 C CNN
F 2 "" H 5025 5750 50  0001 C CNN
F 3 "" H 5025 5750 50  0001 C CNN
	1    5025 5750
	-1   0    0    1   
$EndComp
Wire Wire Line
	5025 4500 5025 4575
Wire Wire Line
	5025 4875 5025 5150
Wire Wire Line
	5025 5675 5025 5750
Wire Wire Line
	4850 5400 4850 5150
Wire Wire Line
	4850 5150 5025 5150
Connection ~ 5025 5150
Wire Wire Line
	5025 5150 5025 5375
$Comp
L Device:CP C35
U 1 1 5E1892A3
P 5425 3025
F 0 "C35" V 5500 3100 50  0000 L CNN
F 1 "4700uF/16V" V 5350 2475 50  0000 L CNN
F 2 "Capacitors_ThroughHole:CP_Radial_D18.0mm_P7.50mm" H 5463 2875 50  0001 C CNN
F 3 "~" H 5425 3025 50  0001 C CNN
	1    5425 3025
	1    0    0    -1  
$EndComp
$Comp
L Device:CP C36
U 1 1 5E1892AD
P 5425 3825
F 0 "C36" V 5500 3650 50  0000 L CNN
F 1 "4700uF/16V" V 5500 3875 50  0000 L CNN
F 2 "Capacitors_ThroughHole:CP_Radial_D18.0mm_P7.50mm" H 5463 3675 50  0001 C CNN
F 3 "~" H 5425 3825 50  0001 C CNN
	1    5425 3825
	1    0    0    -1  
$EndComp
$Comp
L power:GND #PWR056
U 1 1 5E1892B7
P 5250 3700
F 0 "#PWR056" H 5250 3450 50  0001 C CNN
F 1 "GND" H 5255 3527 50  0000 C CNN
F 2 "" H 5250 3700 50  0001 C CNN
F 3 "" H 5250 3700 50  0001 C CNN
	1    5250 3700
	-1   0    0    -1  
$EndComp
$Comp
L power:VCC #PWR058
U 1 1 5E1892C1
P 5425 2800
F 0 "#PWR058" H 5425 2650 50  0001 C CNN
F 1 "VCC" H 5442 2973 50  0000 C CNN
F 2 "" H 5425 2800 50  0001 C CNN
F 3 "" H 5425 2800 50  0001 C CNN
	1    5425 2800
	1    0    0    -1  
$EndComp
$Comp
L power:VDD #PWR059
U 1 1 5E1892CB
P 5425 4050
F 0 "#PWR059" H 5425 3900 50  0001 C CNN
F 1 "VDD" H 5443 4223 50  0000 C CNN
F 2 "" H 5425 4050 50  0001 C CNN
F 3 "" H 5425 4050 50  0001 C CNN
	1    5425 4050
	-1   0    0    1   
$EndComp
Wire Wire Line
	5425 2800 5425 2875
Wire Wire Line
	5425 3175 5425 3450
Wire Wire Line
	5425 3975 5425 4050
Wire Wire Line
	5250 3700 5250 3450
Wire Wire Line
	5250 3450 5425 3450
Connection ~ 5425 3450
Wire Wire Line
	5425 3450 5425 3675
$Comp
L Device:CP C37
U 1 1 5E1892DC
P 5425 4725
F 0 "C37" V 5500 4800 50  0000 L CNN
F 1 "4700uF/16V" V 5350 4175 50  0000 L CNN
F 2 "Capacitors_ThroughHole:CP_Radial_D18.0mm_P7.50mm" H 5463 4575 50  0001 C CNN
F 3 "~" H 5425 4725 50  0001 C CNN
	1    5425 4725
	1    0    0    -1  
$EndComp
$Comp
L Device:CP C38
U 1 1 5E1892E6
P 5425 5525
F 0 "C38" V 5500 5350 50  0000 L CNN
F 1 "4700uF/16V" V 5500 5575 50  0000 L CNN
F 2 "Capacitors_ThroughHole:CP_Radial_D18.0mm_P7.50mm" H 5463 5375 50  0001 C CNN
F 3 "~" H 5425 5525 50  0001 C CNN
	1    5425 5525
	1    0    0    -1  
$EndComp
$Comp
L power:GND #PWR057
U 1 1 5E1892F0
P 5250 5400
F 0 "#PWR057" H 5250 5150 50  0001 C CNN
F 1 "GND" H 5255 5227 50  0000 C CNN
F 2 "" H 5250 5400 50  0001 C CNN
F 3 "" H 5250 5400 50  0001 C CNN
	1    5250 5400
	-1   0    0    -1  
$EndComp
$Comp
L power:VCC #PWR060
U 1 1 5E1892FA
P 5425 4500
F 0 "#PWR060" H 5425 4350 50  0001 C CNN
F 1 "VCC" H 5442 4673 50  0000 C CNN
F 2 "" H 5425 4500 50  0001 C CNN
F 3 "" H 5425 4500 50  0001 C CNN
	1    5425 4500
	1    0    0    -1  
$EndComp
$Comp
L power:VDD #PWR061
U 1 1 5E189304
P 5425 5750
F 0 "#PWR061" H 5425 5600 50  0001 C CNN
F 1 "VDD" H 5443 5923 50  0000 C CNN
F 2 "" H 5425 5750 50  0001 C CNN
F 3 "" H 5425 5750 50  0001 C CNN
	1    5425 5750
	-1   0    0    1   
$EndComp
Wire Wire Line
	5425 4500 5425 4575
Wire Wire Line
	5425 4875 5425 5150
Wire Wire Line
	5425 5675 5425 5750
Wire Wire Line
	5250 5400 5250 5150
Wire Wire Line
	5250 5150 5425 5150
Connection ~ 5425 5150
Wire Wire Line
	5425 5150 5425 5375
$Comp
L Device:CP C39
U 1 1 5E189315
P 5825 3025
F 0 "C39" V 5900 3100 50  0000 L CNN
F 1 "4700uF/16V" V 5750 2475 50  0000 L CNN
F 2 "Capacitors_ThroughHole:CP_Radial_D18.0mm_P7.50mm" H 5863 2875 50  0001 C CNN
F 3 "~" H 5825 3025 50  0001 C CNN
	1    5825 3025
	1    0    0    -1  
$EndComp
$Comp
L Device:CP C40
U 1 1 5E18931F
P 5825 3825
F 0 "C40" V 5900 3650 50  0000 L CNN
F 1 "4700uF/16V" V 5900 3875 50  0000 L CNN
F 2 "Capacitors_ThroughHole:CP_Radial_D18.0mm_P7.50mm" H 5863 3675 50  0001 C CNN
F 3 "~" H 5825 3825 50  0001 C CNN
	1    5825 3825
	1    0    0    -1  
$EndComp
$Comp
L power:GND #PWR062
U 1 1 5E189329
P 5650 3700
F 0 "#PWR062" H 5650 3450 50  0001 C CNN
F 1 "GND" H 5655 3527 50  0000 C CNN
F 2 "" H 5650 3700 50  0001 C CNN
F 3 "" H 5650 3700 50  0001 C CNN
	1    5650 3700
	-1   0    0    -1  
$EndComp
$Comp
L power:VCC #PWR064
U 1 1 5E189333
P 5825 2800
F 0 "#PWR064" H 5825 2650 50  0001 C CNN
F 1 "VCC" H 5842 2973 50  0000 C CNN
F 2 "" H 5825 2800 50  0001 C CNN
F 3 "" H 5825 2800 50  0001 C CNN
	1    5825 2800
	1    0    0    -1  
$EndComp
$Comp
L power:VDD #PWR065
U 1 1 5E18933D
P 5825 4050
F 0 "#PWR065" H 5825 3900 50  0001 C CNN
F 1 "VDD" H 5843 4223 50  0000 C CNN
F 2 "" H 5825 4050 50  0001 C CNN
F 3 "" H 5825 4050 50  0001 C CNN
	1    5825 4050
	-1   0    0    1   
$EndComp
Wire Wire Line
	5825 2800 5825 2875
Wire Wire Line
	5825 3175 5825 3450
Wire Wire Line
	5825 3975 5825 4050
Wire Wire Line
	5650 3700 5650 3450
Wire Wire Line
	5650 3450 5825 3450
Connection ~ 5825 3450
Wire Wire Line
	5825 3450 5825 3675
$Comp
L Device:CP C41
U 1 1 5E18934E
P 5825 4725
F 0 "C41" V 5900 4800 50  0000 L CNN
F 1 "4700uF/16V" V 5750 4175 50  0000 L CNN
F 2 "Capacitors_ThroughHole:CP_Radial_D18.0mm_P7.50mm" H 5863 4575 50  0001 C CNN
F 3 "~" H 5825 4725 50  0001 C CNN
	1    5825 4725
	1    0    0    -1  
$EndComp
$Comp
L Device:CP C42
U 1 1 5E189358
P 5825 5525
F 0 "C42" V 5900 5350 50  0000 L CNN
F 1 "4700uF/16V" V 5900 5575 50  0000 L CNN
F 2 "Capacitors_ThroughHole:CP_Radial_D18.0mm_P7.50mm" H 5863 5375 50  0001 C CNN
F 3 "~" H 5825 5525 50  0001 C CNN
	1    5825 5525
	1    0    0    -1  
$EndComp
$Comp
L power:GND #PWR063
U 1 1 5E189362
P 5650 5400
F 0 "#PWR063" H 5650 5150 50  0001 C CNN
F 1 "GND" H 5655 5227 50  0000 C CNN
F 2 "" H 5650 5400 50  0001 C CNN
F 3 "" H 5650 5400 50  0001 C CNN
	1    5650 5400
	-1   0    0    -1  
$EndComp
$Comp
L power:VCC #PWR066
U 1 1 5E18936C
P 5825 4500
F 0 "#PWR066" H 5825 4350 50  0001 C CNN
F 1 "VCC" H 5842 4673 50  0000 C CNN
F 2 "" H 5825 4500 50  0001 C CNN
F 3 "" H 5825 4500 50  0001 C CNN
	1    5825 4500
	1    0    0    -1  
$EndComp
$Comp
L power:VDD #PWR067
U 1 1 5E189376
P 5825 5750
F 0 "#PWR067" H 5825 5600 50  0001 C CNN
F 1 "VDD" H 5843 5923 50  0000 C CNN
F 2 "" H 5825 5750 50  0001 C CNN
F 3 "" H 5825 5750 50  0001 C CNN
	1    5825 5750
	-1   0    0    1   
$EndComp
Wire Wire Line
	5825 4500 5825 4575
Wire Wire Line
	5825 4875 5825 5150
Wire Wire Line
	5825 5675 5825 5750
Wire Wire Line
	5650 5400 5650 5150
Wire Wire Line
	5650 5150 5825 5150
Connection ~ 5825 5150
Wire Wire Line
	5825 5150 5825 5375
$Comp
L Device:CP C43
U 1 1 5E1ABDC0
P 6675 3025
F 0 "C43" V 6750 3100 50  0000 L CNN
F 1 "4700uF/16V" V 6600 2475 50  0000 L CNN
F 2 "Capacitors_ThroughHole:CP_Radial_D18.0mm_P7.50mm" H 6713 2875 50  0001 C CNN
F 3 "~" H 6675 3025 50  0001 C CNN
	1    6675 3025
	1    0    0    -1  
$EndComp
$Comp
L Device:CP C44
U 1 1 5E1ABDCA
P 6675 3825
F 0 "C44" V 6750 3650 50  0000 L CNN
F 1 "4700uF/16V" V 6750 3875 50  0000 L CNN
F 2 "Capacitors_ThroughHole:CP_Radial_D18.0mm_P7.50mm" H 6713 3675 50  0001 C CNN
F 3 "~" H 6675 3825 50  0001 C CNN
	1    6675 3825
	1    0    0    -1  
$EndComp
$Comp
L power:GND #PWR068
U 1 1 5E1ABDD4
P 6500 3700
F 0 "#PWR068" H 6500 3450 50  0001 C CNN
F 1 "GND" H 6505 3527 50  0000 C CNN
F 2 "" H 6500 3700 50  0001 C CNN
F 3 "" H 6500 3700 50  0001 C CNN
	1    6500 3700
	-1   0    0    -1  
$EndComp
$Comp
L power:VCC #PWR070
U 1 1 5E1ABDDE
P 6675 2800
F 0 "#PWR070" H 6675 2650 50  0001 C CNN
F 1 "VCC" H 6692 2973 50  0000 C CNN
F 2 "" H 6675 2800 50  0001 C CNN
F 3 "" H 6675 2800 50  0001 C CNN
	1    6675 2800
	1    0    0    -1  
$EndComp
$Comp
L power:VDD #PWR071
U 1 1 5E1ABDE8
P 6675 4050
F 0 "#PWR071" H 6675 3900 50  0001 C CNN
F 1 "VDD" H 6693 4223 50  0000 C CNN
F 2 "" H 6675 4050 50  0001 C CNN
F 3 "" H 6675 4050 50  0001 C CNN
	1    6675 4050
	-1   0    0    1   
$EndComp
Wire Wire Line
	6675 2800 6675 2875
Wire Wire Line
	6675 3175 6675 3450
Wire Wire Line
	6675 3975 6675 4050
Wire Wire Line
	6500 3700 6500 3450
Wire Wire Line
	6500 3450 6675 3450
Connection ~ 6675 3450
Wire Wire Line
	6675 3450 6675 3675
$Comp
L Device:CP C45
U 1 1 5E1ABDF9
P 6675 4725
F 0 "C45" V 6750 4800 50  0000 L CNN
F 1 "4700uF/16V" V 6600 4175 50  0000 L CNN
F 2 "Capacitors_ThroughHole:CP_Radial_D18.0mm_P7.50mm" H 6713 4575 50  0001 C CNN
F 3 "~" H 6675 4725 50  0001 C CNN
	1    6675 4725
	1    0    0    -1  
$EndComp
$Comp
L Device:CP C46
U 1 1 5E1ABE03
P 6675 5525
F 0 "C46" V 6750 5350 50  0000 L CNN
F 1 "4700uF/16V" V 6750 5575 50  0000 L CNN
F 2 "Capacitors_ThroughHole:CP_Radial_D18.0mm_P7.50mm" H 6713 5375 50  0001 C CNN
F 3 "~" H 6675 5525 50  0001 C CNN
	1    6675 5525
	1    0    0    -1  
$EndComp
$Comp
L power:GND #PWR069
U 1 1 5E1ABE0D
P 6500 5400
F 0 "#PWR069" H 6500 5150 50  0001 C CNN
F 1 "GND" H 6505 5227 50  0000 C CNN
F 2 "" H 6500 5400 50  0001 C CNN
F 3 "" H 6500 5400 50  0001 C CNN
	1    6500 5400
	-1   0    0    -1  
$EndComp
$Comp
L power:VCC #PWR072
U 1 1 5E1ABE17
P 6675 4500
F 0 "#PWR072" H 6675 4350 50  0001 C CNN
F 1 "VCC" H 6692 4673 50  0000 C CNN
F 2 "" H 6675 4500 50  0001 C CNN
F 3 "" H 6675 4500 50  0001 C CNN
	1    6675 4500
	1    0    0    -1  
$EndComp
$Comp
L power:VDD #PWR073
U 1 1 5E1ABE21
P 6675 5750
F 0 "#PWR073" H 6675 5600 50  0001 C CNN
F 1 "VDD" H 6693 5923 50  0000 C CNN
F 2 "" H 6675 5750 50  0001 C CNN
F 3 "" H 6675 5750 50  0001 C CNN
	1    6675 5750
	-1   0    0    1   
$EndComp
Wire Wire Line
	6675 4500 6675 4575
Wire Wire Line
	6675 4875 6675 5150
Wire Wire Line
	6675 5675 6675 5750
Wire Wire Line
	6500 5400 6500 5150
Wire Wire Line
	6500 5150 6675 5150
Connection ~ 6675 5150
Wire Wire Line
	6675 5150 6675 5375
$Comp
L Device:CP C47
U 1 1 5E1ABE32
P 7075 3025
F 0 "C47" V 7150 3100 50  0000 L CNN
F 1 "4700uF/16V" V 7000 2475 50  0000 L CNN
F 2 "Capacitors_ThroughHole:CP_Radial_D18.0mm_P7.50mm" H 7113 2875 50  0001 C CNN
F 3 "~" H 7075 3025 50  0001 C CNN
	1    7075 3025
	1    0    0    -1  
$EndComp
$Comp
L Device:CP C48
U 1 1 5E1ABE3C
P 7075 3825
F 0 "C48" V 7150 3650 50  0000 L CNN
F 1 "4700uF/16V" V 7150 3875 50  0000 L CNN
F 2 "Capacitors_ThroughHole:CP_Radial_D18.0mm_P7.50mm" H 7113 3675 50  0001 C CNN
F 3 "~" H 7075 3825 50  0001 C CNN
	1    7075 3825
	1    0    0    -1  
$EndComp
$Comp
L power:GND #PWR074
U 1 1 5E1ABE46
P 6900 3700
F 0 "#PWR074" H 6900 3450 50  0001 C CNN
F 1 "GND" H 6905 3527 50  0000 C CNN
F 2 "" H 6900 3700 50  0001 C CNN
F 3 "" H 6900 3700 50  0001 C CNN
	1    6900 3700
	-1   0    0    -1  
$EndComp
$Comp
L power:VCC #PWR076
U 1 1 5E1ABE50
P 7075 2800
F 0 "#PWR076" H 7075 2650 50  0001 C CNN
F 1 "VCC" H 7092 2973 50  0000 C CNN
F 2 "" H 7075 2800 50  0001 C CNN
F 3 "" H 7075 2800 50  0001 C CNN
	1    7075 2800
	1    0    0    -1  
$EndComp
$Comp
L power:VDD #PWR077
U 1 1 5E1ABE5A
P 7075 4050
F 0 "#PWR077" H 7075 3900 50  0001 C CNN
F 1 "VDD" H 7093 4223 50  0000 C CNN
F 2 "" H 7075 4050 50  0001 C CNN
F 3 "" H 7075 4050 50  0001 C CNN
	1    7075 4050
	-1   0    0    1   
$EndComp
Wire Wire Line
	7075 2800 7075 2875
Wire Wire Line
	7075 3175 7075 3450
Wire Wire Line
	7075 3975 7075 4050
Wire Wire Line
	6900 3700 6900 3450
Wire Wire Line
	6900 3450 7075 3450
Connection ~ 7075 3450
Wire Wire Line
	7075 3450 7075 3675
$Comp
L Device:CP C49
U 1 1 5E1ABE6B
P 7075 4725
F 0 "C49" V 7150 4800 50  0000 L CNN
F 1 "4700uF/16V" V 7000 4175 50  0000 L CNN
F 2 "Capacitors_ThroughHole:CP_Radial_D18.0mm_P7.50mm" H 7113 4575 50  0001 C CNN
F 3 "~" H 7075 4725 50  0001 C CNN
	1    7075 4725
	1    0    0    -1  
$EndComp
$Comp
L Device:CP C50
U 1 1 5E1ABE75
P 7075 5525
F 0 "C50" V 7150 5350 50  0000 L CNN
F 1 "4700uF/16V" V 7150 5575 50  0000 L CNN
F 2 "Capacitors_ThroughHole:CP_Radial_D18.0mm_P7.50mm" H 7113 5375 50  0001 C CNN
F 3 "~" H 7075 5525 50  0001 C CNN
	1    7075 5525
	1    0    0    -1  
$EndComp
$Comp
L power:GND #PWR075
U 1 1 5E1ABE7F
P 6900 5400
F 0 "#PWR075" H 6900 5150 50  0001 C CNN
F 1 "GND" H 6905 5227 50  0000 C CNN
F 2 "" H 6900 5400 50  0001 C CNN
F 3 "" H 6900 5400 50  0001 C CNN
	1    6900 5400
	-1   0    0    -1  
$EndComp
$Comp
L power:VCC #PWR078
U 1 1 5E1ABE89
P 7075 4500
F 0 "#PWR078" H 7075 4350 50  0001 C CNN
F 1 "VCC" H 7092 4673 50  0000 C CNN
F 2 "" H 7075 4500 50  0001 C CNN
F 3 "" H 7075 4500 50  0001 C CNN
	1    7075 4500
	1    0    0    -1  
$EndComp
$Comp
L power:VDD #PWR079
U 1 1 5E1ABE93
P 7075 5750
F 0 "#PWR079" H 7075 5600 50  0001 C CNN
F 1 "VDD" H 7093 5923 50  0000 C CNN
F 2 "" H 7075 5750 50  0001 C CNN
F 3 "" H 7075 5750 50  0001 C CNN
	1    7075 5750
	-1   0    0    1   
$EndComp
Wire Wire Line
	7075 4500 7075 4575
Wire Wire Line
	7075 4875 7075 5150
Wire Wire Line
	7075 5675 7075 5750
Wire Wire Line
	6900 5400 6900 5150
Wire Wire Line
	6900 5150 7075 5150
Connection ~ 7075 5150
Wire Wire Line
	7075 5150 7075 5375
$Comp
L Device:CP C51
U 1 1 5E1ABEA4
P 7475 3025
F 0 "C51" V 7550 3100 50  0000 L CNN
F 1 "4700uF/16V" V 7400 2475 50  0000 L CNN
F 2 "Capacitors_ThroughHole:CP_Radial_D18.0mm_P7.50mm" H 7513 2875 50  0001 C CNN
F 3 "~" H 7475 3025 50  0001 C CNN
	1    7475 3025
	1    0    0    -1  
$EndComp
$Comp
L Device:CP C52
U 1 1 5E1ABEAE
P 7475 3825
F 0 "C52" V 7550 3650 50  0000 L CNN
F 1 "4700uF/16V" V 7550 3875 50  0000 L CNN
F 2 "Capacitors_ThroughHole:CP_Radial_D18.0mm_P7.50mm" H 7513 3675 50  0001 C CNN
F 3 "~" H 7475 3825 50  0001 C CNN
	1    7475 3825
	1    0    0    -1  
$EndComp
$Comp
L power:GND #PWR080
U 1 1 5E1ABEB8
P 7300 3700
F 0 "#PWR080" H 7300 3450 50  0001 C CNN
F 1 "GND" H 7305 3527 50  0000 C CNN
F 2 "" H 7300 3700 50  0001 C CNN
F 3 "" H 7300 3700 50  0001 C CNN
	1    7300 3700
	-1   0    0    -1  
$EndComp
$Comp
L power:VCC #PWR082
U 1 1 5E1ABEC2
P 7475 2800
F 0 "#PWR082" H 7475 2650 50  0001 C CNN
F 1 "VCC" H 7492 2973 50  0000 C CNN
F 2 "" H 7475 2800 50  0001 C CNN
F 3 "" H 7475 2800 50  0001 C CNN
	1    7475 2800
	1    0    0    -1  
$EndComp
$Comp
L power:VDD #PWR083
U 1 1 5E1ABECC
P 7475 4050
F 0 "#PWR083" H 7475 3900 50  0001 C CNN
F 1 "VDD" H 7493 4223 50  0000 C CNN
F 2 "" H 7475 4050 50  0001 C CNN
F 3 "" H 7475 4050 50  0001 C CNN
	1    7475 4050
	-1   0    0    1   
$EndComp
Wire Wire Line
	7475 2800 7475 2875
Wire Wire Line
	7475 3175 7475 3450
Wire Wire Line
	7475 3975 7475 4050
Wire Wire Line
	7300 3700 7300 3450
Wire Wire Line
	7300 3450 7475 3450
Connection ~ 7475 3450
Wire Wire Line
	7475 3450 7475 3675
$Comp
L Device:CP C53
U 1 1 5E1ABEDD
P 7475 4725
F 0 "C53" V 7550 4800 50  0000 L CNN
F 1 "4700uF/16V" V 7400 4175 50  0000 L CNN
F 2 "Capacitors_ThroughHole:CP_Radial_D18.0mm_P7.50mm" H 7513 4575 50  0001 C CNN
F 3 "~" H 7475 4725 50  0001 C CNN
	1    7475 4725
	1    0    0    -1  
$EndComp
$Comp
L Device:CP C54
U 1 1 5E1ABEE7
P 7475 5525
F 0 "C54" V 7550 5350 50  0000 L CNN
F 1 "4700uF/16V" V 7550 5575 50  0000 L CNN
F 2 "Capacitors_ThroughHole:CP_Radial_D18.0mm_P7.50mm" H 7513 5375 50  0001 C CNN
F 3 "~" H 7475 5525 50  0001 C CNN
	1    7475 5525
	1    0    0    -1  
$EndComp
$Comp
L power:GND #PWR081
U 1 1 5E1ABEF1
P 7300 5400
F 0 "#PWR081" H 7300 5150 50  0001 C CNN
F 1 "GND" H 7305 5227 50  0000 C CNN
F 2 "" H 7300 5400 50  0001 C CNN
F 3 "" H 7300 5400 50  0001 C CNN
	1    7300 5400
	-1   0    0    -1  
$EndComp
$Comp
L power:VCC #PWR084
U 1 1 5E1ABEFB
P 7475 4500
F 0 "#PWR084" H 7475 4350 50  0001 C CNN
F 1 "VCC" H 7492 4673 50  0000 C CNN
F 2 "" H 7475 4500 50  0001 C CNN
F 3 "" H 7475 4500 50  0001 C CNN
	1    7475 4500
	1    0    0    -1  
$EndComp
$Comp
L power:VDD #PWR085
U 1 1 5E1ABF05
P 7475 5750
F 0 "#PWR085" H 7475 5600 50  0001 C CNN
F 1 "VDD" H 7493 5923 50  0000 C CNN
F 2 "" H 7475 5750 50  0001 C CNN
F 3 "" H 7475 5750 50  0001 C CNN
	1    7475 5750
	-1   0    0    1   
$EndComp
Wire Wire Line
	7475 4500 7475 4575
Wire Wire Line
	7475 4875 7475 5150
Wire Wire Line
	7475 5675 7475 5750
Wire Wire Line
	7300 5400 7300 5150
Wire Wire Line
	7300 5150 7475 5150
Connection ~ 7475 5150
Wire Wire Line
	7475 5150 7475 5375
$Comp
L Device:CP C55
U 1 1 5E1ABF16
P 7875 3025
F 0 "C55" V 7950 3100 50  0000 L CNN
F 1 "4700uF/16V" V 7800 2475 50  0000 L CNN
F 2 "Capacitors_ThroughHole:CP_Radial_D18.0mm_P7.50mm" H 7913 2875 50  0001 C CNN
F 3 "~" H 7875 3025 50  0001 C CNN
	1    7875 3025
	1    0    0    -1  
$EndComp
$Comp
L Device:CP C56
U 1 1 5E1ABF20
P 7875 3825
F 0 "C56" V 7950 3650 50  0000 L CNN
F 1 "4700uF/16V" V 7950 3875 50  0000 L CNN
F 2 "Capacitors_ThroughHole:CP_Radial_D18.0mm_P7.50mm" H 7913 3675 50  0001 C CNN
F 3 "~" H 7875 3825 50  0001 C CNN
	1    7875 3825
	1    0    0    -1  
$EndComp
$Comp
L power:GND #PWR086
U 1 1 5E1ABF2A
P 7700 3700
F 0 "#PWR086" H 7700 3450 50  0001 C CNN
F 1 "GND" H 7705 3527 50  0000 C CNN
F 2 "" H 7700 3700 50  0001 C CNN
F 3 "" H 7700 3700 50  0001 C CNN
	1    7700 3700
	-1   0    0    -1  
$EndComp
$Comp
L power:VCC #PWR088
U 1 1 5E1ABF34
P 7875 2800
F 0 "#PWR088" H 7875 2650 50  0001 C CNN
F 1 "VCC" H 7892 2973 50  0000 C CNN
F 2 "" H 7875 2800 50  0001 C CNN
F 3 "" H 7875 2800 50  0001 C CNN
	1    7875 2800
	1    0    0    -1  
$EndComp
$Comp
L power:VDD #PWR089
U 1 1 5E1ABF3E
P 7875 4050
F 0 "#PWR089" H 7875 3900 50  0001 C CNN
F 1 "VDD" H 7893 4223 50  0000 C CNN
F 2 "" H 7875 4050 50  0001 C CNN
F 3 "" H 7875 4050 50  0001 C CNN
	1    7875 4050
	-1   0    0    1   
$EndComp
Wire Wire Line
	7875 2800 7875 2875
Wire Wire Line
	7875 3175 7875 3450
Wire Wire Line
	7875 3975 7875 4050
Wire Wire Line
	7700 3700 7700 3450
Wire Wire Line
	7700 3450 7875 3450
Connection ~ 7875 3450
Wire Wire Line
	7875 3450 7875 3675
$Comp
L Device:CP C57
U 1 1 5E1ABF4F
P 7875 4725
F 0 "C57" V 7950 4800 50  0000 L CNN
F 1 "4700uF/16V" V 7800 4175 50  0000 L CNN
F 2 "Capacitors_ThroughHole:CP_Radial_D18.0mm_P7.50mm" H 7913 4575 50  0001 C CNN
F 3 "~" H 7875 4725 50  0001 C CNN
	1    7875 4725
	1    0    0    -1  
$EndComp
$Comp
L Device:CP C58
U 1 1 5E1ABF59
P 7875 5525
F 0 "C58" V 7950 5350 50  0000 L CNN
F 1 "4700uF/16V" V 7950 5575 50  0000 L CNN
F 2 "Capacitors_ThroughHole:CP_Radial_D18.0mm_P7.50mm" H 7913 5375 50  0001 C CNN
F 3 "~" H 7875 5525 50  0001 C CNN
	1    7875 5525
	1    0    0    -1  
$EndComp
$Comp
L power:GND #PWR087
U 1 1 5E1ABF63
P 7700 5400
F 0 "#PWR087" H 7700 5150 50  0001 C CNN
F 1 "GND" H 7705 5227 50  0000 C CNN
F 2 "" H 7700 5400 50  0001 C CNN
F 3 "" H 7700 5400 50  0001 C CNN
	1    7700 5400
	-1   0    0    -1  
$EndComp
$Comp
L power:VCC #PWR090
U 1 1 5E1ABF6D
P 7875 4500
F 0 "#PWR090" H 7875 4350 50  0001 C CNN
F 1 "VCC" H 7892 4673 50  0000 C CNN
F 2 "" H 7875 4500 50  0001 C CNN
F 3 "" H 7875 4500 50  0001 C CNN
	1    7875 4500
	1    0    0    -1  
$EndComp
$Comp
L power:VDD #PWR091
U 1 1 5E1ABF77
P 7875 5750
F 0 "#PWR091" H 7875 5600 50  0001 C CNN
F 1 "VDD" H 7893 5923 50  0000 C CNN
F 2 "" H 7875 5750 50  0001 C CNN
F 3 "" H 7875 5750 50  0001 C CNN
	1    7875 5750
	-1   0    0    1   
$EndComp
Wire Wire Line
	7875 4500 7875 4575
Wire Wire Line
	7875 4875 7875 5150
Wire Wire Line
	7875 5675 7875 5750
Wire Wire Line
	7700 5400 7700 5150
Wire Wire Line
	7700 5150 7875 5150
Connection ~ 7875 5150
Wire Wire Line
	7875 5150 7875 5375
$Comp
L Device:CP C59
U 1 1 5E1ABF88
P 8275 3025
F 0 "C59" V 8350 3100 50  0000 L CNN
F 1 "4700uF/16V" V 8200 2475 50  0000 L CNN
F 2 "Capacitors_ThroughHole:CP_Radial_D18.0mm_P7.50mm" H 8313 2875 50  0001 C CNN
F 3 "~" H 8275 3025 50  0001 C CNN
	1    8275 3025
	1    0    0    -1  
$EndComp
$Comp
L Device:CP C60
U 1 1 5E1ABF92
P 8275 3825
F 0 "C60" V 8350 3650 50  0000 L CNN
F 1 "4700uF/16V" V 8350 3875 50  0000 L CNN
F 2 "Capacitors_ThroughHole:CP_Radial_D18.0mm_P7.50mm" H 8313 3675 50  0001 C CNN
F 3 "~" H 8275 3825 50  0001 C CNN
	1    8275 3825
	1    0    0    -1  
$EndComp
$Comp
L power:GND #PWR092
U 1 1 5E1ABF9C
P 8100 3700
F 0 "#PWR092" H 8100 3450 50  0001 C CNN
F 1 "GND" H 8105 3527 50  0000 C CNN
F 2 "" H 8100 3700 50  0001 C CNN
F 3 "" H 8100 3700 50  0001 C CNN
	1    8100 3700
	-1   0    0    -1  
$EndComp
$Comp
L power:VCC #PWR094
U 1 1 5E1ABFA6
P 8275 2800
F 0 "#PWR094" H 8275 2650 50  0001 C CNN
F 1 "VCC" H 8292 2973 50  0000 C CNN
F 2 "" H 8275 2800 50  0001 C CNN
F 3 "" H 8275 2800 50  0001 C CNN
	1    8275 2800
	1    0    0    -1  
$EndComp
$Comp
L power:VDD #PWR095
U 1 1 5E1ABFB0
P 8275 4050
F 0 "#PWR095" H 8275 3900 50  0001 C CNN
F 1 "VDD" H 8293 4223 50  0000 C CNN
F 2 "" H 8275 4050 50  0001 C CNN
F 3 "" H 8275 4050 50  0001 C CNN
	1    8275 4050
	-1   0    0    1   
$EndComp
Wire Wire Line
	8275 2800 8275 2875
Wire Wire Line
	8275 3175 8275 3450
Wire Wire Line
	8275 3975 8275 4050
Wire Wire Line
	8100 3700 8100 3450
Wire Wire Line
	8100 3450 8275 3450
Connection ~ 8275 3450
Wire Wire Line
	8275 3450 8275 3675
$Comp
L Device:CP C61
U 1 1 5E1ABFC1
P 8275 4725
F 0 "C61" V 8350 4800 50  0000 L CNN
F 1 "4700uF/16V" V 8200 4175 50  0000 L CNN
F 2 "Capacitors_ThroughHole:CP_Radial_D18.0mm_P7.50mm" H 8313 4575 50  0001 C CNN
F 3 "~" H 8275 4725 50  0001 C CNN
	1    8275 4725
	1    0    0    -1  
$EndComp
$Comp
L Device:CP C62
U 1 1 5E1ABFCB
P 8275 5525
F 0 "C62" V 8350 5350 50  0000 L CNN
F 1 "4700uF/16V" V 8350 5575 50  0000 L CNN
F 2 "Capacitors_ThroughHole:CP_Radial_D18.0mm_P7.50mm" H 8313 5375 50  0001 C CNN
F 3 "~" H 8275 5525 50  0001 C CNN
	1    8275 5525
	1    0    0    -1  
$EndComp
$Comp
L power:GND #PWR093
U 1 1 5E1ABFD5
P 8100 5400
F 0 "#PWR093" H 8100 5150 50  0001 C CNN
F 1 "GND" H 8105 5227 50  0000 C CNN
F 2 "" H 8100 5400 50  0001 C CNN
F 3 "" H 8100 5400 50  0001 C CNN
	1    8100 5400
	-1   0    0    -1  
$EndComp
$Comp
L power:VCC #PWR096
U 1 1 5E1ABFDF
P 8275 4500
F 0 "#PWR096" H 8275 4350 50  0001 C CNN
F 1 "VCC" H 8292 4673 50  0000 C CNN
F 2 "" H 8275 4500 50  0001 C CNN
F 3 "" H 8275 4500 50  0001 C CNN
	1    8275 4500
	1    0    0    -1  
$EndComp
$Comp
L power:VDD #PWR097
U 1 1 5E1ABFE9
P 8275 5750
F 0 "#PWR097" H 8275 5600 50  0001 C CNN
F 1 "VDD" H 8293 5923 50  0000 C CNN
F 2 "" H 8275 5750 50  0001 C CNN
F 3 "" H 8275 5750 50  0001 C CNN
	1    8275 5750
	-1   0    0    1   
$EndComp
Wire Wire Line
	8275 4500 8275 4575
Wire Wire Line
	8275 4875 8275 5150
Wire Wire Line
	8275 5675 8275 5750
Wire Wire Line
	8100 5400 8100 5150
Wire Wire Line
	8100 5150 8275 5150
Connection ~ 8275 5150
Wire Wire Line
	8275 5150 8275 5375
$Comp
L Device:CP C63
U 1 1 5E1ABFFA
P 8675 3025
F 0 "C63" V 8750 3100 50  0000 L CNN
F 1 "4700uF/16V" V 8600 2475 50  0000 L CNN
F 2 "Capacitors_ThroughHole:CP_Radial_D18.0mm_P7.50mm" H 8713 2875 50  0001 C CNN
F 3 "~" H 8675 3025 50  0001 C CNN
	1    8675 3025
	1    0    0    -1  
$EndComp
$Comp
L Device:CP C64
U 1 1 5E1AC004
P 8675 3825
F 0 "C64" V 8750 3650 50  0000 L CNN
F 1 "4700uF/16V" V 8750 3875 50  0000 L CNN
F 2 "Capacitors_ThroughHole:CP_Radial_D18.0mm_P7.50mm" H 8713 3675 50  0001 C CNN
F 3 "~" H 8675 3825 50  0001 C CNN
	1    8675 3825
	1    0    0    -1  
$EndComp
$Comp
L power:GND #PWR098
U 1 1 5E1AC00E
P 8500 3700
F 0 "#PWR098" H 8500 3450 50  0001 C CNN
F 1 "GND" H 8505 3527 50  0000 C CNN
F 2 "" H 8500 3700 50  0001 C CNN
F 3 "" H 8500 3700 50  0001 C CNN
	1    8500 3700
	-1   0    0    -1  
$EndComp
$Comp
L power:VCC #PWR0100
U 1 1 5E1AC018
P 8675 2800
F 0 "#PWR0100" H 8675 2650 50  0001 C CNN
F 1 "VCC" H 8692 2973 50  0000 C CNN
F 2 "" H 8675 2800 50  0001 C CNN
F 3 "" H 8675 2800 50  0001 C CNN
	1    8675 2800
	1    0    0    -1  
$EndComp
$Comp
L power:VDD #PWR0101
U 1 1 5E1AC022
P 8675 4050
F 0 "#PWR0101" H 8675 3900 50  0001 C CNN
F 1 "VDD" H 8693 4223 50  0000 C CNN
F 2 "" H 8675 4050 50  0001 C CNN
F 3 "" H 8675 4050 50  0001 C CNN
	1    8675 4050
	-1   0    0    1   
$EndComp
Wire Wire Line
	8675 2800 8675 2875
Wire Wire Line
	8675 3175 8675 3450
Wire Wire Line
	8675 3975 8675 4050
Wire Wire Line
	8500 3700 8500 3450
Wire Wire Line
	8500 3450 8675 3450
Connection ~ 8675 3450
Wire Wire Line
	8675 3450 8675 3675
$Comp
L Device:CP C65
U 1 1 5E1AC033
P 8675 4725
F 0 "C65" V 8750 4800 50  0000 L CNN
F 1 "4700uF/16V" V 8600 4175 50  0000 L CNN
F 2 "Capacitors_ThroughHole:CP_Radial_D18.0mm_P7.50mm" H 8713 4575 50  0001 C CNN
F 3 "~" H 8675 4725 50  0001 C CNN
	1    8675 4725
	1    0    0    -1  
$EndComp
$Comp
L Device:CP C66
U 1 1 5E1AC03D
P 8675 5525
F 0 "C66" V 8750 5350 50  0000 L CNN
F 1 "4700uF/16V" V 8750 5575 50  0000 L CNN
F 2 "Capacitors_ThroughHole:CP_Radial_D18.0mm_P7.50mm" H 8713 5375 50  0001 C CNN
F 3 "~" H 8675 5525 50  0001 C CNN
	1    8675 5525
	1    0    0    -1  
$EndComp
$Comp
L power:GND #PWR099
U 1 1 5E1AC047
P 8500 5400
F 0 "#PWR099" H 8500 5150 50  0001 C CNN
F 1 "GND" H 8505 5227 50  0000 C CNN
F 2 "" H 8500 5400 50  0001 C CNN
F 3 "" H 8500 5400 50  0001 C CNN
	1    8500 5400
	-1   0    0    -1  
$EndComp
$Comp
L power:VCC #PWR0102
U 1 1 5E1AC051
P 8675 4500
F 0 "#PWR0102" H 8675 4350 50  0001 C CNN
F 1 "VCC" H 8692 4673 50  0000 C CNN
F 2 "" H 8675 4500 50  0001 C CNN
F 3 "" H 8675 4500 50  0001 C CNN
	1    8675 4500
	1    0    0    -1  
$EndComp
$Comp
L power:VDD #PWR0103
U 1 1 5E1AC05B
P 8675 5750
F 0 "#PWR0103" H 8675 5600 50  0001 C CNN
F 1 "VDD" H 8693 5923 50  0000 C CNN
F 2 "" H 8675 5750 50  0001 C CNN
F 3 "" H 8675 5750 50  0001 C CNN
	1    8675 5750
	-1   0    0    1   
$EndComp
Wire Wire Line
	8675 4500 8675 4575
Wire Wire Line
	8675 4875 8675 5150
Wire Wire Line
	8675 5675 8675 5750
Wire Wire Line
	8500 5400 8500 5150
Wire Wire Line
	8500 5150 8675 5150
Connection ~ 8675 5150
Wire Wire Line
	8675 5150 8675 5375
$Comp
L Device:CP C67
U 1 1 5E1AC06C
P 9075 3025
F 0 "C67" V 9150 3100 50  0000 L CNN
F 1 "4700uF/16V" V 9000 2475 50  0000 L CNN
F 2 "Capacitors_ThroughHole:CP_Radial_D18.0mm_P7.50mm" H 9113 2875 50  0001 C CNN
F 3 "~" H 9075 3025 50  0001 C CNN
	1    9075 3025
	1    0    0    -1  
$EndComp
$Comp
L Device:CP C68
U 1 1 5E1AC076
P 9075 3825
F 0 "C68" V 9150 3650 50  0000 L CNN
F 1 "4700uF/16V" V 9150 3875 50  0000 L CNN
F 2 "Capacitors_ThroughHole:CP_Radial_D18.0mm_P7.50mm" H 9113 3675 50  0001 C CNN
F 3 "~" H 9075 3825 50  0001 C CNN
	1    9075 3825
	1    0    0    -1  
$EndComp
$Comp
L power:GND #PWR0104
U 1 1 5E1AC080
P 8900 3700
F 0 "#PWR0104" H 8900 3450 50  0001 C CNN
F 1 "GND" H 8905 3527 50  0000 C CNN
F 2 "" H 8900 3700 50  0001 C CNN
F 3 "" H 8900 3700 50  0001 C CNN
	1    8900 3700
	-1   0    0    -1  
$EndComp
$Comp
L power:VCC #PWR0106
U 1 1 5E1AC08A
P 9075 2800
F 0 "#PWR0106" H 9075 2650 50  0001 C CNN
F 1 "VCC" H 9092 2973 50  0000 C CNN
F 2 "" H 9075 2800 50  0001 C CNN
F 3 "" H 9075 2800 50  0001 C CNN
	1    9075 2800
	1    0    0    -1  
$EndComp
$Comp
L power:VDD #PWR0107
U 1 1 5E1AC094
P 9075 4050
F 0 "#PWR0107" H 9075 3900 50  0001 C CNN
F 1 "VDD" H 9093 4223 50  0000 C CNN
F 2 "" H 9075 4050 50  0001 C CNN
F 3 "" H 9075 4050 50  0001 C CNN
	1    9075 4050
	-1   0    0    1   
$EndComp
Wire Wire Line
	9075 2800 9075 2875
Wire Wire Line
	9075 3175 9075 3450
Wire Wire Line
	9075 3975 9075 4050
Wire Wire Line
	8900 3700 8900 3450
Wire Wire Line
	8900 3450 9075 3450
Connection ~ 9075 3450
Wire Wire Line
	9075 3450 9075 3675
$Comp
L Device:CP C69
U 1 1 5E1AC0A5
P 9075 4725
F 0 "C69" V 9150 4800 50  0000 L CNN
F 1 "4700uF/16V" V 9000 4175 50  0000 L CNN
F 2 "Capacitors_ThroughHole:CP_Radial_D18.0mm_P7.50mm" H 9113 4575 50  0001 C CNN
F 3 "~" H 9075 4725 50  0001 C CNN
	1    9075 4725
	1    0    0    -1  
$EndComp
$Comp
L Device:CP C70
U 1 1 5E1AC0AF
P 9075 5525
F 0 "C70" V 9150 5350 50  0000 L CNN
F 1 "4700uF/16V" V 9150 5575 50  0000 L CNN
F 2 "Capacitors_ThroughHole:CP_Radial_D18.0mm_P7.50mm" H 9113 5375 50  0001 C CNN
F 3 "~" H 9075 5525 50  0001 C CNN
	1    9075 5525
	1    0    0    -1  
$EndComp
$Comp
L power:GND #PWR0105
U 1 1 5E1AC0B9
P 8900 5400
F 0 "#PWR0105" H 8900 5150 50  0001 C CNN
F 1 "GND" H 8905 5227 50  0000 C CNN
F 2 "" H 8900 5400 50  0001 C CNN
F 3 "" H 8900 5400 50  0001 C CNN
	1    8900 5400
	-1   0    0    -1  
$EndComp
$Comp
L power:VCC #PWR0108
U 1 1 5E1AC0C3
P 9075 4500
F 0 "#PWR0108" H 9075 4350 50  0001 C CNN
F 1 "VCC" H 9092 4673 50  0000 C CNN
F 2 "" H 9075 4500 50  0001 C CNN
F 3 "" H 9075 4500 50  0001 C CNN
	1    9075 4500
	1    0    0    -1  
$EndComp
$Comp
L power:VDD #PWR0109
U 1 1 5E1AC0CD
P 9075 5750
F 0 "#PWR0109" H 9075 5600 50  0001 C CNN
F 1 "VDD" H 9093 5923 50  0000 C CNN
F 2 "" H 9075 5750 50  0001 C CNN
F 3 "" H 9075 5750 50  0001 C CNN
	1    9075 5750
	-1   0    0    1   
$EndComp
Wire Wire Line
	9075 4500 9075 4575
Wire Wire Line
	9075 4875 9075 5150
Wire Wire Line
	9075 5675 9075 5750
Wire Wire Line
	8900 5400 8900 5150
Wire Wire Line
	8900 5150 9075 5150
Connection ~ 9075 5150
Wire Wire Line
	9075 5150 9075 5375
$Comp
L Device:CP C71
U 1 1 5E1AC0DE
P 9475 3025
F 0 "C71" V 9550 3100 50  0000 L CNN
F 1 "4700uF/16V" V 9400 2475 50  0000 L CNN
F 2 "Capacitors_ThroughHole:CP_Radial_D18.0mm_P7.50mm" H 9513 2875 50  0001 C CNN
F 3 "~" H 9475 3025 50  0001 C CNN
	1    9475 3025
	1    0    0    -1  
$EndComp
$Comp
L Device:CP C72
U 1 1 5E1AC0E8
P 9475 3825
F 0 "C72" V 9550 3650 50  0000 L CNN
F 1 "4700uF/16V" V 9550 3875 50  0000 L CNN
F 2 "Capacitors_ThroughHole:CP_Radial_D18.0mm_P7.50mm" H 9513 3675 50  0001 C CNN
F 3 "~" H 9475 3825 50  0001 C CNN
	1    9475 3825
	1    0    0    -1  
$EndComp
$Comp
L power:GND #PWR0110
U 1 1 5E1AC0F2
P 9300 3700
F 0 "#PWR0110" H 9300 3450 50  0001 C CNN
F 1 "GND" H 9305 3527 50  0000 C CNN
F 2 "" H 9300 3700 50  0001 C CNN
F 3 "" H 9300 3700 50  0001 C CNN
	1    9300 3700
	-1   0    0    -1  
$EndComp
$Comp
L power:VCC #PWR0112
U 1 1 5E1AC0FC
P 9475 2800
F 0 "#PWR0112" H 9475 2650 50  0001 C CNN
F 1 "VCC" H 9492 2973 50  0000 C CNN
F 2 "" H 9475 2800 50  0001 C CNN
F 3 "" H 9475 2800 50  0001 C CNN
	1    9475 2800
	1    0    0    -1  
$EndComp
$Comp
L power:VDD #PWR0113
U 1 1 5E1AC106
P 9475 4050
F 0 "#PWR0113" H 9475 3900 50  0001 C CNN
F 1 "VDD" H 9493 4223 50  0000 C CNN
F 2 "" H 9475 4050 50  0001 C CNN
F 3 "" H 9475 4050 50  0001 C CNN
	1    9475 4050
	-1   0    0    1   
$EndComp
Wire Wire Line
	9475 2800 9475 2875
Wire Wire Line
	9475 3175 9475 3450
Wire Wire Line
	9475 3975 9475 4050
Wire Wire Line
	9300 3700 9300 3450
Wire Wire Line
	9300 3450 9475 3450
Connection ~ 9475 3450
Wire Wire Line
	9475 3450 9475 3675
$Comp
L Device:CP C73
U 1 1 5E1AC117
P 9475 4725
F 0 "C73" V 9550 4800 50  0000 L CNN
F 1 "4700uF/16V" V 9400 4175 50  0000 L CNN
F 2 "Capacitors_ThroughHole:CP_Radial_D18.0mm_P7.50mm" H 9513 4575 50  0001 C CNN
F 3 "~" H 9475 4725 50  0001 C CNN
	1    9475 4725
	1    0    0    -1  
$EndComp
$Comp
L Device:CP C74
U 1 1 5E1AC121
P 9475 5525
F 0 "C74" V 9550 5350 50  0000 L CNN
F 1 "4700uF/16V" V 9550 5575 50  0000 L CNN
F 2 "Capacitors_ThroughHole:CP_Radial_D18.0mm_P7.50mm" H 9513 5375 50  0001 C CNN
F 3 "~" H 9475 5525 50  0001 C CNN
	1    9475 5525
	1    0    0    -1  
$EndComp
$Comp
L power:GND #PWR0111
U 1 1 5E1AC12B
P 9300 5400
F 0 "#PWR0111" H 9300 5150 50  0001 C CNN
F 1 "GND" H 9305 5227 50  0000 C CNN
F 2 "" H 9300 5400 50  0001 C CNN
F 3 "" H 9300 5400 50  0001 C CNN
	1    9300 5400
	-1   0    0    -1  
$EndComp
$Comp
L power:VCC #PWR0114
U 1 1 5E1AC135
P 9475 4500
F 0 "#PWR0114" H 9475 4350 50  0001 C CNN
F 1 "VCC" H 9492 4673 50  0000 C CNN
F 2 "" H 9475 4500 50  0001 C CNN
F 3 "" H 9475 4500 50  0001 C CNN
	1    9475 4500
	1    0    0    -1  
$EndComp
$Comp
L power:VDD #PWR0115
U 1 1 5E1AC13F
P 9475 5750
F 0 "#PWR0115" H 9475 5600 50  0001 C CNN
F 1 "VDD" H 9493 5923 50  0000 C CNN
F 2 "" H 9475 5750 50  0001 C CNN
F 3 "" H 9475 5750 50  0001 C CNN
	1    9475 5750
	-1   0    0    1   
$EndComp
Wire Wire Line
	9475 4500 9475 4575
Wire Wire Line
	9475 4875 9475 5150
Wire Wire Line
	9475 5675 9475 5750
Wire Wire Line
	9300 5400 9300 5150
Wire Wire Line
	9300 5150 9475 5150
Connection ~ 9475 5150
Wire Wire Line
	9475 5150 9475 5375
$Comp
L Device:CP C75
U 1 1 5E1AC150
P 9875 3025
F 0 "C75" V 9950 3100 50  0000 L CNN
F 1 "4700uF/16V" V 9800 2475 50  0000 L CNN
F 2 "Capacitors_ThroughHole:CP_Radial_D18.0mm_P7.50mm" H 9913 2875 50  0001 C CNN
F 3 "~" H 9875 3025 50  0001 C CNN
	1    9875 3025
	1    0    0    -1  
$EndComp
$Comp
L Device:CP C76
U 1 1 5E1AC15A
P 9875 3825
F 0 "C76" V 9950 3650 50  0000 L CNN
F 1 "4700uF/16V" V 9950 3875 50  0000 L CNN
F 2 "Capacitors_ThroughHole:CP_Radial_D18.0mm_P7.50mm" H 9913 3675 50  0001 C CNN
F 3 "~" H 9875 3825 50  0001 C CNN
	1    9875 3825
	1    0    0    -1  
$EndComp
$Comp
L power:GND #PWR0116
U 1 1 5E1AC164
P 9700 3700
F 0 "#PWR0116" H 9700 3450 50  0001 C CNN
F 1 "GND" H 9705 3527 50  0000 C CNN
F 2 "" H 9700 3700 50  0001 C CNN
F 3 "" H 9700 3700 50  0001 C CNN
	1    9700 3700
	-1   0    0    -1  
$EndComp
$Comp
L power:VCC #PWR0118
U 1 1 5E1AC16E
P 9875 2800
F 0 "#PWR0118" H 9875 2650 50  0001 C CNN
F 1 "VCC" H 9892 2973 50  0000 C CNN
F 2 "" H 9875 2800 50  0001 C CNN
F 3 "" H 9875 2800 50  0001 C CNN
	1    9875 2800
	1    0    0    -1  
$EndComp
$Comp
L power:VDD #PWR0119
U 1 1 5E1AC178
P 9875 4050
F 0 "#PWR0119" H 9875 3900 50  0001 C CNN
F 1 "VDD" H 9893 4223 50  0000 C CNN
F 2 "" H 9875 4050 50  0001 C CNN
F 3 "" H 9875 4050 50  0001 C CNN
	1    9875 4050
	-1   0    0    1   
$EndComp
Wire Wire Line
	9875 2800 9875 2875
Wire Wire Line
	9875 3175 9875 3450
Wire Wire Line
	9875 3975 9875 4050
Wire Wire Line
	9700 3700 9700 3450
Wire Wire Line
	9700 3450 9875 3450
Connection ~ 9875 3450
Wire Wire Line
	9875 3450 9875 3675
$Comp
L Device:CP C77
U 1 1 5E1AC189
P 9875 4725
F 0 "C77" V 9950 4800 50  0000 L CNN
F 1 "4700uF/16V" V 9800 4175 50  0000 L CNN
F 2 "Capacitors_ThroughHole:CP_Radial_D18.0mm_P7.50mm" H 9913 4575 50  0001 C CNN
F 3 "~" H 9875 4725 50  0001 C CNN
	1    9875 4725
	1    0    0    -1  
$EndComp
$Comp
L Device:CP C78
U 1 1 5E1AC193
P 9875 5525
F 0 "C78" V 9950 5350 50  0000 L CNN
F 1 "4700uF/16V" V 9950 5575 50  0000 L CNN
F 2 "Capacitors_ThroughHole:CP_Radial_D18.0mm_P7.50mm" H 9913 5375 50  0001 C CNN
F 3 "~" H 9875 5525 50  0001 C CNN
	1    9875 5525
	1    0    0    -1  
$EndComp
$Comp
L power:GND #PWR0117
U 1 1 5E1AC19D
P 9700 5400
F 0 "#PWR0117" H 9700 5150 50  0001 C CNN
F 1 "GND" H 9705 5227 50  0000 C CNN
F 2 "" H 9700 5400 50  0001 C CNN
F 3 "" H 9700 5400 50  0001 C CNN
	1    9700 5400
	-1   0    0    -1  
$EndComp
$Comp
L power:VCC #PWR0120
U 1 1 5E1AC1A7
P 9875 4500
F 0 "#PWR0120" H 9875 4350 50  0001 C CNN
F 1 "VCC" H 9892 4673 50  0000 C CNN
F 2 "" H 9875 4500 50  0001 C CNN
F 3 "" H 9875 4500 50  0001 C CNN
	1    9875 4500
	1    0    0    -1  
$EndComp
$Comp
L power:VDD #PWR0121
U 1 1 5E1AC1B1
P 9875 5750
F 0 "#PWR0121" H 9875 5600 50  0001 C CNN
F 1 "VDD" H 9893 5923 50  0000 C CNN
F 2 "" H 9875 5750 50  0001 C CNN
F 3 "" H 9875 5750 50  0001 C CNN
	1    9875 5750
	-1   0    0    1   
$EndComp
Wire Wire Line
	9875 4500 9875 4575
Wire Wire Line
	9875 4875 9875 5150
Wire Wire Line
	9875 5675 9875 5750
Wire Wire Line
	9700 5400 9700 5150
Wire Wire Line
	9700 5150 9875 5150
Connection ~ 9875 5150
Wire Wire Line
	9875 5150 9875 5375
$Comp
L Device:CP C79
U 1 1 5E1AC1C2
P 10275 3025
F 0 "C79" V 10350 3100 50  0000 L CNN
F 1 "4700uF/16V" V 10200 2475 50  0000 L CNN
F 2 "Capacitors_ThroughHole:CP_Radial_D18.0mm_P7.50mm" H 10313 2875 50  0001 C CNN
F 3 "~" H 10275 3025 50  0001 C CNN
	1    10275 3025
	1    0    0    -1  
$EndComp
$Comp
L Device:CP C80
U 1 1 5E1AC1CC
P 10275 3825
F 0 "C80" V 10350 3650 50  0000 L CNN
F 1 "4700uF/16V" V 10350 3875 50  0000 L CNN
F 2 "Capacitors_ThroughHole:CP_Radial_D18.0mm_P7.50mm" H 10313 3675 50  0001 C CNN
F 3 "~" H 10275 3825 50  0001 C CNN
	1    10275 3825
	1    0    0    -1  
$EndComp
$Comp
L power:GND #PWR0122
U 1 1 5E1AC1D6
P 10100 3700
F 0 "#PWR0122" H 10100 3450 50  0001 C CNN
F 1 "GND" H 10105 3527 50  0000 C CNN
F 2 "" H 10100 3700 50  0001 C CNN
F 3 "" H 10100 3700 50  0001 C CNN
	1    10100 3700
	-1   0    0    -1  
$EndComp
$Comp
L power:VCC #PWR0124
U 1 1 5E1AC1E0
P 10275 2800
F 0 "#PWR0124" H 10275 2650 50  0001 C CNN
F 1 "VCC" H 10292 2973 50  0000 C CNN
F 2 "" H 10275 2800 50  0001 C CNN
F 3 "" H 10275 2800 50  0001 C CNN
	1    10275 2800
	1    0    0    -1  
$EndComp
$Comp
L power:VDD #PWR0125
U 1 1 5E1AC1EA
P 10275 4050
F 0 "#PWR0125" H 10275 3900 50  0001 C CNN
F 1 "VDD" H 10293 4223 50  0000 C CNN
F 2 "" H 10275 4050 50  0001 C CNN
F 3 "" H 10275 4050 50  0001 C CNN
	1    10275 4050
	-1   0    0    1   
$EndComp
Wire Wire Line
	10275 2800 10275 2875
Wire Wire Line
	10275 3175 10275 3450
Wire Wire Line
	10275 3975 10275 4050
Wire Wire Line
	10100 3700 10100 3450
Wire Wire Line
	10100 3450 10275 3450
Connection ~ 10275 3450
Wire Wire Line
	10275 3450 10275 3675
$Comp
L Device:CP C81
U 1 1 5E1AC1FB
P 10275 4725
F 0 "C81" V 10350 4800 50  0000 L CNN
F 1 "4700uF/16V" V 10200 4175 50  0000 L CNN
F 2 "Capacitors_ThroughHole:CP_Radial_D18.0mm_P7.50mm" H 10313 4575 50  0001 C CNN
F 3 "~" H 10275 4725 50  0001 C CNN
	1    10275 4725
	1    0    0    -1  
$EndComp
$Comp
L Device:CP C82
U 1 1 5E1AC205
P 10275 5525
F 0 "C82" V 10350 5350 50  0000 L CNN
F 1 "4700uF/16V" V 10350 5575 50  0000 L CNN
F 2 "Capacitors_ThroughHole:CP_Radial_D18.0mm_P7.50mm" H 10313 5375 50  0001 C CNN
F 3 "~" H 10275 5525 50  0001 C CNN
	1    10275 5525
	1    0    0    -1  
$EndComp
$Comp
L power:GND #PWR0123
U 1 1 5E1AC20F
P 10100 5400
F 0 "#PWR0123" H 10100 5150 50  0001 C CNN
F 1 "GND" H 10105 5227 50  0000 C CNN
F 2 "" H 10100 5400 50  0001 C CNN
F 3 "" H 10100 5400 50  0001 C CNN
	1    10100 5400
	-1   0    0    -1  
$EndComp
$Comp
L power:VCC #PWR0126
U 1 1 5E1AC219
P 10275 4500
F 0 "#PWR0126" H 10275 4350 50  0001 C CNN
F 1 "VCC" H 10292 4673 50  0000 C CNN
F 2 "" H 10275 4500 50  0001 C CNN
F 3 "" H 10275 4500 50  0001 C CNN
	1    10275 4500
	1    0    0    -1  
$EndComp
$Comp
L power:VDD #PWR0127
U 1 1 5E1AC223
P 10275 5750
F 0 "#PWR0127" H 10275 5600 50  0001 C CNN
F 1 "VDD" H 10293 5923 50  0000 C CNN
F 2 "" H 10275 5750 50  0001 C CNN
F 3 "" H 10275 5750 50  0001 C CNN
	1    10275 5750
	-1   0    0    1   
$EndComp
Wire Wire Line
	10275 4500 10275 4575
Wire Wire Line
	10275 4875 10275 5150
Wire Wire Line
	10275 5675 10275 5750
Wire Wire Line
	10100 5400 10100 5150
Wire Wire Line
	10100 5150 10275 5150
Connection ~ 10275 5150
Wire Wire Line
	10275 5150 10275 5375
$Comp
L conn:Conn_01x03 J4
U 1 1 5E21A440
P 5300 1525
F 0 "J4" H 5380 1567 50  0000 L CNN
F 1 "OUT_L" H 5380 1476 50  0000 L CNN
F 2 "Connector_Phoenix_GMSTB:PhoenixContact_GMSTBVA_2,5_3-G_1x03_P7.50mm_Vertical" H 5300 1525 50  0001 C CNN
F 3 "~" H 5300 1525 50  0001 C CNN
	1    5300 1525
	1    0    0    -1  
$EndComp
$Comp
L power:VCC #PWR0129
U 1 1 5E21D1A9
P 5025 1375
F 0 "#PWR0129" H 5025 1225 50  0001 C CNN
F 1 "VCC" H 5042 1548 50  0000 C CNN
F 2 "" H 5025 1375 50  0001 C CNN
F 3 "" H 5025 1375 50  0001 C CNN
	1    5025 1375
	1    0    0    -1  
$EndComp
$Comp
L power:VDD #PWR0130
U 1 1 5E21E3F9
P 5025 1675
F 0 "#PWR0130" H 5025 1525 50  0001 C CNN
F 1 "VDD" H 5043 1848 50  0000 C CNN
F 2 "" H 5025 1675 50  0001 C CNN
F 3 "" H 5025 1675 50  0001 C CNN
	1    5025 1675
	-1   0    0    1   
$EndComp
$Comp
L power:GND #PWR0128
U 1 1 5E21F84D
P 4825 1675
F 0 "#PWR0128" H 4825 1425 50  0001 C CNN
F 1 "GND" H 4830 1502 50  0000 C CNN
F 2 "" H 4825 1675 50  0001 C CNN
F 3 "" H 4825 1675 50  0001 C CNN
	1    4825 1675
	-1   0    0    -1  
$EndComp
Wire Wire Line
	5100 1625 5025 1625
Wire Wire Line
	5025 1625 5025 1675
Wire Wire Line
	5100 1525 4825 1525
Wire Wire Line
	4825 1525 4825 1675
Wire Wire Line
	5100 1425 5025 1425
Wire Wire Line
	5025 1425 5025 1375
$Comp
L conn:Conn_01x03 J5
U 1 1 5E266A24
P 6375 1525
F 0 "J5" H 6455 1567 50  0000 L CNN
F 1 "OUT_R" H 6455 1476 50  0000 L CNN
F 2 "Connector_Phoenix_GMSTB:PhoenixContact_GMSTBVA_2,5_3-G_1x03_P7.50mm_Vertical" H 6375 1525 50  0001 C CNN
F 3 "~" H 6375 1525 50  0001 C CNN
	1    6375 1525
	1    0    0    -1  
$EndComp
$Comp
L power:VCC #PWR0132
U 1 1 5E266A2E
P 6100 1375
F 0 "#PWR0132" H 6100 1225 50  0001 C CNN
F 1 "VCC" H 6117 1548 50  0000 C CNN
F 2 "" H 6100 1375 50  0001 C CNN
F 3 "" H 6100 1375 50  0001 C CNN
	1    6100 1375
	1    0    0    -1  
$EndComp
$Comp
L power:VDD #PWR0133
U 1 1 5E266A38
P 6100 1675
F 0 "#PWR0133" H 6100 1525 50  0001 C CNN
F 1 "VDD" H 6118 1848 50  0000 C CNN
F 2 "" H 6100 1675 50  0001 C CNN
F 3 "" H 6100 1675 50  0001 C CNN
	1    6100 1675
	-1   0    0    1   
$EndComp
$Comp
L power:GND #PWR0131
U 1 1 5E266A42
P 5900 1675
F 0 "#PWR0131" H 5900 1425 50  0001 C CNN
F 1 "GND" H 5905 1502 50  0000 C CNN
F 2 "" H 5900 1675 50  0001 C CNN
F 3 "" H 5900 1675 50  0001 C CNN
	1    5900 1675
	-1   0    0    -1  
$EndComp
Wire Wire Line
	6175 1625 6100 1625
Wire Wire Line
	6100 1625 6100 1675
Wire Wire Line
	6175 1525 5900 1525
Wire Wire Line
	5900 1525 5900 1675
Wire Wire Line
	6175 1425 6100 1425
Wire Wire Line
	6100 1425 6100 1375
$EndSCHEMATC
