EESchema Schematic File Version 4
LIBS:PSU-cache
EELAYER 29 0
EELAYER END
$Descr A4 11693 8268
encoding utf-8
Sheet 1 1
Title ""
Date ""
Rev ""
Comp ""
Comment1 ""
Comment2 ""
Comment3 ""
Comment4 ""
$EndDescr
Text Notes 700  1100 0    50   ~ 0
- Ideal Diode Bridge\n- Center taped transformer\n- max +-36VDC (LT4320 limitation)\n- LED connector\n- Protection circuit connector
$Comp
L suf_power_management:LT4320_MSOP U1
U 1 1 5E11A004
P 8925 1125
F 0 "U1" H 8675 825 50  0000 C CNN
F 1 "LT4320-1" H 9150 1425 50  0000 C CNN
F 2 "Housings_SSOP:MSOP-12-1EP_3x4mm_Pitch0.65mm" H 8925 1125 50  0001 C CNN
F 3 "" H 8925 1125 50  0001 C CNN
	1    8925 1125
	1    0    0    -1  
$EndComp
$Comp
L Device:Q_NMOS_GDS Q3
U 1 1 5E11AF18
P 3100 2525
F 0 "Q3" V 3050 2700 50  0000 C CNN
F 1 "SUM110N04-04" V 3350 2500 50  0000 C CNN
F 2 "TO_SOT_Packages_SMD:TO-263-2" H 3300 2625 50  0001 C CNN
F 3 "~" H 3100 2525 50  0001 C CNN
	1    3100 2525
	0    -1   -1   0   
$EndComp
$Comp
L Device:Q_NMOS_GDS Q2
U 1 1 5E11C1C0
P 3100 1675
F 0 "Q2" V 3050 1825 50  0000 C CNN
F 1 "SUM110N04-04" V 3325 1650 50  0000 C CNN
F 2 "TO_SOT_Packages_SMD:TO-263-2" H 3300 1775 50  0001 C CNN
F 3 "~" H 3100 1675 50  0001 C CNN
	1    3100 1675
	0    -1   -1   0   
$EndComp
$Comp
L Device:Q_NMOS_GDS Q1
U 1 1 5E11D65A
P 3100 1100
F 0 "Q1" V 3050 1250 50  0000 C CNN
F 1 "SUM110N04-04" V 3350 1025 50  0000 C CNN
F 2 "TO_SOT_Packages_SMD:TO-263-2" H 3300 1200 50  0001 C CNN
F 3 "~" H 3100 1100 50  0001 C CNN
	1    3100 1100
	0    -1   -1   0   
$EndComp
$Comp
L power:VCC #PWR024
U 1 1 5E123B39
P 2800 925
F 0 "#PWR024" H 2800 775 50  0001 C CNN
F 1 "VCC" H 2817 1098 50  0000 C CNN
F 2 "" H 2800 925 50  0001 C CNN
F 3 "" H 2800 925 50  0001 C CNN
	1    2800 925 
	1    0    0    -1  
$EndComp
$Comp
L conn:Conn_01x06 J1
U 1 1 5E1285A5
P 750 1650
F 0 "J1" H 750 1250 50  0000 C CNN
F 1 "PWR" H 750 1975 50  0000 C CNN
F 2 "Connector_Phoenix_MSTB:PhoenixContact_MSTBVA_2,5_6-G-5,08_1x06_P5.08mm_Vertical" H 750 1650 50  0001 C CNN
F 3 "~" H 750 1650 50  0001 C CNN
	1    750  1650
	-1   0    0    -1  
$EndComp
$Comp
L power:GND #PWR05
U 1 1 5E129226
P 1375 1750
F 0 "#PWR05" H 1375 1500 50  0001 C CNN
F 1 "GND" H 1380 1577 50  0000 C CNN
F 2 "" H 1375 1750 50  0001 C CNN
F 3 "" H 1375 1750 50  0001 C CNN
	1    1375 1750
	1    0    0    -1  
$EndComp
Wire Wire Line
	950  1650 1025 1650
Wire Wire Line
	1025 1650 1025 1700
Wire Wire Line
	1025 1750 950  1750
Wire Wire Line
	1025 1700 1375 1700
Wire Wire Line
	1375 1700 1375 1750
Connection ~ 1025 1700
Wire Wire Line
	1025 1700 1025 1750
Text GLabel 1025 1450 2    50   Input ~ 0
AC1
Text GLabel 1025 1550 2    50   Input ~ 0
AC2
Wire Wire Line
	950  1450 1025 1450
Wire Wire Line
	950  1550 1025 1550
Text GLabel 3375 1000 2    50   Input ~ 0
AC1
Text GLabel 3375 1575 2    50   Input ~ 0
AC2
$Comp
L conn:Conn_01x03 J2
U 1 1 5E12DD52
P 750 3700
F 0 "J2" H 700 3475 50  0000 L CNN
F 1 "Protect" H 600 3925 50  0000 L CNN
F 2 "Connectors_JST:JST_EH_B03B-EH-A_03x2.50mm_Straight" H 750 3700 50  0001 C CNN
F 3 "~" H 750 3700 50  0001 C CNN
	1    750  3700
	-1   0    0    -1  
$EndComp
$Comp
L power:GND #PWR04
U 1 1 5E12E4A9
P 1025 3875
F 0 "#PWR04" H 1025 3625 50  0001 C CNN
F 1 "GND" H 1030 3702 50  0000 C CNN
F 2 "" H 1025 3875 50  0001 C CNN
F 3 "" H 1025 3875 50  0001 C CNN
	1    1025 3875
	-1   0    0    -1  
$EndComp
Text GLabel 1125 3700 2    50   Input ~ 0
AC1
$Comp
L power:VCC #PWR03
U 1 1 5E12EF90
P 1025 3525
F 0 "#PWR03" H 1025 3375 50  0001 C CNN
F 1 "VCC" H 1042 3698 50  0000 C CNN
F 2 "" H 1025 3525 50  0001 C CNN
F 3 "" H 1025 3525 50  0001 C CNN
	1    1025 3525
	-1   0    0    -1  
$EndComp
Wire Wire Line
	1125 3700 950  3700
Wire Wire Line
	1025 3525 1025 3600
Wire Wire Line
	1025 3600 950  3600
Wire Wire Line
	1025 3875 1025 3800
Wire Wire Line
	1025 3800 950  3800
$Comp
L conn:Conn_01x02 J3
U 1 1 5E131B23
P 975 4700
F 0 "J3" H 1055 4692 50  0000 L CNN
F 1 "PWR_LED" H 1055 4601 50  0000 L CNN
F 2 "Connectors_JST:JST_EH_B02B-EH-A_02x2.50mm_Straight" H 975 4700 50  0001 C CNN
F 3 "~" H 975 4700 50  0001 C CNN
	1    975  4700
	1    0    0    -1  
$EndComp
$Comp
L Device:R R1
U 1 1 5E132375
P 725 4500
F 0 "R1" H 795 4546 50  0000 L CNN
F 1 "1.8K" H 795 4455 50  0000 L CNN
F 2 "Resistors_SMD:R_1206" V 655 4500 50  0001 C CNN
F 3 "~" H 725 4500 50  0001 C CNN
	1    725  4500
	1    0    0    -1  
$EndComp
$Comp
L power:VCC #PWR01
U 1 1 5E132F98
P 725 4275
F 0 "#PWR01" H 725 4125 50  0001 C CNN
F 1 "VCC" H 742 4448 50  0000 C CNN
F 2 "" H 725 4275 50  0001 C CNN
F 3 "" H 725 4275 50  0001 C CNN
	1    725  4275
	1    0    0    -1  
$EndComp
$Comp
L power:GND #PWR02
U 1 1 5E1334A5
P 725 4850
F 0 "#PWR02" H 725 4600 50  0001 C CNN
F 1 "GND" H 730 4677 50  0000 C CNN
F 2 "" H 725 4850 50  0001 C CNN
F 3 "" H 725 4850 50  0001 C CNN
	1    725  4850
	1    0    0    -1  
$EndComp
Wire Wire Line
	725  4275 725  4350
Wire Wire Line
	725  4650 725  4700
Wire Wire Line
	725  4700 775  4700
Wire Wire Line
	775  4800 725  4800
Wire Wire Line
	725  4800 725  4850
Text Notes 1000 4525 0    50   ~ 0
Calculated to 12V
$Comp
L Device:C C1
U 1 1 5E14F607
P 1225 6050
F 0 "C1" H 1340 6096 50  0000 L CNN
F 1 "10nF" H 1340 6005 50  0000 L CNN
F 2 "Capacitors_SMD:C_1206_HandSoldering" H 1263 5900 50  0001 C CNN
F 3 "~" H 1225 6050 50  0001 C CNN
	1    1225 6050
	1    0    0    -1  
$EndComp
$Comp
L Device:C C2
U 1 1 5E150069
P 1550 6275
F 0 "C2" H 1665 6321 50  0000 L CNN
F 1 "150nF" H 1665 6230 50  0000 L CNN
F 2 "Capacitors_SMD:C_2220_HandSoldering" H 1588 6125 50  0001 C CNN
F 3 "~" H 1550 6275 50  0001 C CNN
	1    1550 6275
	1    0    0    -1  
$EndComp
$Comp
L Device:R R2
U 1 1 5E1509D1
P 1550 5850
F 0 "R2" H 1620 5896 50  0000 L CNN
F 1 "150" H 1620 5805 50  0000 L CNN
F 2 "Resistors_SMD:R_2512_HandSoldering" V 1480 5850 50  0001 C CNN
F 3 "~" H 1550 5850 50  0001 C CNN
	1    1550 5850
	1    0    0    -1  
$EndComp
Text GLabel 825  5625 0    50   Input ~ 0
AC1
Text GLabel 825  6350 0    50   Input ~ 0
AC2
Wire Wire Line
	825  5625 1225 5625
Wire Wire Line
	1550 5625 1550 5700
Wire Wire Line
	1175 6500 1225 6500
Wire Wire Line
	1550 6500 1550 6425
Wire Wire Line
	1225 6200 1225 6350
Connection ~ 1225 6500
Wire Wire Line
	1225 6500 1550 6500
Wire Wire Line
	1225 5900 1225 5625
Connection ~ 1225 5625
Wire Wire Line
	1225 5625 1550 5625
Wire Wire Line
	1550 6000 1550 6125
$Comp
L Device:CP C3
U 1 1 5E1578D0
P 2225 3475
F 0 "C3" V 2300 3550 50  0000 L CNN
F 1 "4700uF/16V" V 2150 2925 50  0000 L CNN
F 2 "Capacitors_ThroughHole:CP_Radial_D18.0mm_P7.50mm" H 2263 3325 50  0001 C CNN
F 3 "~" H 2225 3475 50  0001 C CNN
	1    2225 3475
	1    0    0    -1  
$EndComp
$Comp
L Device:CP C4
U 1 1 5E15BE57
P 2225 4275
F 0 "C4" V 2300 4100 50  0000 L CNN
F 1 "4700uF/16V" V 2300 4325 50  0000 L CNN
F 2 "Capacitors_ThroughHole:CP_Radial_D18.0mm_P7.50mm" H 2263 4125 50  0001 C CNN
F 3 "~" H 2225 4275 50  0001 C CNN
	1    2225 4275
	1    0    0    -1  
$EndComp
$Comp
L power:GND #PWR06
U 1 1 5E15CC65
P 2050 4150
F 0 "#PWR06" H 2050 3900 50  0001 C CNN
F 1 "GND" H 2055 3977 50  0000 C CNN
F 2 "" H 2050 4150 50  0001 C CNN
F 3 "" H 2050 4150 50  0001 C CNN
	1    2050 4150
	-1   0    0    -1  
$EndComp
$Comp
L power:VCC #PWR08
U 1 1 5E15D3BA
P 2225 3250
F 0 "#PWR08" H 2225 3100 50  0001 C CNN
F 1 "VCC" H 2242 3423 50  0000 C CNN
F 2 "" H 2225 3250 50  0001 C CNN
F 3 "" H 2225 3250 50  0001 C CNN
	1    2225 3250
	1    0    0    -1  
$EndComp
$Comp
L power:VDD #PWR09
U 1 1 5E15DBD7
P 2225 4500
F 0 "#PWR09" H 2225 4350 50  0001 C CNN
F 1 "VDD" H 2243 4673 50  0000 C CNN
F 2 "" H 2225 4500 50  0001 C CNN
F 3 "" H 2225 4500 50  0001 C CNN
	1    2225 4500
	-1   0    0    1   
$EndComp
Wire Wire Line
	2225 3250 2225 3325
Wire Wire Line
	2225 3625 2225 3900
Wire Wire Line
	2225 4425 2225 4500
Wire Wire Line
	2050 4150 2050 3900
Wire Wire Line
	2050 3900 2225 3900
Connection ~ 2225 3900
Wire Wire Line
	2225 3900 2225 4125
$Comp
L Device:CP C5
U 1 1 5E16A7FC
P 2225 5175
F 0 "C5" V 2300 5250 50  0000 L CNN
F 1 "4700uF/16V" V 2150 4625 50  0000 L CNN
F 2 "Capacitors_ThroughHole:CP_Radial_D18.0mm_P7.50mm" H 2263 5025 50  0001 C CNN
F 3 "~" H 2225 5175 50  0001 C CNN
	1    2225 5175
	1    0    0    -1  
$EndComp
$Comp
L Device:CP C6
U 1 1 5E16A806
P 2225 5975
F 0 "C6" V 2300 5800 50  0000 L CNN
F 1 "4700uF/16V" V 2300 6025 50  0000 L CNN
F 2 "Capacitors_ThroughHole:CP_Radial_D18.0mm_P7.50mm" H 2263 5825 50  0001 C CNN
F 3 "~" H 2225 5975 50  0001 C CNN
	1    2225 5975
	1    0    0    -1  
$EndComp
$Comp
L power:GND #PWR07
U 1 1 5E16A810
P 2050 5850
F 0 "#PWR07" H 2050 5600 50  0001 C CNN
F 1 "GND" H 2055 5677 50  0000 C CNN
F 2 "" H 2050 5850 50  0001 C CNN
F 3 "" H 2050 5850 50  0001 C CNN
	1    2050 5850
	-1   0    0    -1  
$EndComp
$Comp
L power:VCC #PWR010
U 1 1 5E16A81A
P 2225 4950
F 0 "#PWR010" H 2225 4800 50  0001 C CNN
F 1 "VCC" H 2242 5123 50  0000 C CNN
F 2 "" H 2225 4950 50  0001 C CNN
F 3 "" H 2225 4950 50  0001 C CNN
	1    2225 4950
	1    0    0    -1  
$EndComp
$Comp
L power:VDD #PWR011
U 1 1 5E16A824
P 2225 6200
F 0 "#PWR011" H 2225 6050 50  0001 C CNN
F 1 "VDD" H 2243 6373 50  0000 C CNN
F 2 "" H 2225 6200 50  0001 C CNN
F 3 "" H 2225 6200 50  0001 C CNN
	1    2225 6200
	-1   0    0    1   
$EndComp
Wire Wire Line
	2225 4950 2225 5025
Wire Wire Line
	2225 5325 2225 5600
Wire Wire Line
	2225 6125 2225 6200
Wire Wire Line
	2050 5850 2050 5600
Wire Wire Line
	2050 5600 2225 5600
Connection ~ 2225 5600
Wire Wire Line
	2225 5600 2225 5825
$Comp
L Device:CP C7
U 1 1 5E16F680
P 2625 3475
F 0 "C7" V 2700 3550 50  0000 L CNN
F 1 "4700uF/16V" V 2550 2925 50  0000 L CNN
F 2 "Capacitors_ThroughHole:CP_Radial_D18.0mm_P7.50mm" H 2663 3325 50  0001 C CNN
F 3 "~" H 2625 3475 50  0001 C CNN
	1    2625 3475
	1    0    0    -1  
$EndComp
$Comp
L Device:CP C8
U 1 1 5E16F68A
P 2625 4275
F 0 "C8" V 2700 4100 50  0000 L CNN
F 1 "4700uF/16V" V 2700 4325 50  0000 L CNN
F 2 "Capacitors_ThroughHole:CP_Radial_D18.0mm_P7.50mm" H 2663 4125 50  0001 C CNN
F 3 "~" H 2625 4275 50  0001 C CNN
	1    2625 4275
	1    0    0    -1  
$EndComp
$Comp
L power:GND #PWR012
U 1 1 5E16F694
P 2450 4150
F 0 "#PWR012" H 2450 3900 50  0001 C CNN
F 1 "GND" H 2455 3977 50  0000 C CNN
F 2 "" H 2450 4150 50  0001 C CNN
F 3 "" H 2450 4150 50  0001 C CNN
	1    2450 4150
	-1   0    0    -1  
$EndComp
$Comp
L power:VCC #PWR014
U 1 1 5E16F69E
P 2625 3250
F 0 "#PWR014" H 2625 3100 50  0001 C CNN
F 1 "VCC" H 2642 3423 50  0000 C CNN
F 2 "" H 2625 3250 50  0001 C CNN
F 3 "" H 2625 3250 50  0001 C CNN
	1    2625 3250
	1    0    0    -1  
$EndComp
$Comp
L power:VDD #PWR015
U 1 1 5E16F6A8
P 2625 4500
F 0 "#PWR015" H 2625 4350 50  0001 C CNN
F 1 "VDD" H 2643 4673 50  0000 C CNN
F 2 "" H 2625 4500 50  0001 C CNN
F 3 "" H 2625 4500 50  0001 C CNN
	1    2625 4500
	-1   0    0    1   
$EndComp
Wire Wire Line
	2625 3250 2625 3325
Wire Wire Line
	2625 3625 2625 3900
Wire Wire Line
	2625 4425 2625 4500
Wire Wire Line
	2450 4150 2450 3900
Wire Wire Line
	2450 3900 2625 3900
Connection ~ 2625 3900
Wire Wire Line
	2625 3900 2625 4125
$Comp
L Device:CP C9
U 1 1 5E16F6B9
P 2625 5175
F 0 "C9" V 2700 5250 50  0000 L CNN
F 1 "4700uF/16V" V 2550 4625 50  0000 L CNN
F 2 "Capacitors_ThroughHole:CP_Radial_D18.0mm_P7.50mm" H 2663 5025 50  0001 C CNN
F 3 "~" H 2625 5175 50  0001 C CNN
	1    2625 5175
	1    0    0    -1  
$EndComp
$Comp
L Device:CP C10
U 1 1 5E16F6C3
P 2625 5975
F 0 "C10" V 2700 5800 50  0000 L CNN
F 1 "4700uF/16V" V 2700 6025 50  0000 L CNN
F 2 "Capacitors_ThroughHole:CP_Radial_D18.0mm_P7.50mm" H 2663 5825 50  0001 C CNN
F 3 "~" H 2625 5975 50  0001 C CNN
	1    2625 5975
	1    0    0    -1  
$EndComp
$Comp
L power:GND #PWR013
U 1 1 5E16F6CD
P 2450 5850
F 0 "#PWR013" H 2450 5600 50  0001 C CNN
F 1 "GND" H 2455 5677 50  0000 C CNN
F 2 "" H 2450 5850 50  0001 C CNN
F 3 "" H 2450 5850 50  0001 C CNN
	1    2450 5850
	-1   0    0    -1  
$EndComp
$Comp
L power:VCC #PWR016
U 1 1 5E16F6D7
P 2625 4950
F 0 "#PWR016" H 2625 4800 50  0001 C CNN
F 1 "VCC" H 2642 5123 50  0000 C CNN
F 2 "" H 2625 4950 50  0001 C CNN
F 3 "" H 2625 4950 50  0001 C CNN
	1    2625 4950
	1    0    0    -1  
$EndComp
$Comp
L power:VDD #PWR017
U 1 1 5E16F6E1
P 2625 6200
F 0 "#PWR017" H 2625 6050 50  0001 C CNN
F 1 "VDD" H 2643 6373 50  0000 C CNN
F 2 "" H 2625 6200 50  0001 C CNN
F 3 "" H 2625 6200 50  0001 C CNN
	1    2625 6200
	-1   0    0    1   
$EndComp
Wire Wire Line
	2625 4950 2625 5025
Wire Wire Line
	2625 5325 2625 5600
Wire Wire Line
	2625 6125 2625 6200
Wire Wire Line
	2450 5850 2450 5600
Wire Wire Line
	2450 5600 2625 5600
Connection ~ 2625 5600
Wire Wire Line
	2625 5600 2625 5825
$Comp
L Device:CP C11
U 1 1 5E174521
P 3025 3475
F 0 "C11" V 3100 3550 50  0000 L CNN
F 1 "4700uF/16V" V 2950 2925 50  0000 L CNN
F 2 "Capacitors_ThroughHole:CP_Radial_D18.0mm_P7.50mm" H 3063 3325 50  0001 C CNN
F 3 "~" H 3025 3475 50  0001 C CNN
	1    3025 3475
	1    0    0    -1  
$EndComp
$Comp
L Device:CP C12
U 1 1 5E17452B
P 3025 4275
F 0 "C12" V 3100 4100 50  0000 L CNN
F 1 "4700uF/16V" V 3100 4325 50  0000 L CNN
F 2 "Capacitors_ThroughHole:CP_Radial_D18.0mm_P7.50mm" H 3063 4125 50  0001 C CNN
F 3 "~" H 3025 4275 50  0001 C CNN
	1    3025 4275
	1    0    0    -1  
$EndComp
$Comp
L power:GND #PWR018
U 1 1 5E174535
P 2850 4150
F 0 "#PWR018" H 2850 3900 50  0001 C CNN
F 1 "GND" H 2855 3977 50  0000 C CNN
F 2 "" H 2850 4150 50  0001 C CNN
F 3 "" H 2850 4150 50  0001 C CNN
	1    2850 4150
	-1   0    0    -1  
$EndComp
$Comp
L power:VCC #PWR020
U 1 1 5E17453F
P 3025 3250
F 0 "#PWR020" H 3025 3100 50  0001 C CNN
F 1 "VCC" H 3042 3423 50  0000 C CNN
F 2 "" H 3025 3250 50  0001 C CNN
F 3 "" H 3025 3250 50  0001 C CNN
	1    3025 3250
	1    0    0    -1  
$EndComp
$Comp
L power:VDD #PWR021
U 1 1 5E174549
P 3025 4500
F 0 "#PWR021" H 3025 4350 50  0001 C CNN
F 1 "VDD" H 3043 4673 50  0000 C CNN
F 2 "" H 3025 4500 50  0001 C CNN
F 3 "" H 3025 4500 50  0001 C CNN
	1    3025 4500
	-1   0    0    1   
$EndComp
Wire Wire Line
	3025 3250 3025 3325
Wire Wire Line
	3025 3625 3025 3900
Wire Wire Line
	3025 4425 3025 4500
Wire Wire Line
	2850 4150 2850 3900
Wire Wire Line
	2850 3900 3025 3900
Connection ~ 3025 3900
Wire Wire Line
	3025 3900 3025 4125
$Comp
L Device:CP C13
U 1 1 5E17455A
P 3025 5175
F 0 "C13" V 3100 5250 50  0000 L CNN
F 1 "4700uF/16V" V 2950 4625 50  0000 L CNN
F 2 "Capacitors_ThroughHole:CP_Radial_D18.0mm_P7.50mm" H 3063 5025 50  0001 C CNN
F 3 "~" H 3025 5175 50  0001 C CNN
	1    3025 5175
	1    0    0    -1  
$EndComp
$Comp
L Device:CP C14
U 1 1 5E174564
P 3025 5975
F 0 "C14" V 3100 5800 50  0000 L CNN
F 1 "4700uF/16V" V 3100 6025 50  0000 L CNN
F 2 "Capacitors_ThroughHole:CP_Radial_D18.0mm_P7.50mm" H 3063 5825 50  0001 C CNN
F 3 "~" H 3025 5975 50  0001 C CNN
	1    3025 5975
	1    0    0    -1  
$EndComp
$Comp
L power:GND #PWR019
U 1 1 5E17456E
P 2850 5850
F 0 "#PWR019" H 2850 5600 50  0001 C CNN
F 1 "GND" H 2855 5677 50  0000 C CNN
F 2 "" H 2850 5850 50  0001 C CNN
F 3 "" H 2850 5850 50  0001 C CNN
	1    2850 5850
	-1   0    0    -1  
$EndComp
$Comp
L power:VCC #PWR022
U 1 1 5E174578
P 3025 4950
F 0 "#PWR022" H 3025 4800 50  0001 C CNN
F 1 "VCC" H 3042 5123 50  0000 C CNN
F 2 "" H 3025 4950 50  0001 C CNN
F 3 "" H 3025 4950 50  0001 C CNN
	1    3025 4950
	1    0    0    -1  
$EndComp
$Comp
L power:VDD #PWR023
U 1 1 5E174582
P 3025 6200
F 0 "#PWR023" H 3025 6050 50  0001 C CNN
F 1 "VDD" H 3043 6373 50  0000 C CNN
F 2 "" H 3025 6200 50  0001 C CNN
F 3 "" H 3025 6200 50  0001 C CNN
	1    3025 6200
	-1   0    0    1   
$EndComp
Wire Wire Line
	3025 4950 3025 5025
Wire Wire Line
	3025 5325 3025 5600
Wire Wire Line
	3025 6125 3025 6200
Wire Wire Line
	2850 5850 2850 5600
Wire Wire Line
	2850 5600 3025 5600
Connection ~ 3025 5600
Wire Wire Line
	3025 5600 3025 5825
$Comp
L Device:CP C15
U 1 1 5E174593
P 3425 3475
F 0 "C15" V 3500 3550 50  0000 L CNN
F 1 "4700uF/16V" V 3350 2925 50  0000 L CNN
F 2 "Capacitors_ThroughHole:CP_Radial_D18.0mm_P7.50mm" H 3463 3325 50  0001 C CNN
F 3 "~" H 3425 3475 50  0001 C CNN
	1    3425 3475
	1    0    0    -1  
$EndComp
$Comp
L Device:CP C16
U 1 1 5E17459D
P 3425 4275
F 0 "C16" V 3500 4100 50  0000 L CNN
F 1 "4700uF/16V" V 3500 4325 50  0000 L CNN
F 2 "Capacitors_ThroughHole:CP_Radial_D18.0mm_P7.50mm" H 3463 4125 50  0001 C CNN
F 3 "~" H 3425 4275 50  0001 C CNN
	1    3425 4275
	1    0    0    -1  
$EndComp
$Comp
L power:GND #PWR026
U 1 1 5E1745A7
P 3250 4150
F 0 "#PWR026" H 3250 3900 50  0001 C CNN
F 1 "GND" H 3255 3977 50  0000 C CNN
F 2 "" H 3250 4150 50  0001 C CNN
F 3 "" H 3250 4150 50  0001 C CNN
	1    3250 4150
	-1   0    0    -1  
$EndComp
$Comp
L power:VCC #PWR028
U 1 1 5E1745B1
P 3425 3250
F 0 "#PWR028" H 3425 3100 50  0001 C CNN
F 1 "VCC" H 3442 3423 50  0000 C CNN
F 2 "" H 3425 3250 50  0001 C CNN
F 3 "" H 3425 3250 50  0001 C CNN
	1    3425 3250
	1    0    0    -1  
$EndComp
$Comp
L power:VDD #PWR029
U 1 1 5E1745BB
P 3425 4500
F 0 "#PWR029" H 3425 4350 50  0001 C CNN
F 1 "VDD" H 3443 4673 50  0000 C CNN
F 2 "" H 3425 4500 50  0001 C CNN
F 3 "" H 3425 4500 50  0001 C CNN
	1    3425 4500
	-1   0    0    1   
$EndComp
Wire Wire Line
	3425 3250 3425 3325
Wire Wire Line
	3425 3625 3425 3900
Wire Wire Line
	3425 4425 3425 4500
Wire Wire Line
	3250 4150 3250 3900
Wire Wire Line
	3250 3900 3425 3900
Connection ~ 3425 3900
Wire Wire Line
	3425 3900 3425 4125
$Comp
L Device:CP C17
U 1 1 5E1745CC
P 3425 5175
F 0 "C17" V 3500 5250 50  0000 L CNN
F 1 "4700uF/16V" V 3350 4625 50  0000 L CNN
F 2 "Capacitors_ThroughHole:CP_Radial_D18.0mm_P7.50mm" H 3463 5025 50  0001 C CNN
F 3 "~" H 3425 5175 50  0001 C CNN
	1    3425 5175
	1    0    0    -1  
$EndComp
$Comp
L Device:CP C18
U 1 1 5E1745D6
P 3425 5975
F 0 "C18" V 3500 5800 50  0000 L CNN
F 1 "4700uF/16V" V 3500 6025 50  0000 L CNN
F 2 "Capacitors_ThroughHole:CP_Radial_D18.0mm_P7.50mm" H 3463 5825 50  0001 C CNN
F 3 "~" H 3425 5975 50  0001 C CNN
	1    3425 5975
	1    0    0    -1  
$EndComp
$Comp
L power:GND #PWR027
U 1 1 5E1745E0
P 3250 5850
F 0 "#PWR027" H 3250 5600 50  0001 C CNN
F 1 "GND" H 3255 5677 50  0000 C CNN
F 2 "" H 3250 5850 50  0001 C CNN
F 3 "" H 3250 5850 50  0001 C CNN
	1    3250 5850
	-1   0    0    -1  
$EndComp
$Comp
L power:VCC #PWR030
U 1 1 5E1745EA
P 3425 4950
F 0 "#PWR030" H 3425 4800 50  0001 C CNN
F 1 "VCC" H 3442 5123 50  0000 C CNN
F 2 "" H 3425 4950 50  0001 C CNN
F 3 "" H 3425 4950 50  0001 C CNN
	1    3425 4950
	1    0    0    -1  
$EndComp
$Comp
L power:VDD #PWR031
U 1 1 5E1745F4
P 3425 6200
F 0 "#PWR031" H 3425 6050 50  0001 C CNN
F 1 "VDD" H 3443 6373 50  0000 C CNN
F 2 "" H 3425 6200 50  0001 C CNN
F 3 "" H 3425 6200 50  0001 C CNN
	1    3425 6200
	-1   0    0    1   
$EndComp
Wire Wire Line
	3425 4950 3425 5025
Wire Wire Line
	3425 5325 3425 5600
Wire Wire Line
	3425 6125 3425 6200
Wire Wire Line
	3250 5850 3250 5600
Wire Wire Line
	3250 5600 3425 5600
Connection ~ 3425 5600
Wire Wire Line
	3425 5600 3425 5825
$Comp
L Device:CP C19
U 1 1 5E180C84
P 3825 3475
F 0 "C19" V 3900 3550 50  0000 L CNN
F 1 "4700uF/16V" V 3750 2925 50  0000 L CNN
F 2 "Capacitors_ThroughHole:CP_Radial_D18.0mm_P7.50mm" H 3863 3325 50  0001 C CNN
F 3 "~" H 3825 3475 50  0001 C CNN
	1    3825 3475
	1    0    0    -1  
$EndComp
$Comp
L Device:CP C20
U 1 1 5E180C8E
P 3825 4275
F 0 "C20" V 3900 4100 50  0000 L CNN
F 1 "4700uF/16V" V 3900 4325 50  0000 L CNN
F 2 "Capacitors_ThroughHole:CP_Radial_D18.0mm_P7.50mm" H 3863 4125 50  0001 C CNN
F 3 "~" H 3825 4275 50  0001 C CNN
	1    3825 4275
	1    0    0    -1  
$EndComp
$Comp
L power:GND #PWR032
U 1 1 5E180C98
P 3650 4150
F 0 "#PWR032" H 3650 3900 50  0001 C CNN
F 1 "GND" H 3655 3977 50  0000 C CNN
F 2 "" H 3650 4150 50  0001 C CNN
F 3 "" H 3650 4150 50  0001 C CNN
	1    3650 4150
	-1   0    0    -1  
$EndComp
$Comp
L power:VCC #PWR034
U 1 1 5E180CA2
P 3825 3250
F 0 "#PWR034" H 3825 3100 50  0001 C CNN
F 1 "VCC" H 3842 3423 50  0000 C CNN
F 2 "" H 3825 3250 50  0001 C CNN
F 3 "" H 3825 3250 50  0001 C CNN
	1    3825 3250
	1    0    0    -1  
$EndComp
$Comp
L power:VDD #PWR035
U 1 1 5E180CAC
P 3825 4500
F 0 "#PWR035" H 3825 4350 50  0001 C CNN
F 1 "VDD" H 3843 4673 50  0000 C CNN
F 2 "" H 3825 4500 50  0001 C CNN
F 3 "" H 3825 4500 50  0001 C CNN
	1    3825 4500
	-1   0    0    1   
$EndComp
Wire Wire Line
	3825 3250 3825 3325
Wire Wire Line
	3825 3625 3825 3900
Wire Wire Line
	3825 4425 3825 4500
Wire Wire Line
	3650 4150 3650 3900
Wire Wire Line
	3650 3900 3825 3900
Connection ~ 3825 3900
Wire Wire Line
	3825 3900 3825 4125
$Comp
L Device:CP C21
U 1 1 5E180CBD
P 3825 5175
F 0 "C21" V 3900 5250 50  0000 L CNN
F 1 "4700uF/16V" V 3750 4625 50  0000 L CNN
F 2 "Capacitors_ThroughHole:CP_Radial_D18.0mm_P7.50mm" H 3863 5025 50  0001 C CNN
F 3 "~" H 3825 5175 50  0001 C CNN
	1    3825 5175
	1    0    0    -1  
$EndComp
$Comp
L Device:CP C22
U 1 1 5E180CC7
P 3825 5975
F 0 "C22" V 3900 5800 50  0000 L CNN
F 1 "4700uF/16V" V 3900 6025 50  0000 L CNN
F 2 "Capacitors_ThroughHole:CP_Radial_D18.0mm_P7.50mm" H 3863 5825 50  0001 C CNN
F 3 "~" H 3825 5975 50  0001 C CNN
	1    3825 5975
	1    0    0    -1  
$EndComp
$Comp
L power:GND #PWR033
U 1 1 5E180CD1
P 3650 5850
F 0 "#PWR033" H 3650 5600 50  0001 C CNN
F 1 "GND" H 3655 5677 50  0000 C CNN
F 2 "" H 3650 5850 50  0001 C CNN
F 3 "" H 3650 5850 50  0001 C CNN
	1    3650 5850
	-1   0    0    -1  
$EndComp
$Comp
L power:VCC #PWR036
U 1 1 5E180CDB
P 3825 4950
F 0 "#PWR036" H 3825 4800 50  0001 C CNN
F 1 "VCC" H 3842 5123 50  0000 C CNN
F 2 "" H 3825 4950 50  0001 C CNN
F 3 "" H 3825 4950 50  0001 C CNN
	1    3825 4950
	1    0    0    -1  
$EndComp
$Comp
L power:VDD #PWR037
U 1 1 5E180CE5
P 3825 6200
F 0 "#PWR037" H 3825 6050 50  0001 C CNN
F 1 "VDD" H 3843 6373 50  0000 C CNN
F 2 "" H 3825 6200 50  0001 C CNN
F 3 "" H 3825 6200 50  0001 C CNN
	1    3825 6200
	-1   0    0    1   
$EndComp
Wire Wire Line
	3825 4950 3825 5025
Wire Wire Line
	3825 5325 3825 5600
Wire Wire Line
	3825 6125 3825 6200
Wire Wire Line
	3650 5850 3650 5600
Wire Wire Line
	3650 5600 3825 5600
Connection ~ 3825 5600
Wire Wire Line
	3825 5600 3825 5825
$Comp
L Device:CP C23
U 1 1 5E18914D
P 4225 3475
F 0 "C23" V 4300 3550 50  0000 L CNN
F 1 "4700uF/16V" V 4150 2925 50  0000 L CNN
F 2 "Capacitors_ThroughHole:CP_Radial_D18.0mm_P7.50mm" H 4263 3325 50  0001 C CNN
F 3 "~" H 4225 3475 50  0001 C CNN
	1    4225 3475
	1    0    0    -1  
$EndComp
$Comp
L Device:CP C24
U 1 1 5E189157
P 4225 4275
F 0 "C24" V 4300 4100 50  0000 L CNN
F 1 "4700uF/16V" V 4300 4325 50  0000 L CNN
F 2 "Capacitors_ThroughHole:CP_Radial_D18.0mm_P7.50mm" H 4263 4125 50  0001 C CNN
F 3 "~" H 4225 4275 50  0001 C CNN
	1    4225 4275
	1    0    0    -1  
$EndComp
$Comp
L power:GND #PWR038
U 1 1 5E189161
P 4050 4150
F 0 "#PWR038" H 4050 3900 50  0001 C CNN
F 1 "GND" H 4055 3977 50  0000 C CNN
F 2 "" H 4050 4150 50  0001 C CNN
F 3 "" H 4050 4150 50  0001 C CNN
	1    4050 4150
	-1   0    0    -1  
$EndComp
$Comp
L power:VCC #PWR040
U 1 1 5E18916B
P 4225 3250
F 0 "#PWR040" H 4225 3100 50  0001 C CNN
F 1 "VCC" H 4242 3423 50  0000 C CNN
F 2 "" H 4225 3250 50  0001 C CNN
F 3 "" H 4225 3250 50  0001 C CNN
	1    4225 3250
	1    0    0    -1  
$EndComp
$Comp
L power:VDD #PWR041
U 1 1 5E189175
P 4225 4500
F 0 "#PWR041" H 4225 4350 50  0001 C CNN
F 1 "VDD" H 4243 4673 50  0000 C CNN
F 2 "" H 4225 4500 50  0001 C CNN
F 3 "" H 4225 4500 50  0001 C CNN
	1    4225 4500
	-1   0    0    1   
$EndComp
Wire Wire Line
	4225 3250 4225 3325
Wire Wire Line
	4225 3625 4225 3900
Wire Wire Line
	4225 4425 4225 4500
Wire Wire Line
	4050 4150 4050 3900
Wire Wire Line
	4050 3900 4225 3900
Connection ~ 4225 3900
Wire Wire Line
	4225 3900 4225 4125
$Comp
L Device:CP C25
U 1 1 5E189186
P 4225 5175
F 0 "C25" V 4300 5250 50  0000 L CNN
F 1 "4700uF/16V" V 4150 4625 50  0000 L CNN
F 2 "Capacitors_ThroughHole:CP_Radial_D18.0mm_P7.50mm" H 4263 5025 50  0001 C CNN
F 3 "~" H 4225 5175 50  0001 C CNN
	1    4225 5175
	1    0    0    -1  
$EndComp
$Comp
L Device:CP C26
U 1 1 5E189190
P 4225 5975
F 0 "C26" V 4300 5800 50  0000 L CNN
F 1 "4700uF/16V" V 4300 6025 50  0000 L CNN
F 2 "Capacitors_ThroughHole:CP_Radial_D18.0mm_P7.50mm" H 4263 5825 50  0001 C CNN
F 3 "~" H 4225 5975 50  0001 C CNN
	1    4225 5975
	1    0    0    -1  
$EndComp
$Comp
L power:GND #PWR039
U 1 1 5E18919A
P 4050 5850
F 0 "#PWR039" H 4050 5600 50  0001 C CNN
F 1 "GND" H 4055 5677 50  0000 C CNN
F 2 "" H 4050 5850 50  0001 C CNN
F 3 "" H 4050 5850 50  0001 C CNN
	1    4050 5850
	-1   0    0    -1  
$EndComp
$Comp
L power:VCC #PWR042
U 1 1 5E1891A4
P 4225 4950
F 0 "#PWR042" H 4225 4800 50  0001 C CNN
F 1 "VCC" H 4242 5123 50  0000 C CNN
F 2 "" H 4225 4950 50  0001 C CNN
F 3 "" H 4225 4950 50  0001 C CNN
	1    4225 4950
	1    0    0    -1  
$EndComp
$Comp
L power:VDD #PWR043
U 1 1 5E1891AE
P 4225 6200
F 0 "#PWR043" H 4225 6050 50  0001 C CNN
F 1 "VDD" H 4243 6373 50  0000 C CNN
F 2 "" H 4225 6200 50  0001 C CNN
F 3 "" H 4225 6200 50  0001 C CNN
	1    4225 6200
	-1   0    0    1   
$EndComp
Wire Wire Line
	4225 4950 4225 5025
Wire Wire Line
	4225 5325 4225 5600
Wire Wire Line
	4225 6125 4225 6200
Wire Wire Line
	4050 5850 4050 5600
Wire Wire Line
	4050 5600 4225 5600
Connection ~ 4225 5600
Wire Wire Line
	4225 5600 4225 5825
$Comp
L Device:CP C27
U 1 1 5E1891BF
P 4625 3475
F 0 "C27" V 4700 3550 50  0000 L CNN
F 1 "4700uF/16V" V 4550 2925 50  0000 L CNN
F 2 "Capacitors_ThroughHole:CP_Radial_D18.0mm_P7.50mm" H 4663 3325 50  0001 C CNN
F 3 "~" H 4625 3475 50  0001 C CNN
	1    4625 3475
	1    0    0    -1  
$EndComp
$Comp
L Device:CP C28
U 1 1 5E1891C9
P 4625 4275
F 0 "C28" V 4700 4100 50  0000 L CNN
F 1 "4700uF/16V" V 4700 4325 50  0000 L CNN
F 2 "Capacitors_ThroughHole:CP_Radial_D18.0mm_P7.50mm" H 4663 4125 50  0001 C CNN
F 3 "~" H 4625 4275 50  0001 C CNN
	1    4625 4275
	1    0    0    -1  
$EndComp
$Comp
L power:GND #PWR044
U 1 1 5E1891D3
P 4450 4150
F 0 "#PWR044" H 4450 3900 50  0001 C CNN
F 1 "GND" H 4455 3977 50  0000 C CNN
F 2 "" H 4450 4150 50  0001 C CNN
F 3 "" H 4450 4150 50  0001 C CNN
	1    4450 4150
	-1   0    0    -1  
$EndComp
$Comp
L power:VCC #PWR046
U 1 1 5E1891DD
P 4625 3250
F 0 "#PWR046" H 4625 3100 50  0001 C CNN
F 1 "VCC" H 4642 3423 50  0000 C CNN
F 2 "" H 4625 3250 50  0001 C CNN
F 3 "" H 4625 3250 50  0001 C CNN
	1    4625 3250
	1    0    0    -1  
$EndComp
$Comp
L power:VDD #PWR047
U 1 1 5E1891E7
P 4625 4500
F 0 "#PWR047" H 4625 4350 50  0001 C CNN
F 1 "VDD" H 4643 4673 50  0000 C CNN
F 2 "" H 4625 4500 50  0001 C CNN
F 3 "" H 4625 4500 50  0001 C CNN
	1    4625 4500
	-1   0    0    1   
$EndComp
Wire Wire Line
	4625 3250 4625 3325
Wire Wire Line
	4625 3625 4625 3900
Wire Wire Line
	4625 4425 4625 4500
Wire Wire Line
	4450 4150 4450 3900
Wire Wire Line
	4450 3900 4625 3900
Connection ~ 4625 3900
Wire Wire Line
	4625 3900 4625 4125
$Comp
L Device:CP C29
U 1 1 5E1891F8
P 4625 5175
F 0 "C29" V 4700 5250 50  0000 L CNN
F 1 "4700uF/16V" V 4550 4625 50  0000 L CNN
F 2 "Capacitors_ThroughHole:CP_Radial_D18.0mm_P7.50mm" H 4663 5025 50  0001 C CNN
F 3 "~" H 4625 5175 50  0001 C CNN
	1    4625 5175
	1    0    0    -1  
$EndComp
$Comp
L Device:CP C30
U 1 1 5E189202
P 4625 5975
F 0 "C30" V 4700 5800 50  0000 L CNN
F 1 "4700uF/16V" V 4700 6025 50  0000 L CNN
F 2 "Capacitors_ThroughHole:CP_Radial_D18.0mm_P7.50mm" H 4663 5825 50  0001 C CNN
F 3 "~" H 4625 5975 50  0001 C CNN
	1    4625 5975
	1    0    0    -1  
$EndComp
$Comp
L power:GND #PWR045
U 1 1 5E18920C
P 4450 5850
F 0 "#PWR045" H 4450 5600 50  0001 C CNN
F 1 "GND" H 4455 5677 50  0000 C CNN
F 2 "" H 4450 5850 50  0001 C CNN
F 3 "" H 4450 5850 50  0001 C CNN
	1    4450 5850
	-1   0    0    -1  
$EndComp
$Comp
L power:VCC #PWR048
U 1 1 5E189216
P 4625 4950
F 0 "#PWR048" H 4625 4800 50  0001 C CNN
F 1 "VCC" H 4642 5123 50  0000 C CNN
F 2 "" H 4625 4950 50  0001 C CNN
F 3 "" H 4625 4950 50  0001 C CNN
	1    4625 4950
	1    0    0    -1  
$EndComp
$Comp
L power:VDD #PWR049
U 1 1 5E189220
P 4625 6200
F 0 "#PWR049" H 4625 6050 50  0001 C CNN
F 1 "VDD" H 4643 6373 50  0000 C CNN
F 2 "" H 4625 6200 50  0001 C CNN
F 3 "" H 4625 6200 50  0001 C CNN
	1    4625 6200
	-1   0    0    1   
$EndComp
Wire Wire Line
	4625 4950 4625 5025
Wire Wire Line
	4625 5325 4625 5600
Wire Wire Line
	4625 6125 4625 6200
Wire Wire Line
	4450 5850 4450 5600
Wire Wire Line
	4450 5600 4625 5600
Connection ~ 4625 5600
Wire Wire Line
	4625 5600 4625 5825
$Comp
L Device:CP C31
U 1 1 5E189231
P 5025 3475
F 0 "C31" V 5100 3550 50  0000 L CNN
F 1 "4700uF/16V" V 4950 2925 50  0000 L CNN
F 2 "Capacitors_ThroughHole:CP_Radial_D18.0mm_P7.50mm" H 5063 3325 50  0001 C CNN
F 3 "~" H 5025 3475 50  0001 C CNN
	1    5025 3475
	1    0    0    -1  
$EndComp
$Comp
L Device:CP C32
U 1 1 5E18923B
P 5025 4275
F 0 "C32" V 5100 4100 50  0000 L CNN
F 1 "4700uF/16V" V 5100 4325 50  0000 L CNN
F 2 "Capacitors_ThroughHole:CP_Radial_D18.0mm_P7.50mm" H 5063 4125 50  0001 C CNN
F 3 "~" H 5025 4275 50  0001 C CNN
	1    5025 4275
	1    0    0    -1  
$EndComp
$Comp
L power:GND #PWR050
U 1 1 5E189245
P 4850 4150
F 0 "#PWR050" H 4850 3900 50  0001 C CNN
F 1 "GND" H 4855 3977 50  0000 C CNN
F 2 "" H 4850 4150 50  0001 C CNN
F 3 "" H 4850 4150 50  0001 C CNN
	1    4850 4150
	-1   0    0    -1  
$EndComp
$Comp
L power:VCC #PWR052
U 1 1 5E18924F
P 5025 3250
F 0 "#PWR052" H 5025 3100 50  0001 C CNN
F 1 "VCC" H 5042 3423 50  0000 C CNN
F 2 "" H 5025 3250 50  0001 C CNN
F 3 "" H 5025 3250 50  0001 C CNN
	1    5025 3250
	1    0    0    -1  
$EndComp
$Comp
L power:VDD #PWR053
U 1 1 5E189259
P 5025 4500
F 0 "#PWR053" H 5025 4350 50  0001 C CNN
F 1 "VDD" H 5043 4673 50  0000 C CNN
F 2 "" H 5025 4500 50  0001 C CNN
F 3 "" H 5025 4500 50  0001 C CNN
	1    5025 4500
	-1   0    0    1   
$EndComp
Wire Wire Line
	5025 3250 5025 3325
Wire Wire Line
	5025 3625 5025 3900
Wire Wire Line
	5025 4425 5025 4500
Wire Wire Line
	4850 4150 4850 3900
Wire Wire Line
	4850 3900 5025 3900
Connection ~ 5025 3900
Wire Wire Line
	5025 3900 5025 4125
$Comp
L Device:CP C33
U 1 1 5E18926A
P 5025 5175
F 0 "C33" V 5100 5250 50  0000 L CNN
F 1 "4700uF/16V" V 4950 4625 50  0000 L CNN
F 2 "Capacitors_ThroughHole:CP_Radial_D18.0mm_P7.50mm" H 5063 5025 50  0001 C CNN
F 3 "~" H 5025 5175 50  0001 C CNN
	1    5025 5175
	1    0    0    -1  
$EndComp
$Comp
L Device:CP C34
U 1 1 5E189274
P 5025 5975
F 0 "C34" V 5100 5800 50  0000 L CNN
F 1 "4700uF/16V" V 5100 6025 50  0000 L CNN
F 2 "Capacitors_ThroughHole:CP_Radial_D18.0mm_P7.50mm" H 5063 5825 50  0001 C CNN
F 3 "~" H 5025 5975 50  0001 C CNN
	1    5025 5975
	1    0    0    -1  
$EndComp
$Comp
L power:GND #PWR051
U 1 1 5E18927E
P 4850 5850
F 0 "#PWR051" H 4850 5600 50  0001 C CNN
F 1 "GND" H 4855 5677 50  0000 C CNN
F 2 "" H 4850 5850 50  0001 C CNN
F 3 "" H 4850 5850 50  0001 C CNN
	1    4850 5850
	-1   0    0    -1  
$EndComp
$Comp
L power:VCC #PWR054
U 1 1 5E189288
P 5025 4950
F 0 "#PWR054" H 5025 4800 50  0001 C CNN
F 1 "VCC" H 5042 5123 50  0000 C CNN
F 2 "" H 5025 4950 50  0001 C CNN
F 3 "" H 5025 4950 50  0001 C CNN
	1    5025 4950
	1    0    0    -1  
$EndComp
$Comp
L power:VDD #PWR055
U 1 1 5E189292
P 5025 6200
F 0 "#PWR055" H 5025 6050 50  0001 C CNN
F 1 "VDD" H 5043 6373 50  0000 C CNN
F 2 "" H 5025 6200 50  0001 C CNN
F 3 "" H 5025 6200 50  0001 C CNN
	1    5025 6200
	-1   0    0    1   
$EndComp
Wire Wire Line
	5025 4950 5025 5025
Wire Wire Line
	5025 5325 5025 5600
Wire Wire Line
	5025 6125 5025 6200
Wire Wire Line
	4850 5850 4850 5600
Wire Wire Line
	4850 5600 5025 5600
Connection ~ 5025 5600
Wire Wire Line
	5025 5600 5025 5825
$Comp
L Device:CP C35
U 1 1 5E1892A3
P 5425 3475
F 0 "C35" V 5500 3550 50  0000 L CNN
F 1 "4700uF/16V" V 5350 2925 50  0000 L CNN
F 2 "Capacitors_ThroughHole:CP_Radial_D18.0mm_P7.50mm" H 5463 3325 50  0001 C CNN
F 3 "~" H 5425 3475 50  0001 C CNN
	1    5425 3475
	1    0    0    -1  
$EndComp
$Comp
L Device:CP C36
U 1 1 5E1892AD
P 5425 4275
F 0 "C36" V 5500 4100 50  0000 L CNN
F 1 "4700uF/16V" V 5500 4325 50  0000 L CNN
F 2 "Capacitors_ThroughHole:CP_Radial_D18.0mm_P7.50mm" H 5463 4125 50  0001 C CNN
F 3 "~" H 5425 4275 50  0001 C CNN
	1    5425 4275
	1    0    0    -1  
$EndComp
$Comp
L power:GND #PWR056
U 1 1 5E1892B7
P 5250 4150
F 0 "#PWR056" H 5250 3900 50  0001 C CNN
F 1 "GND" H 5255 3977 50  0000 C CNN
F 2 "" H 5250 4150 50  0001 C CNN
F 3 "" H 5250 4150 50  0001 C CNN
	1    5250 4150
	-1   0    0    -1  
$EndComp
$Comp
L power:VCC #PWR058
U 1 1 5E1892C1
P 5425 3250
F 0 "#PWR058" H 5425 3100 50  0001 C CNN
F 1 "VCC" H 5442 3423 50  0000 C CNN
F 2 "" H 5425 3250 50  0001 C CNN
F 3 "" H 5425 3250 50  0001 C CNN
	1    5425 3250
	1    0    0    -1  
$EndComp
$Comp
L power:VDD #PWR059
U 1 1 5E1892CB
P 5425 4500
F 0 "#PWR059" H 5425 4350 50  0001 C CNN
F 1 "VDD" H 5443 4673 50  0000 C CNN
F 2 "" H 5425 4500 50  0001 C CNN
F 3 "" H 5425 4500 50  0001 C CNN
	1    5425 4500
	-1   0    0    1   
$EndComp
Wire Wire Line
	5425 3250 5425 3325
Wire Wire Line
	5425 3625 5425 3900
Wire Wire Line
	5425 4425 5425 4500
Wire Wire Line
	5250 4150 5250 3900
Wire Wire Line
	5250 3900 5425 3900
Connection ~ 5425 3900
Wire Wire Line
	5425 3900 5425 4125
$Comp
L Device:CP C37
U 1 1 5E1892DC
P 5425 5175
F 0 "C37" V 5500 5250 50  0000 L CNN
F 1 "4700uF/16V" V 5350 4625 50  0000 L CNN
F 2 "Capacitors_ThroughHole:CP_Radial_D18.0mm_P7.50mm" H 5463 5025 50  0001 C CNN
F 3 "~" H 5425 5175 50  0001 C CNN
	1    5425 5175
	1    0    0    -1  
$EndComp
$Comp
L Device:CP C38
U 1 1 5E1892E6
P 5425 5975
F 0 "C38" V 5500 5800 50  0000 L CNN
F 1 "4700uF/16V" V 5500 6025 50  0000 L CNN
F 2 "Capacitors_ThroughHole:CP_Radial_D18.0mm_P7.50mm" H 5463 5825 50  0001 C CNN
F 3 "~" H 5425 5975 50  0001 C CNN
	1    5425 5975
	1    0    0    -1  
$EndComp
$Comp
L power:GND #PWR057
U 1 1 5E1892F0
P 5250 5850
F 0 "#PWR057" H 5250 5600 50  0001 C CNN
F 1 "GND" H 5255 5677 50  0000 C CNN
F 2 "" H 5250 5850 50  0001 C CNN
F 3 "" H 5250 5850 50  0001 C CNN
	1    5250 5850
	-1   0    0    -1  
$EndComp
$Comp
L power:VCC #PWR060
U 1 1 5E1892FA
P 5425 4950
F 0 "#PWR060" H 5425 4800 50  0001 C CNN
F 1 "VCC" H 5442 5123 50  0000 C CNN
F 2 "" H 5425 4950 50  0001 C CNN
F 3 "" H 5425 4950 50  0001 C CNN
	1    5425 4950
	1    0    0    -1  
$EndComp
$Comp
L power:VDD #PWR061
U 1 1 5E189304
P 5425 6200
F 0 "#PWR061" H 5425 6050 50  0001 C CNN
F 1 "VDD" H 5443 6373 50  0000 C CNN
F 2 "" H 5425 6200 50  0001 C CNN
F 3 "" H 5425 6200 50  0001 C CNN
	1    5425 6200
	-1   0    0    1   
$EndComp
Wire Wire Line
	5425 4950 5425 5025
Wire Wire Line
	5425 5325 5425 5600
Wire Wire Line
	5425 6125 5425 6200
Wire Wire Line
	5250 5850 5250 5600
Wire Wire Line
	5250 5600 5425 5600
Connection ~ 5425 5600
Wire Wire Line
	5425 5600 5425 5825
$Comp
L Device:CP C39
U 1 1 5E189315
P 5825 3475
F 0 "C39" V 5900 3550 50  0000 L CNN
F 1 "4700uF/16V" V 5750 2925 50  0000 L CNN
F 2 "Capacitors_ThroughHole:CP_Radial_D18.0mm_P7.50mm" H 5863 3325 50  0001 C CNN
F 3 "~" H 5825 3475 50  0001 C CNN
	1    5825 3475
	1    0    0    -1  
$EndComp
$Comp
L Device:CP C40
U 1 1 5E18931F
P 5825 4275
F 0 "C40" V 5900 4100 50  0000 L CNN
F 1 "4700uF/16V" V 5900 4325 50  0000 L CNN
F 2 "Capacitors_ThroughHole:CP_Radial_D18.0mm_P7.50mm" H 5863 4125 50  0001 C CNN
F 3 "~" H 5825 4275 50  0001 C CNN
	1    5825 4275
	1    0    0    -1  
$EndComp
$Comp
L power:GND #PWR062
U 1 1 5E189329
P 5650 4150
F 0 "#PWR062" H 5650 3900 50  0001 C CNN
F 1 "GND" H 5655 3977 50  0000 C CNN
F 2 "" H 5650 4150 50  0001 C CNN
F 3 "" H 5650 4150 50  0001 C CNN
	1    5650 4150
	-1   0    0    -1  
$EndComp
$Comp
L power:VCC #PWR064
U 1 1 5E189333
P 5825 3250
F 0 "#PWR064" H 5825 3100 50  0001 C CNN
F 1 "VCC" H 5842 3423 50  0000 C CNN
F 2 "" H 5825 3250 50  0001 C CNN
F 3 "" H 5825 3250 50  0001 C CNN
	1    5825 3250
	1    0    0    -1  
$EndComp
$Comp
L power:VDD #PWR065
U 1 1 5E18933D
P 5825 4500
F 0 "#PWR065" H 5825 4350 50  0001 C CNN
F 1 "VDD" H 5843 4673 50  0000 C CNN
F 2 "" H 5825 4500 50  0001 C CNN
F 3 "" H 5825 4500 50  0001 C CNN
	1    5825 4500
	-1   0    0    1   
$EndComp
Wire Wire Line
	5825 3250 5825 3325
Wire Wire Line
	5825 3625 5825 3900
Wire Wire Line
	5825 4425 5825 4500
Wire Wire Line
	5650 4150 5650 3900
Wire Wire Line
	5650 3900 5825 3900
Connection ~ 5825 3900
Wire Wire Line
	5825 3900 5825 4125
$Comp
L Device:CP C41
U 1 1 5E18934E
P 5825 5175
F 0 "C41" V 5900 5250 50  0000 L CNN
F 1 "4700uF/16V" V 5750 4625 50  0000 L CNN
F 2 "Capacitors_ThroughHole:CP_Radial_D18.0mm_P7.50mm" H 5863 5025 50  0001 C CNN
F 3 "~" H 5825 5175 50  0001 C CNN
	1    5825 5175
	1    0    0    -1  
$EndComp
$Comp
L Device:CP C42
U 1 1 5E189358
P 5825 5975
F 0 "C42" V 5900 5800 50  0000 L CNN
F 1 "4700uF/16V" V 5900 6025 50  0000 L CNN
F 2 "Capacitors_ThroughHole:CP_Radial_D18.0mm_P7.50mm" H 5863 5825 50  0001 C CNN
F 3 "~" H 5825 5975 50  0001 C CNN
	1    5825 5975
	1    0    0    -1  
$EndComp
$Comp
L power:GND #PWR063
U 1 1 5E189362
P 5650 5850
F 0 "#PWR063" H 5650 5600 50  0001 C CNN
F 1 "GND" H 5655 5677 50  0000 C CNN
F 2 "" H 5650 5850 50  0001 C CNN
F 3 "" H 5650 5850 50  0001 C CNN
	1    5650 5850
	-1   0    0    -1  
$EndComp
$Comp
L power:VCC #PWR066
U 1 1 5E18936C
P 5825 4950
F 0 "#PWR066" H 5825 4800 50  0001 C CNN
F 1 "VCC" H 5842 5123 50  0000 C CNN
F 2 "" H 5825 4950 50  0001 C CNN
F 3 "" H 5825 4950 50  0001 C CNN
	1    5825 4950
	1    0    0    -1  
$EndComp
$Comp
L power:VDD #PWR067
U 1 1 5E189376
P 5825 6200
F 0 "#PWR067" H 5825 6050 50  0001 C CNN
F 1 "VDD" H 5843 6373 50  0000 C CNN
F 2 "" H 5825 6200 50  0001 C CNN
F 3 "" H 5825 6200 50  0001 C CNN
	1    5825 6200
	-1   0    0    1   
$EndComp
Wire Wire Line
	5825 4950 5825 5025
Wire Wire Line
	5825 5325 5825 5600
Wire Wire Line
	5825 6125 5825 6200
Wire Wire Line
	5650 5850 5650 5600
Wire Wire Line
	5650 5600 5825 5600
Connection ~ 5825 5600
Wire Wire Line
	5825 5600 5825 5825
$Comp
L Device:CP C43
U 1 1 5E1ABDC0
P 6675 3475
F 0 "C43" V 6750 3550 50  0000 L CNN
F 1 "4700uF/16V" V 6600 2925 50  0000 L CNN
F 2 "Capacitors_ThroughHole:CP_Radial_D18.0mm_P7.50mm" H 6713 3325 50  0001 C CNN
F 3 "~" H 6675 3475 50  0001 C CNN
	1    6675 3475
	1    0    0    -1  
$EndComp
$Comp
L Device:CP C44
U 1 1 5E1ABDCA
P 6675 4275
F 0 "C44" V 6750 4100 50  0000 L CNN
F 1 "4700uF/16V" V 6750 4325 50  0000 L CNN
F 2 "Capacitors_ThroughHole:CP_Radial_D18.0mm_P7.50mm" H 6713 4125 50  0001 C CNN
F 3 "~" H 6675 4275 50  0001 C CNN
	1    6675 4275
	1    0    0    -1  
$EndComp
$Comp
L power:GND #PWR068
U 1 1 5E1ABDD4
P 6500 4150
F 0 "#PWR068" H 6500 3900 50  0001 C CNN
F 1 "GND" H 6505 3977 50  0000 C CNN
F 2 "" H 6500 4150 50  0001 C CNN
F 3 "" H 6500 4150 50  0001 C CNN
	1    6500 4150
	-1   0    0    -1  
$EndComp
$Comp
L power:VCC #PWR070
U 1 1 5E1ABDDE
P 6675 3250
F 0 "#PWR070" H 6675 3100 50  0001 C CNN
F 1 "VCC" H 6692 3423 50  0000 C CNN
F 2 "" H 6675 3250 50  0001 C CNN
F 3 "" H 6675 3250 50  0001 C CNN
	1    6675 3250
	1    0    0    -1  
$EndComp
$Comp
L power:VDD #PWR071
U 1 1 5E1ABDE8
P 6675 4500
F 0 "#PWR071" H 6675 4350 50  0001 C CNN
F 1 "VDD" H 6693 4673 50  0000 C CNN
F 2 "" H 6675 4500 50  0001 C CNN
F 3 "" H 6675 4500 50  0001 C CNN
	1    6675 4500
	-1   0    0    1   
$EndComp
Wire Wire Line
	6675 3250 6675 3325
Wire Wire Line
	6675 3625 6675 3900
Wire Wire Line
	6675 4425 6675 4500
Wire Wire Line
	6500 4150 6500 3900
Wire Wire Line
	6500 3900 6675 3900
Connection ~ 6675 3900
Wire Wire Line
	6675 3900 6675 4125
$Comp
L Device:CP C45
U 1 1 5E1ABDF9
P 6675 5175
F 0 "C45" V 6750 5250 50  0000 L CNN
F 1 "4700uF/16V" V 6600 4625 50  0000 L CNN
F 2 "Capacitors_ThroughHole:CP_Radial_D18.0mm_P7.50mm" H 6713 5025 50  0001 C CNN
F 3 "~" H 6675 5175 50  0001 C CNN
	1    6675 5175
	1    0    0    -1  
$EndComp
$Comp
L Device:CP C46
U 1 1 5E1ABE03
P 6675 5975
F 0 "C46" V 6750 5800 50  0000 L CNN
F 1 "4700uF/16V" V 6750 6025 50  0000 L CNN
F 2 "Capacitors_ThroughHole:CP_Radial_D18.0mm_P7.50mm" H 6713 5825 50  0001 C CNN
F 3 "~" H 6675 5975 50  0001 C CNN
	1    6675 5975
	1    0    0    -1  
$EndComp
$Comp
L power:GND #PWR069
U 1 1 5E1ABE0D
P 6500 5850
F 0 "#PWR069" H 6500 5600 50  0001 C CNN
F 1 "GND" H 6505 5677 50  0000 C CNN
F 2 "" H 6500 5850 50  0001 C CNN
F 3 "" H 6500 5850 50  0001 C CNN
	1    6500 5850
	-1   0    0    -1  
$EndComp
$Comp
L power:VCC #PWR072
U 1 1 5E1ABE17
P 6675 4950
F 0 "#PWR072" H 6675 4800 50  0001 C CNN
F 1 "VCC" H 6692 5123 50  0000 C CNN
F 2 "" H 6675 4950 50  0001 C CNN
F 3 "" H 6675 4950 50  0001 C CNN
	1    6675 4950
	1    0    0    -1  
$EndComp
$Comp
L power:VDD #PWR073
U 1 1 5E1ABE21
P 6675 6200
F 0 "#PWR073" H 6675 6050 50  0001 C CNN
F 1 "VDD" H 6693 6373 50  0000 C CNN
F 2 "" H 6675 6200 50  0001 C CNN
F 3 "" H 6675 6200 50  0001 C CNN
	1    6675 6200
	-1   0    0    1   
$EndComp
Wire Wire Line
	6675 4950 6675 5025
Wire Wire Line
	6675 5325 6675 5600
Wire Wire Line
	6675 6125 6675 6200
Wire Wire Line
	6500 5850 6500 5600
Wire Wire Line
	6500 5600 6675 5600
Connection ~ 6675 5600
Wire Wire Line
	6675 5600 6675 5825
$Comp
L Device:CP C47
U 1 1 5E1ABE32
P 7075 3475
F 0 "C47" V 7150 3550 50  0000 L CNN
F 1 "4700uF/16V" V 7000 2925 50  0000 L CNN
F 2 "Capacitors_ThroughHole:CP_Radial_D18.0mm_P7.50mm" H 7113 3325 50  0001 C CNN
F 3 "~" H 7075 3475 50  0001 C CNN
	1    7075 3475
	1    0    0    -1  
$EndComp
$Comp
L Device:CP C48
U 1 1 5E1ABE3C
P 7075 4275
F 0 "C48" V 7150 4100 50  0000 L CNN
F 1 "4700uF/16V" V 7150 4325 50  0000 L CNN
F 2 "Capacitors_ThroughHole:CP_Radial_D18.0mm_P7.50mm" H 7113 4125 50  0001 C CNN
F 3 "~" H 7075 4275 50  0001 C CNN
	1    7075 4275
	1    0    0    -1  
$EndComp
$Comp
L power:GND #PWR074
U 1 1 5E1ABE46
P 6900 4150
F 0 "#PWR074" H 6900 3900 50  0001 C CNN
F 1 "GND" H 6905 3977 50  0000 C CNN
F 2 "" H 6900 4150 50  0001 C CNN
F 3 "" H 6900 4150 50  0001 C CNN
	1    6900 4150
	-1   0    0    -1  
$EndComp
$Comp
L power:VCC #PWR076
U 1 1 5E1ABE50
P 7075 3250
F 0 "#PWR076" H 7075 3100 50  0001 C CNN
F 1 "VCC" H 7092 3423 50  0000 C CNN
F 2 "" H 7075 3250 50  0001 C CNN
F 3 "" H 7075 3250 50  0001 C CNN
	1    7075 3250
	1    0    0    -1  
$EndComp
$Comp
L power:VDD #PWR077
U 1 1 5E1ABE5A
P 7075 4500
F 0 "#PWR077" H 7075 4350 50  0001 C CNN
F 1 "VDD" H 7093 4673 50  0000 C CNN
F 2 "" H 7075 4500 50  0001 C CNN
F 3 "" H 7075 4500 50  0001 C CNN
	1    7075 4500
	-1   0    0    1   
$EndComp
Wire Wire Line
	7075 3250 7075 3325
Wire Wire Line
	7075 3625 7075 3900
Wire Wire Line
	7075 4425 7075 4500
Wire Wire Line
	6900 4150 6900 3900
Wire Wire Line
	6900 3900 7075 3900
Connection ~ 7075 3900
Wire Wire Line
	7075 3900 7075 4125
$Comp
L Device:CP C49
U 1 1 5E1ABE6B
P 7075 5175
F 0 "C49" V 7150 5250 50  0000 L CNN
F 1 "4700uF/16V" V 7000 4625 50  0000 L CNN
F 2 "Capacitors_ThroughHole:CP_Radial_D18.0mm_P7.50mm" H 7113 5025 50  0001 C CNN
F 3 "~" H 7075 5175 50  0001 C CNN
	1    7075 5175
	1    0    0    -1  
$EndComp
$Comp
L Device:CP C50
U 1 1 5E1ABE75
P 7075 5975
F 0 "C50" V 7150 5800 50  0000 L CNN
F 1 "4700uF/16V" V 7150 6025 50  0000 L CNN
F 2 "Capacitors_ThroughHole:CP_Radial_D18.0mm_P7.50mm" H 7113 5825 50  0001 C CNN
F 3 "~" H 7075 5975 50  0001 C CNN
	1    7075 5975
	1    0    0    -1  
$EndComp
$Comp
L power:GND #PWR075
U 1 1 5E1ABE7F
P 6900 5850
F 0 "#PWR075" H 6900 5600 50  0001 C CNN
F 1 "GND" H 6905 5677 50  0000 C CNN
F 2 "" H 6900 5850 50  0001 C CNN
F 3 "" H 6900 5850 50  0001 C CNN
	1    6900 5850
	-1   0    0    -1  
$EndComp
$Comp
L power:VCC #PWR078
U 1 1 5E1ABE89
P 7075 4950
F 0 "#PWR078" H 7075 4800 50  0001 C CNN
F 1 "VCC" H 7092 5123 50  0000 C CNN
F 2 "" H 7075 4950 50  0001 C CNN
F 3 "" H 7075 4950 50  0001 C CNN
	1    7075 4950
	1    0    0    -1  
$EndComp
$Comp
L power:VDD #PWR079
U 1 1 5E1ABE93
P 7075 6200
F 0 "#PWR079" H 7075 6050 50  0001 C CNN
F 1 "VDD" H 7093 6373 50  0000 C CNN
F 2 "" H 7075 6200 50  0001 C CNN
F 3 "" H 7075 6200 50  0001 C CNN
	1    7075 6200
	-1   0    0    1   
$EndComp
Wire Wire Line
	7075 4950 7075 5025
Wire Wire Line
	7075 5325 7075 5600
Wire Wire Line
	7075 6125 7075 6200
Wire Wire Line
	6900 5850 6900 5600
Wire Wire Line
	6900 5600 7075 5600
Connection ~ 7075 5600
Wire Wire Line
	7075 5600 7075 5825
$Comp
L Device:CP C51
U 1 1 5E1ABEA4
P 7475 3475
F 0 "C51" V 7550 3550 50  0000 L CNN
F 1 "4700uF/16V" V 7400 2925 50  0000 L CNN
F 2 "Capacitors_ThroughHole:CP_Radial_D18.0mm_P7.50mm" H 7513 3325 50  0001 C CNN
F 3 "~" H 7475 3475 50  0001 C CNN
	1    7475 3475
	1    0    0    -1  
$EndComp
$Comp
L Device:CP C52
U 1 1 5E1ABEAE
P 7475 4275
F 0 "C52" V 7550 4100 50  0000 L CNN
F 1 "4700uF/16V" V 7550 4325 50  0000 L CNN
F 2 "Capacitors_ThroughHole:CP_Radial_D18.0mm_P7.50mm" H 7513 4125 50  0001 C CNN
F 3 "~" H 7475 4275 50  0001 C CNN
	1    7475 4275
	1    0    0    -1  
$EndComp
$Comp
L power:GND #PWR080
U 1 1 5E1ABEB8
P 7300 4150
F 0 "#PWR080" H 7300 3900 50  0001 C CNN
F 1 "GND" H 7305 3977 50  0000 C CNN
F 2 "" H 7300 4150 50  0001 C CNN
F 3 "" H 7300 4150 50  0001 C CNN
	1    7300 4150
	-1   0    0    -1  
$EndComp
$Comp
L power:VCC #PWR082
U 1 1 5E1ABEC2
P 7475 3250
F 0 "#PWR082" H 7475 3100 50  0001 C CNN
F 1 "VCC" H 7492 3423 50  0000 C CNN
F 2 "" H 7475 3250 50  0001 C CNN
F 3 "" H 7475 3250 50  0001 C CNN
	1    7475 3250
	1    0    0    -1  
$EndComp
$Comp
L power:VDD #PWR083
U 1 1 5E1ABECC
P 7475 4500
F 0 "#PWR083" H 7475 4350 50  0001 C CNN
F 1 "VDD" H 7493 4673 50  0000 C CNN
F 2 "" H 7475 4500 50  0001 C CNN
F 3 "" H 7475 4500 50  0001 C CNN
	1    7475 4500
	-1   0    0    1   
$EndComp
Wire Wire Line
	7475 3250 7475 3325
Wire Wire Line
	7475 3625 7475 3900
Wire Wire Line
	7475 4425 7475 4500
Wire Wire Line
	7300 4150 7300 3900
Wire Wire Line
	7300 3900 7475 3900
Connection ~ 7475 3900
Wire Wire Line
	7475 3900 7475 4125
$Comp
L Device:CP C53
U 1 1 5E1ABEDD
P 7475 5175
F 0 "C53" V 7550 5250 50  0000 L CNN
F 1 "4700uF/16V" V 7400 4625 50  0000 L CNN
F 2 "Capacitors_ThroughHole:CP_Radial_D18.0mm_P7.50mm" H 7513 5025 50  0001 C CNN
F 3 "~" H 7475 5175 50  0001 C CNN
	1    7475 5175
	1    0    0    -1  
$EndComp
$Comp
L Device:CP C54
U 1 1 5E1ABEE7
P 7475 5975
F 0 "C54" V 7550 5800 50  0000 L CNN
F 1 "4700uF/16V" V 7550 6025 50  0000 L CNN
F 2 "Capacitors_ThroughHole:CP_Radial_D18.0mm_P7.50mm" H 7513 5825 50  0001 C CNN
F 3 "~" H 7475 5975 50  0001 C CNN
	1    7475 5975
	1    0    0    -1  
$EndComp
$Comp
L power:GND #PWR081
U 1 1 5E1ABEF1
P 7300 5850
F 0 "#PWR081" H 7300 5600 50  0001 C CNN
F 1 "GND" H 7305 5677 50  0000 C CNN
F 2 "" H 7300 5850 50  0001 C CNN
F 3 "" H 7300 5850 50  0001 C CNN
	1    7300 5850
	-1   0    0    -1  
$EndComp
$Comp
L power:VCC #PWR084
U 1 1 5E1ABEFB
P 7475 4950
F 0 "#PWR084" H 7475 4800 50  0001 C CNN
F 1 "VCC" H 7492 5123 50  0000 C CNN
F 2 "" H 7475 4950 50  0001 C CNN
F 3 "" H 7475 4950 50  0001 C CNN
	1    7475 4950
	1    0    0    -1  
$EndComp
$Comp
L power:VDD #PWR085
U 1 1 5E1ABF05
P 7475 6200
F 0 "#PWR085" H 7475 6050 50  0001 C CNN
F 1 "VDD" H 7493 6373 50  0000 C CNN
F 2 "" H 7475 6200 50  0001 C CNN
F 3 "" H 7475 6200 50  0001 C CNN
	1    7475 6200
	-1   0    0    1   
$EndComp
Wire Wire Line
	7475 4950 7475 5025
Wire Wire Line
	7475 5325 7475 5600
Wire Wire Line
	7475 6125 7475 6200
Wire Wire Line
	7300 5850 7300 5600
Wire Wire Line
	7300 5600 7475 5600
Connection ~ 7475 5600
Wire Wire Line
	7475 5600 7475 5825
$Comp
L Device:CP C55
U 1 1 5E1ABF16
P 7875 3475
F 0 "C55" V 7950 3550 50  0000 L CNN
F 1 "4700uF/16V" V 7800 2925 50  0000 L CNN
F 2 "Capacitors_ThroughHole:CP_Radial_D18.0mm_P7.50mm" H 7913 3325 50  0001 C CNN
F 3 "~" H 7875 3475 50  0001 C CNN
	1    7875 3475
	1    0    0    -1  
$EndComp
$Comp
L Device:CP C56
U 1 1 5E1ABF20
P 7875 4275
F 0 "C56" V 7950 4100 50  0000 L CNN
F 1 "4700uF/16V" V 7950 4325 50  0000 L CNN
F 2 "Capacitors_ThroughHole:CP_Radial_D18.0mm_P7.50mm" H 7913 4125 50  0001 C CNN
F 3 "~" H 7875 4275 50  0001 C CNN
	1    7875 4275
	1    0    0    -1  
$EndComp
$Comp
L power:GND #PWR086
U 1 1 5E1ABF2A
P 7700 4150
F 0 "#PWR086" H 7700 3900 50  0001 C CNN
F 1 "GND" H 7705 3977 50  0000 C CNN
F 2 "" H 7700 4150 50  0001 C CNN
F 3 "" H 7700 4150 50  0001 C CNN
	1    7700 4150
	-1   0    0    -1  
$EndComp
$Comp
L power:VCC #PWR088
U 1 1 5E1ABF34
P 7875 3250
F 0 "#PWR088" H 7875 3100 50  0001 C CNN
F 1 "VCC" H 7892 3423 50  0000 C CNN
F 2 "" H 7875 3250 50  0001 C CNN
F 3 "" H 7875 3250 50  0001 C CNN
	1    7875 3250
	1    0    0    -1  
$EndComp
$Comp
L power:VDD #PWR089
U 1 1 5E1ABF3E
P 7875 4500
F 0 "#PWR089" H 7875 4350 50  0001 C CNN
F 1 "VDD" H 7893 4673 50  0000 C CNN
F 2 "" H 7875 4500 50  0001 C CNN
F 3 "" H 7875 4500 50  0001 C CNN
	1    7875 4500
	-1   0    0    1   
$EndComp
Wire Wire Line
	7875 3250 7875 3325
Wire Wire Line
	7875 3625 7875 3900
Wire Wire Line
	7875 4425 7875 4500
Wire Wire Line
	7700 4150 7700 3900
Wire Wire Line
	7700 3900 7875 3900
Connection ~ 7875 3900
Wire Wire Line
	7875 3900 7875 4125
$Comp
L Device:CP C57
U 1 1 5E1ABF4F
P 7875 5175
F 0 "C57" V 7950 5250 50  0000 L CNN
F 1 "4700uF/16V" V 7800 4625 50  0000 L CNN
F 2 "Capacitors_ThroughHole:CP_Radial_D18.0mm_P7.50mm" H 7913 5025 50  0001 C CNN
F 3 "~" H 7875 5175 50  0001 C CNN
	1    7875 5175
	1    0    0    -1  
$EndComp
$Comp
L Device:CP C58
U 1 1 5E1ABF59
P 7875 5975
F 0 "C58" V 7950 5800 50  0000 L CNN
F 1 "4700uF/16V" V 7950 6025 50  0000 L CNN
F 2 "Capacitors_ThroughHole:CP_Radial_D18.0mm_P7.50mm" H 7913 5825 50  0001 C CNN
F 3 "~" H 7875 5975 50  0001 C CNN
	1    7875 5975
	1    0    0    -1  
$EndComp
$Comp
L power:GND #PWR087
U 1 1 5E1ABF63
P 7700 5850
F 0 "#PWR087" H 7700 5600 50  0001 C CNN
F 1 "GND" H 7705 5677 50  0000 C CNN
F 2 "" H 7700 5850 50  0001 C CNN
F 3 "" H 7700 5850 50  0001 C CNN
	1    7700 5850
	-1   0    0    -1  
$EndComp
$Comp
L power:VCC #PWR090
U 1 1 5E1ABF6D
P 7875 4950
F 0 "#PWR090" H 7875 4800 50  0001 C CNN
F 1 "VCC" H 7892 5123 50  0000 C CNN
F 2 "" H 7875 4950 50  0001 C CNN
F 3 "" H 7875 4950 50  0001 C CNN
	1    7875 4950
	1    0    0    -1  
$EndComp
$Comp
L power:VDD #PWR091
U 1 1 5E1ABF77
P 7875 6200
F 0 "#PWR091" H 7875 6050 50  0001 C CNN
F 1 "VDD" H 7893 6373 50  0000 C CNN
F 2 "" H 7875 6200 50  0001 C CNN
F 3 "" H 7875 6200 50  0001 C CNN
	1    7875 6200
	-1   0    0    1   
$EndComp
Wire Wire Line
	7875 4950 7875 5025
Wire Wire Line
	7875 5325 7875 5600
Wire Wire Line
	7875 6125 7875 6200
Wire Wire Line
	7700 5850 7700 5600
Wire Wire Line
	7700 5600 7875 5600
Connection ~ 7875 5600
Wire Wire Line
	7875 5600 7875 5825
$Comp
L Device:CP C59
U 1 1 5E1ABF88
P 8275 3475
F 0 "C59" V 8350 3550 50  0000 L CNN
F 1 "4700uF/16V" V 8200 2925 50  0000 L CNN
F 2 "Capacitors_ThroughHole:CP_Radial_D18.0mm_P7.50mm" H 8313 3325 50  0001 C CNN
F 3 "~" H 8275 3475 50  0001 C CNN
	1    8275 3475
	1    0    0    -1  
$EndComp
$Comp
L Device:CP C60
U 1 1 5E1ABF92
P 8275 4275
F 0 "C60" V 8350 4100 50  0000 L CNN
F 1 "4700uF/16V" V 8350 4325 50  0000 L CNN
F 2 "Capacitors_ThroughHole:CP_Radial_D18.0mm_P7.50mm" H 8313 4125 50  0001 C CNN
F 3 "~" H 8275 4275 50  0001 C CNN
	1    8275 4275
	1    0    0    -1  
$EndComp
$Comp
L power:GND #PWR092
U 1 1 5E1ABF9C
P 8100 4150
F 0 "#PWR092" H 8100 3900 50  0001 C CNN
F 1 "GND" H 8105 3977 50  0000 C CNN
F 2 "" H 8100 4150 50  0001 C CNN
F 3 "" H 8100 4150 50  0001 C CNN
	1    8100 4150
	-1   0    0    -1  
$EndComp
$Comp
L power:VCC #PWR094
U 1 1 5E1ABFA6
P 8275 3250
F 0 "#PWR094" H 8275 3100 50  0001 C CNN
F 1 "VCC" H 8292 3423 50  0000 C CNN
F 2 "" H 8275 3250 50  0001 C CNN
F 3 "" H 8275 3250 50  0001 C CNN
	1    8275 3250
	1    0    0    -1  
$EndComp
$Comp
L power:VDD #PWR095
U 1 1 5E1ABFB0
P 8275 4500
F 0 "#PWR095" H 8275 4350 50  0001 C CNN
F 1 "VDD" H 8293 4673 50  0000 C CNN
F 2 "" H 8275 4500 50  0001 C CNN
F 3 "" H 8275 4500 50  0001 C CNN
	1    8275 4500
	-1   0    0    1   
$EndComp
Wire Wire Line
	8275 3250 8275 3325
Wire Wire Line
	8275 3625 8275 3900
Wire Wire Line
	8275 4425 8275 4500
Wire Wire Line
	8100 4150 8100 3900
Wire Wire Line
	8100 3900 8275 3900
Connection ~ 8275 3900
Wire Wire Line
	8275 3900 8275 4125
$Comp
L Device:CP C61
U 1 1 5E1ABFC1
P 8275 5175
F 0 "C61" V 8350 5250 50  0000 L CNN
F 1 "4700uF/16V" V 8200 4625 50  0000 L CNN
F 2 "Capacitors_ThroughHole:CP_Radial_D18.0mm_P7.50mm" H 8313 5025 50  0001 C CNN
F 3 "~" H 8275 5175 50  0001 C CNN
	1    8275 5175
	1    0    0    -1  
$EndComp
$Comp
L Device:CP C62
U 1 1 5E1ABFCB
P 8275 5975
F 0 "C62" V 8350 5800 50  0000 L CNN
F 1 "4700uF/16V" V 8350 6025 50  0000 L CNN
F 2 "Capacitors_ThroughHole:CP_Radial_D18.0mm_P7.50mm" H 8313 5825 50  0001 C CNN
F 3 "~" H 8275 5975 50  0001 C CNN
	1    8275 5975
	1    0    0    -1  
$EndComp
$Comp
L power:GND #PWR093
U 1 1 5E1ABFD5
P 8100 5850
F 0 "#PWR093" H 8100 5600 50  0001 C CNN
F 1 "GND" H 8105 5677 50  0000 C CNN
F 2 "" H 8100 5850 50  0001 C CNN
F 3 "" H 8100 5850 50  0001 C CNN
	1    8100 5850
	-1   0    0    -1  
$EndComp
$Comp
L power:VCC #PWR096
U 1 1 5E1ABFDF
P 8275 4950
F 0 "#PWR096" H 8275 4800 50  0001 C CNN
F 1 "VCC" H 8292 5123 50  0000 C CNN
F 2 "" H 8275 4950 50  0001 C CNN
F 3 "" H 8275 4950 50  0001 C CNN
	1    8275 4950
	1    0    0    -1  
$EndComp
$Comp
L power:VDD #PWR097
U 1 1 5E1ABFE9
P 8275 6200
F 0 "#PWR097" H 8275 6050 50  0001 C CNN
F 1 "VDD" H 8293 6373 50  0000 C CNN
F 2 "" H 8275 6200 50  0001 C CNN
F 3 "" H 8275 6200 50  0001 C CNN
	1    8275 6200
	-1   0    0    1   
$EndComp
Wire Wire Line
	8275 4950 8275 5025
Wire Wire Line
	8275 5325 8275 5600
Wire Wire Line
	8275 6125 8275 6200
Wire Wire Line
	8100 5850 8100 5600
Wire Wire Line
	8100 5600 8275 5600
Connection ~ 8275 5600
Wire Wire Line
	8275 5600 8275 5825
$Comp
L Device:CP C63
U 1 1 5E1ABFFA
P 8675 3475
F 0 "C63" V 8750 3550 50  0000 L CNN
F 1 "4700uF/16V" V 8600 2925 50  0000 L CNN
F 2 "Capacitors_ThroughHole:CP_Radial_D18.0mm_P7.50mm" H 8713 3325 50  0001 C CNN
F 3 "~" H 8675 3475 50  0001 C CNN
	1    8675 3475
	1    0    0    -1  
$EndComp
$Comp
L Device:CP C64
U 1 1 5E1AC004
P 8675 4275
F 0 "C64" V 8750 4100 50  0000 L CNN
F 1 "4700uF/16V" V 8750 4325 50  0000 L CNN
F 2 "Capacitors_ThroughHole:CP_Radial_D18.0mm_P7.50mm" H 8713 4125 50  0001 C CNN
F 3 "~" H 8675 4275 50  0001 C CNN
	1    8675 4275
	1    0    0    -1  
$EndComp
$Comp
L power:GND #PWR098
U 1 1 5E1AC00E
P 8500 4150
F 0 "#PWR098" H 8500 3900 50  0001 C CNN
F 1 "GND" H 8505 3977 50  0000 C CNN
F 2 "" H 8500 4150 50  0001 C CNN
F 3 "" H 8500 4150 50  0001 C CNN
	1    8500 4150
	-1   0    0    -1  
$EndComp
$Comp
L power:VCC #PWR0100
U 1 1 5E1AC018
P 8675 3250
F 0 "#PWR0100" H 8675 3100 50  0001 C CNN
F 1 "VCC" H 8692 3423 50  0000 C CNN
F 2 "" H 8675 3250 50  0001 C CNN
F 3 "" H 8675 3250 50  0001 C CNN
	1    8675 3250
	1    0    0    -1  
$EndComp
$Comp
L power:VDD #PWR0101
U 1 1 5E1AC022
P 8675 4500
F 0 "#PWR0101" H 8675 4350 50  0001 C CNN
F 1 "VDD" H 8693 4673 50  0000 C CNN
F 2 "" H 8675 4500 50  0001 C CNN
F 3 "" H 8675 4500 50  0001 C CNN
	1    8675 4500
	-1   0    0    1   
$EndComp
Wire Wire Line
	8675 3250 8675 3325
Wire Wire Line
	8675 3625 8675 3900
Wire Wire Line
	8675 4425 8675 4500
Wire Wire Line
	8500 4150 8500 3900
Wire Wire Line
	8500 3900 8675 3900
Connection ~ 8675 3900
Wire Wire Line
	8675 3900 8675 4125
$Comp
L Device:CP C65
U 1 1 5E1AC033
P 8675 5175
F 0 "C65" V 8750 5250 50  0000 L CNN
F 1 "4700uF/16V" V 8600 4625 50  0000 L CNN
F 2 "Capacitors_ThroughHole:CP_Radial_D18.0mm_P7.50mm" H 8713 5025 50  0001 C CNN
F 3 "~" H 8675 5175 50  0001 C CNN
	1    8675 5175
	1    0    0    -1  
$EndComp
$Comp
L Device:CP C66
U 1 1 5E1AC03D
P 8675 5975
F 0 "C66" V 8750 5800 50  0000 L CNN
F 1 "4700uF/16V" V 8750 6025 50  0000 L CNN
F 2 "Capacitors_ThroughHole:CP_Radial_D18.0mm_P7.50mm" H 8713 5825 50  0001 C CNN
F 3 "~" H 8675 5975 50  0001 C CNN
	1    8675 5975
	1    0    0    -1  
$EndComp
$Comp
L power:GND #PWR099
U 1 1 5E1AC047
P 8500 5850
F 0 "#PWR099" H 8500 5600 50  0001 C CNN
F 1 "GND" H 8505 5677 50  0000 C CNN
F 2 "" H 8500 5850 50  0001 C CNN
F 3 "" H 8500 5850 50  0001 C CNN
	1    8500 5850
	-1   0    0    -1  
$EndComp
$Comp
L power:VCC #PWR0102
U 1 1 5E1AC051
P 8675 4950
F 0 "#PWR0102" H 8675 4800 50  0001 C CNN
F 1 "VCC" H 8692 5123 50  0000 C CNN
F 2 "" H 8675 4950 50  0001 C CNN
F 3 "" H 8675 4950 50  0001 C CNN
	1    8675 4950
	1    0    0    -1  
$EndComp
$Comp
L power:VDD #PWR0103
U 1 1 5E1AC05B
P 8675 6200
F 0 "#PWR0103" H 8675 6050 50  0001 C CNN
F 1 "VDD" H 8693 6373 50  0000 C CNN
F 2 "" H 8675 6200 50  0001 C CNN
F 3 "" H 8675 6200 50  0001 C CNN
	1    8675 6200
	-1   0    0    1   
$EndComp
Wire Wire Line
	8675 4950 8675 5025
Wire Wire Line
	8675 5325 8675 5600
Wire Wire Line
	8675 6125 8675 6200
Wire Wire Line
	8500 5850 8500 5600
Wire Wire Line
	8500 5600 8675 5600
Connection ~ 8675 5600
Wire Wire Line
	8675 5600 8675 5825
$Comp
L Device:CP C67
U 1 1 5E1AC06C
P 9075 3475
F 0 "C67" V 9150 3550 50  0000 L CNN
F 1 "4700uF/16V" V 9000 2925 50  0000 L CNN
F 2 "Capacitors_ThroughHole:CP_Radial_D18.0mm_P7.50mm" H 9113 3325 50  0001 C CNN
F 3 "~" H 9075 3475 50  0001 C CNN
	1    9075 3475
	1    0    0    -1  
$EndComp
$Comp
L Device:CP C68
U 1 1 5E1AC076
P 9075 4275
F 0 "C68" V 9150 4100 50  0000 L CNN
F 1 "4700uF/16V" V 9150 4325 50  0000 L CNN
F 2 "Capacitors_ThroughHole:CP_Radial_D18.0mm_P7.50mm" H 9113 4125 50  0001 C CNN
F 3 "~" H 9075 4275 50  0001 C CNN
	1    9075 4275
	1    0    0    -1  
$EndComp
$Comp
L power:GND #PWR0104
U 1 1 5E1AC080
P 8900 4150
F 0 "#PWR0104" H 8900 3900 50  0001 C CNN
F 1 "GND" H 8905 3977 50  0000 C CNN
F 2 "" H 8900 4150 50  0001 C CNN
F 3 "" H 8900 4150 50  0001 C CNN
	1    8900 4150
	-1   0    0    -1  
$EndComp
$Comp
L power:VCC #PWR0106
U 1 1 5E1AC08A
P 9075 3250
F 0 "#PWR0106" H 9075 3100 50  0001 C CNN
F 1 "VCC" H 9092 3423 50  0000 C CNN
F 2 "" H 9075 3250 50  0001 C CNN
F 3 "" H 9075 3250 50  0001 C CNN
	1    9075 3250
	1    0    0    -1  
$EndComp
$Comp
L power:VDD #PWR0107
U 1 1 5E1AC094
P 9075 4500
F 0 "#PWR0107" H 9075 4350 50  0001 C CNN
F 1 "VDD" H 9093 4673 50  0000 C CNN
F 2 "" H 9075 4500 50  0001 C CNN
F 3 "" H 9075 4500 50  0001 C CNN
	1    9075 4500
	-1   0    0    1   
$EndComp
Wire Wire Line
	9075 3250 9075 3325
Wire Wire Line
	9075 3625 9075 3900
Wire Wire Line
	9075 4425 9075 4500
Wire Wire Line
	8900 4150 8900 3900
Wire Wire Line
	8900 3900 9075 3900
Connection ~ 9075 3900
Wire Wire Line
	9075 3900 9075 4125
$Comp
L Device:CP C69
U 1 1 5E1AC0A5
P 9075 5175
F 0 "C69" V 9150 5250 50  0000 L CNN
F 1 "4700uF/16V" V 9000 4625 50  0000 L CNN
F 2 "Capacitors_ThroughHole:CP_Radial_D18.0mm_P7.50mm" H 9113 5025 50  0001 C CNN
F 3 "~" H 9075 5175 50  0001 C CNN
	1    9075 5175
	1    0    0    -1  
$EndComp
$Comp
L Device:CP C70
U 1 1 5E1AC0AF
P 9075 5975
F 0 "C70" V 9150 5800 50  0000 L CNN
F 1 "4700uF/16V" V 9150 6025 50  0000 L CNN
F 2 "Capacitors_ThroughHole:CP_Radial_D18.0mm_P7.50mm" H 9113 5825 50  0001 C CNN
F 3 "~" H 9075 5975 50  0001 C CNN
	1    9075 5975
	1    0    0    -1  
$EndComp
$Comp
L power:GND #PWR0105
U 1 1 5E1AC0B9
P 8900 5850
F 0 "#PWR0105" H 8900 5600 50  0001 C CNN
F 1 "GND" H 8905 5677 50  0000 C CNN
F 2 "" H 8900 5850 50  0001 C CNN
F 3 "" H 8900 5850 50  0001 C CNN
	1    8900 5850
	-1   0    0    -1  
$EndComp
$Comp
L power:VCC #PWR0108
U 1 1 5E1AC0C3
P 9075 4950
F 0 "#PWR0108" H 9075 4800 50  0001 C CNN
F 1 "VCC" H 9092 5123 50  0000 C CNN
F 2 "" H 9075 4950 50  0001 C CNN
F 3 "" H 9075 4950 50  0001 C CNN
	1    9075 4950
	1    0    0    -1  
$EndComp
$Comp
L power:VDD #PWR0109
U 1 1 5E1AC0CD
P 9075 6200
F 0 "#PWR0109" H 9075 6050 50  0001 C CNN
F 1 "VDD" H 9093 6373 50  0000 C CNN
F 2 "" H 9075 6200 50  0001 C CNN
F 3 "" H 9075 6200 50  0001 C CNN
	1    9075 6200
	-1   0    0    1   
$EndComp
Wire Wire Line
	9075 4950 9075 5025
Wire Wire Line
	9075 5325 9075 5600
Wire Wire Line
	9075 6125 9075 6200
Wire Wire Line
	8900 5850 8900 5600
Wire Wire Line
	8900 5600 9075 5600
Connection ~ 9075 5600
Wire Wire Line
	9075 5600 9075 5825
$Comp
L Device:CP C71
U 1 1 5E1AC0DE
P 9475 3475
F 0 "C71" V 9550 3550 50  0000 L CNN
F 1 "4700uF/16V" V 9400 2925 50  0000 L CNN
F 2 "Capacitors_ThroughHole:CP_Radial_D18.0mm_P7.50mm" H 9513 3325 50  0001 C CNN
F 3 "~" H 9475 3475 50  0001 C CNN
	1    9475 3475
	1    0    0    -1  
$EndComp
$Comp
L Device:CP C72
U 1 1 5E1AC0E8
P 9475 4275
F 0 "C72" V 9550 4100 50  0000 L CNN
F 1 "4700uF/16V" V 9550 4325 50  0000 L CNN
F 2 "Capacitors_ThroughHole:CP_Radial_D18.0mm_P7.50mm" H 9513 4125 50  0001 C CNN
F 3 "~" H 9475 4275 50  0001 C CNN
	1    9475 4275
	1    0    0    -1  
$EndComp
$Comp
L power:GND #PWR0110
U 1 1 5E1AC0F2
P 9300 4150
F 0 "#PWR0110" H 9300 3900 50  0001 C CNN
F 1 "GND" H 9305 3977 50  0000 C CNN
F 2 "" H 9300 4150 50  0001 C CNN
F 3 "" H 9300 4150 50  0001 C CNN
	1    9300 4150
	-1   0    0    -1  
$EndComp
$Comp
L power:VCC #PWR0112
U 1 1 5E1AC0FC
P 9475 3250
F 0 "#PWR0112" H 9475 3100 50  0001 C CNN
F 1 "VCC" H 9492 3423 50  0000 C CNN
F 2 "" H 9475 3250 50  0001 C CNN
F 3 "" H 9475 3250 50  0001 C CNN
	1    9475 3250
	1    0    0    -1  
$EndComp
$Comp
L power:VDD #PWR0113
U 1 1 5E1AC106
P 9475 4500
F 0 "#PWR0113" H 9475 4350 50  0001 C CNN
F 1 "VDD" H 9493 4673 50  0000 C CNN
F 2 "" H 9475 4500 50  0001 C CNN
F 3 "" H 9475 4500 50  0001 C CNN
	1    9475 4500
	-1   0    0    1   
$EndComp
Wire Wire Line
	9475 3250 9475 3325
Wire Wire Line
	9475 3625 9475 3900
Wire Wire Line
	9475 4425 9475 4500
Wire Wire Line
	9300 4150 9300 3900
Wire Wire Line
	9300 3900 9475 3900
Connection ~ 9475 3900
Wire Wire Line
	9475 3900 9475 4125
$Comp
L Device:CP C73
U 1 1 5E1AC117
P 9475 5175
F 0 "C73" V 9550 5250 50  0000 L CNN
F 1 "4700uF/16V" V 9400 4625 50  0000 L CNN
F 2 "Capacitors_ThroughHole:CP_Radial_D18.0mm_P7.50mm" H 9513 5025 50  0001 C CNN
F 3 "~" H 9475 5175 50  0001 C CNN
	1    9475 5175
	1    0    0    -1  
$EndComp
$Comp
L Device:CP C74
U 1 1 5E1AC121
P 9475 5975
F 0 "C74" V 9550 5800 50  0000 L CNN
F 1 "4700uF/16V" V 9550 6025 50  0000 L CNN
F 2 "Capacitors_ThroughHole:CP_Radial_D18.0mm_P7.50mm" H 9513 5825 50  0001 C CNN
F 3 "~" H 9475 5975 50  0001 C CNN
	1    9475 5975
	1    0    0    -1  
$EndComp
$Comp
L power:GND #PWR0111
U 1 1 5E1AC12B
P 9300 5850
F 0 "#PWR0111" H 9300 5600 50  0001 C CNN
F 1 "GND" H 9305 5677 50  0000 C CNN
F 2 "" H 9300 5850 50  0001 C CNN
F 3 "" H 9300 5850 50  0001 C CNN
	1    9300 5850
	-1   0    0    -1  
$EndComp
$Comp
L power:VCC #PWR0114
U 1 1 5E1AC135
P 9475 4950
F 0 "#PWR0114" H 9475 4800 50  0001 C CNN
F 1 "VCC" H 9492 5123 50  0000 C CNN
F 2 "" H 9475 4950 50  0001 C CNN
F 3 "" H 9475 4950 50  0001 C CNN
	1    9475 4950
	1    0    0    -1  
$EndComp
$Comp
L power:VDD #PWR0115
U 1 1 5E1AC13F
P 9475 6200
F 0 "#PWR0115" H 9475 6050 50  0001 C CNN
F 1 "VDD" H 9493 6373 50  0000 C CNN
F 2 "" H 9475 6200 50  0001 C CNN
F 3 "" H 9475 6200 50  0001 C CNN
	1    9475 6200
	-1   0    0    1   
$EndComp
Wire Wire Line
	9475 4950 9475 5025
Wire Wire Line
	9475 5325 9475 5600
Wire Wire Line
	9475 6125 9475 6200
Wire Wire Line
	9300 5850 9300 5600
Wire Wire Line
	9300 5600 9475 5600
Connection ~ 9475 5600
Wire Wire Line
	9475 5600 9475 5825
$Comp
L Device:CP C75
U 1 1 5E1AC150
P 9875 3475
F 0 "C75" V 9950 3550 50  0000 L CNN
F 1 "4700uF/16V" V 9800 2925 50  0000 L CNN
F 2 "Capacitors_ThroughHole:CP_Radial_D18.0mm_P7.50mm" H 9913 3325 50  0001 C CNN
F 3 "~" H 9875 3475 50  0001 C CNN
	1    9875 3475
	1    0    0    -1  
$EndComp
$Comp
L Device:CP C76
U 1 1 5E1AC15A
P 9875 4275
F 0 "C76" V 9950 4100 50  0000 L CNN
F 1 "4700uF/16V" V 9950 4325 50  0000 L CNN
F 2 "Capacitors_ThroughHole:CP_Radial_D18.0mm_P7.50mm" H 9913 4125 50  0001 C CNN
F 3 "~" H 9875 4275 50  0001 C CNN
	1    9875 4275
	1    0    0    -1  
$EndComp
$Comp
L power:GND #PWR0116
U 1 1 5E1AC164
P 9700 4150
F 0 "#PWR0116" H 9700 3900 50  0001 C CNN
F 1 "GND" H 9705 3977 50  0000 C CNN
F 2 "" H 9700 4150 50  0001 C CNN
F 3 "" H 9700 4150 50  0001 C CNN
	1    9700 4150
	-1   0    0    -1  
$EndComp
$Comp
L power:VCC #PWR0118
U 1 1 5E1AC16E
P 9875 3250
F 0 "#PWR0118" H 9875 3100 50  0001 C CNN
F 1 "VCC" H 9892 3423 50  0000 C CNN
F 2 "" H 9875 3250 50  0001 C CNN
F 3 "" H 9875 3250 50  0001 C CNN
	1    9875 3250
	1    0    0    -1  
$EndComp
$Comp
L power:VDD #PWR0119
U 1 1 5E1AC178
P 9875 4500
F 0 "#PWR0119" H 9875 4350 50  0001 C CNN
F 1 "VDD" H 9893 4673 50  0000 C CNN
F 2 "" H 9875 4500 50  0001 C CNN
F 3 "" H 9875 4500 50  0001 C CNN
	1    9875 4500
	-1   0    0    1   
$EndComp
Wire Wire Line
	9875 3250 9875 3325
Wire Wire Line
	9875 3625 9875 3900
Wire Wire Line
	9875 4425 9875 4500
Wire Wire Line
	9700 4150 9700 3900
Wire Wire Line
	9700 3900 9875 3900
Connection ~ 9875 3900
Wire Wire Line
	9875 3900 9875 4125
$Comp
L Device:CP C77
U 1 1 5E1AC189
P 9875 5175
F 0 "C77" V 9950 5250 50  0000 L CNN
F 1 "4700uF/16V" V 9800 4625 50  0000 L CNN
F 2 "Capacitors_ThroughHole:CP_Radial_D18.0mm_P7.50mm" H 9913 5025 50  0001 C CNN
F 3 "~" H 9875 5175 50  0001 C CNN
	1    9875 5175
	1    0    0    -1  
$EndComp
$Comp
L Device:CP C78
U 1 1 5E1AC193
P 9875 5975
F 0 "C78" V 9950 5800 50  0000 L CNN
F 1 "4700uF/16V" V 9950 6025 50  0000 L CNN
F 2 "Capacitors_ThroughHole:CP_Radial_D18.0mm_P7.50mm" H 9913 5825 50  0001 C CNN
F 3 "~" H 9875 5975 50  0001 C CNN
	1    9875 5975
	1    0    0    -1  
$EndComp
$Comp
L power:GND #PWR0117
U 1 1 5E1AC19D
P 9700 5850
F 0 "#PWR0117" H 9700 5600 50  0001 C CNN
F 1 "GND" H 9705 5677 50  0000 C CNN
F 2 "" H 9700 5850 50  0001 C CNN
F 3 "" H 9700 5850 50  0001 C CNN
	1    9700 5850
	-1   0    0    -1  
$EndComp
$Comp
L power:VCC #PWR0120
U 1 1 5E1AC1A7
P 9875 4950
F 0 "#PWR0120" H 9875 4800 50  0001 C CNN
F 1 "VCC" H 9892 5123 50  0000 C CNN
F 2 "" H 9875 4950 50  0001 C CNN
F 3 "" H 9875 4950 50  0001 C CNN
	1    9875 4950
	1    0    0    -1  
$EndComp
$Comp
L power:VDD #PWR0121
U 1 1 5E1AC1B1
P 9875 6200
F 0 "#PWR0121" H 9875 6050 50  0001 C CNN
F 1 "VDD" H 9893 6373 50  0000 C CNN
F 2 "" H 9875 6200 50  0001 C CNN
F 3 "" H 9875 6200 50  0001 C CNN
	1    9875 6200
	-1   0    0    1   
$EndComp
Wire Wire Line
	9875 4950 9875 5025
Wire Wire Line
	9875 5325 9875 5600
Wire Wire Line
	9875 6125 9875 6200
Wire Wire Line
	9700 5850 9700 5600
Wire Wire Line
	9700 5600 9875 5600
Connection ~ 9875 5600
Wire Wire Line
	9875 5600 9875 5825
$Comp
L Device:CP C79
U 1 1 5E1AC1C2
P 10275 3475
F 0 "C79" V 10350 3550 50  0000 L CNN
F 1 "4700uF/16V" V 10200 2925 50  0000 L CNN
F 2 "Capacitors_ThroughHole:CP_Radial_D18.0mm_P7.50mm" H 10313 3325 50  0001 C CNN
F 3 "~" H 10275 3475 50  0001 C CNN
	1    10275 3475
	1    0    0    -1  
$EndComp
$Comp
L Device:CP C80
U 1 1 5E1AC1CC
P 10275 4275
F 0 "C80" V 10350 4100 50  0000 L CNN
F 1 "4700uF/16V" V 10350 4325 50  0000 L CNN
F 2 "Capacitors_ThroughHole:CP_Radial_D18.0mm_P7.50mm" H 10313 4125 50  0001 C CNN
F 3 "~" H 10275 4275 50  0001 C CNN
	1    10275 4275
	1    0    0    -1  
$EndComp
$Comp
L power:GND #PWR0122
U 1 1 5E1AC1D6
P 10100 4150
F 0 "#PWR0122" H 10100 3900 50  0001 C CNN
F 1 "GND" H 10105 3977 50  0000 C CNN
F 2 "" H 10100 4150 50  0001 C CNN
F 3 "" H 10100 4150 50  0001 C CNN
	1    10100 4150
	-1   0    0    -1  
$EndComp
$Comp
L power:VCC #PWR0124
U 1 1 5E1AC1E0
P 10275 3250
F 0 "#PWR0124" H 10275 3100 50  0001 C CNN
F 1 "VCC" H 10292 3423 50  0000 C CNN
F 2 "" H 10275 3250 50  0001 C CNN
F 3 "" H 10275 3250 50  0001 C CNN
	1    10275 3250
	1    0    0    -1  
$EndComp
$Comp
L power:VDD #PWR0125
U 1 1 5E1AC1EA
P 10275 4500
F 0 "#PWR0125" H 10275 4350 50  0001 C CNN
F 1 "VDD" H 10293 4673 50  0000 C CNN
F 2 "" H 10275 4500 50  0001 C CNN
F 3 "" H 10275 4500 50  0001 C CNN
	1    10275 4500
	-1   0    0    1   
$EndComp
Wire Wire Line
	10275 3250 10275 3325
Wire Wire Line
	10275 3625 10275 3900
Wire Wire Line
	10275 4425 10275 4500
Wire Wire Line
	10100 4150 10100 3900
Wire Wire Line
	10100 3900 10275 3900
Connection ~ 10275 3900
Wire Wire Line
	10275 3900 10275 4125
$Comp
L Device:CP C81
U 1 1 5E1AC1FB
P 10275 5175
F 0 "C81" V 10350 5250 50  0000 L CNN
F 1 "4700uF/16V" V 10200 4625 50  0000 L CNN
F 2 "Capacitors_ThroughHole:CP_Radial_D18.0mm_P7.50mm" H 10313 5025 50  0001 C CNN
F 3 "~" H 10275 5175 50  0001 C CNN
	1    10275 5175
	1    0    0    -1  
$EndComp
$Comp
L Device:CP C82
U 1 1 5E1AC205
P 10275 5975
F 0 "C82" V 10350 5800 50  0000 L CNN
F 1 "4700uF/16V" V 10350 6025 50  0000 L CNN
F 2 "Capacitors_ThroughHole:CP_Radial_D18.0mm_P7.50mm" H 10313 5825 50  0001 C CNN
F 3 "~" H 10275 5975 50  0001 C CNN
	1    10275 5975
	1    0    0    -1  
$EndComp
$Comp
L power:GND #PWR0123
U 1 1 5E1AC20F
P 10100 5850
F 0 "#PWR0123" H 10100 5600 50  0001 C CNN
F 1 "GND" H 10105 5677 50  0000 C CNN
F 2 "" H 10100 5850 50  0001 C CNN
F 3 "" H 10100 5850 50  0001 C CNN
	1    10100 5850
	-1   0    0    -1  
$EndComp
$Comp
L power:VCC #PWR0126
U 1 1 5E1AC219
P 10275 4950
F 0 "#PWR0126" H 10275 4800 50  0001 C CNN
F 1 "VCC" H 10292 5123 50  0000 C CNN
F 2 "" H 10275 4950 50  0001 C CNN
F 3 "" H 10275 4950 50  0001 C CNN
	1    10275 4950
	1    0    0    -1  
$EndComp
$Comp
L power:VDD #PWR0127
U 1 1 5E1AC223
P 10275 6200
F 0 "#PWR0127" H 10275 6050 50  0001 C CNN
F 1 "VDD" H 10293 6373 50  0000 C CNN
F 2 "" H 10275 6200 50  0001 C CNN
F 3 "" H 10275 6200 50  0001 C CNN
	1    10275 6200
	-1   0    0    1   
$EndComp
Wire Wire Line
	10275 4950 10275 5025
Wire Wire Line
	10275 5325 10275 5600
Wire Wire Line
	10275 6125 10275 6200
Wire Wire Line
	10100 5850 10100 5600
Wire Wire Line
	10100 5600 10275 5600
Connection ~ 10275 5600
Wire Wire Line
	10275 5600 10275 5825
$Comp
L conn:Conn_01x03 J4
U 1 1 5E21A440
P 5075 7125
F 0 "J4" H 5155 7167 50  0000 L CNN
F 1 "OUT_L" H 5155 7076 50  0000 L CNN
F 2 "Connector_Phoenix_GMSTB:PhoenixContact_GMSTBVA_2,5_3-G_1x03_P7.50mm_Vertical" H 5075 7125 50  0001 C CNN
F 3 "~" H 5075 7125 50  0001 C CNN
	1    5075 7125
	1    0    0    -1  
$EndComp
$Comp
L power:VCC #PWR0129
U 1 1 5E21D1A9
P 4800 6975
F 0 "#PWR0129" H 4800 6825 50  0001 C CNN
F 1 "VCC" H 4817 7148 50  0000 C CNN
F 2 "" H 4800 6975 50  0001 C CNN
F 3 "" H 4800 6975 50  0001 C CNN
	1    4800 6975
	1    0    0    -1  
$EndComp
$Comp
L power:VDD #PWR0130
U 1 1 5E21E3F9
P 4800 7275
F 0 "#PWR0130" H 4800 7125 50  0001 C CNN
F 1 "VDD" H 4818 7448 50  0000 C CNN
F 2 "" H 4800 7275 50  0001 C CNN
F 3 "" H 4800 7275 50  0001 C CNN
	1    4800 7275
	-1   0    0    1   
$EndComp
$Comp
L power:GND #PWR0128
U 1 1 5E21F84D
P 4600 7275
F 0 "#PWR0128" H 4600 7025 50  0001 C CNN
F 1 "GND" H 4605 7102 50  0000 C CNN
F 2 "" H 4600 7275 50  0001 C CNN
F 3 "" H 4600 7275 50  0001 C CNN
	1    4600 7275
	-1   0    0    -1  
$EndComp
Wire Wire Line
	4875 7225 4800 7225
Wire Wire Line
	4800 7225 4800 7275
Wire Wire Line
	4875 7125 4600 7125
Wire Wire Line
	4600 7125 4600 7275
Wire Wire Line
	4875 7025 4800 7025
Wire Wire Line
	4800 7025 4800 6975
$Comp
L conn:Conn_01x03 J5
U 1 1 5E266A24
P 6150 7125
F 0 "J5" H 6230 7167 50  0000 L CNN
F 1 "OUT_R" H 6230 7076 50  0000 L CNN
F 2 "Connector_Phoenix_GMSTB:PhoenixContact_GMSTBVA_2,5_3-G_1x03_P7.50mm_Vertical" H 6150 7125 50  0001 C CNN
F 3 "~" H 6150 7125 50  0001 C CNN
	1    6150 7125
	1    0    0    -1  
$EndComp
$Comp
L power:VCC #PWR0132
U 1 1 5E266A2E
P 5875 6975
F 0 "#PWR0132" H 5875 6825 50  0001 C CNN
F 1 "VCC" H 5892 7148 50  0000 C CNN
F 2 "" H 5875 6975 50  0001 C CNN
F 3 "" H 5875 6975 50  0001 C CNN
	1    5875 6975
	1    0    0    -1  
$EndComp
$Comp
L power:VDD #PWR0133
U 1 1 5E266A38
P 5875 7275
F 0 "#PWR0133" H 5875 7125 50  0001 C CNN
F 1 "VDD" H 5893 7448 50  0000 C CNN
F 2 "" H 5875 7275 50  0001 C CNN
F 3 "" H 5875 7275 50  0001 C CNN
	1    5875 7275
	-1   0    0    1   
$EndComp
$Comp
L power:GND #PWR0131
U 1 1 5E266A42
P 5675 7275
F 0 "#PWR0131" H 5675 7025 50  0001 C CNN
F 1 "GND" H 5680 7102 50  0000 C CNN
F 2 "" H 5675 7275 50  0001 C CNN
F 3 "" H 5675 7275 50  0001 C CNN
	1    5675 7275
	-1   0    0    -1  
$EndComp
Wire Wire Line
	5950 7225 5875 7225
Wire Wire Line
	5875 7225 5875 7275
Wire Wire Line
	5950 7125 5675 7125
Wire Wire Line
	5675 7125 5675 7275
Wire Wire Line
	5950 7025 5875 7025
Wire Wire Line
	5875 7025 5875 6975
Text GLabel 1025 1850 2    50   Input ~ 0
AC3
Text GLabel 1025 1950 2    50   Input ~ 0
AC4
Wire Wire Line
	1025 1850 950  1850
Wire Wire Line
	1025 1950 950  1950
Text GLabel 3375 1325 2    50   Input ~ 0
1TG1
Wire Wire Line
	3300 2425 3375 2425
Wire Wire Line
	3300 1575 3375 1575
Text GLabel 3375 1900 2    50   Input ~ 0
1TG2
Text GLabel 3375 2750 2    50   Input ~ 0
1TG2
Text GLabel 3375 2425 2    50   Input ~ 0
AC4
Wire Wire Line
	3300 1000 3375 1000
Wire Wire Line
	2900 2425 2800 2425
Wire Wire Line
	2800 2425 2800 1575
Wire Wire Line
	2900 1575 2800 1575
Wire Wire Line
	3375 1325 3100 1325
Wire Wire Line
	3100 1325 3100 1300
Wire Wire Line
	3375 1900 3100 1900
Wire Wire Line
	3100 1900 3100 1875
Wire Wire Line
	3375 2750 3100 2750
Wire Wire Line
	3100 2750 3100 2725
Connection ~ 2800 1575
Wire Wire Line
	2800 1575 2800 1000
Connection ~ 2800 1000
Wire Wire Line
	2900 1000 2800 1000
Wire Wire Line
	2800 925  2800 1000
$Comp
L Device:Q_NMOS_GDS Q10
U 1 1 5E833AC8
P 6650 2525
F 0 "Q10" V 6600 2700 50  0000 C CNN
F 1 "SUM110N04-04" V 6900 2550 50  0000 C CNN
F 2 "TO_SOT_Packages_SMD:TO-263-2" H 6850 2625 50  0001 C CNN
F 3 "~" H 6650 2525 50  0001 C CNN
	1    6650 2525
	0    -1   -1   0   
$EndComp
$Comp
L Device:Q_NMOS_GDS Q9
U 1 1 5E833AD2
P 6650 1675
F 0 "Q9" V 6600 1825 50  0000 C CNN
F 1 "SUM110N04-04" V 6875 1700 50  0000 C CNN
F 2 "TO_SOT_Packages_SMD:TO-263-2" H 6850 1775 50  0001 C CNN
F 3 "~" H 6650 1675 50  0001 C CNN
	1    6650 1675
	0    -1   -1   0   
$EndComp
$Comp
L Device:Q_NMOS_GDS Q8
U 1 1 5E833ADC
P 6650 1100
F 0 "Q8" V 6600 1250 50  0000 C CNN
F 1 "SUM110N04-04" V 6900 1150 50  0000 C CNN
F 2 "TO_SOT_Packages_SMD:TO-263-2" H 6850 1200 50  0001 C CNN
F 3 "~" H 6650 1100 50  0001 C CNN
	1    6650 1100
	0    -1   -1   0   
$EndComp
Text GLabel 6375 2425 0    50   Input ~ 0
AC1
Text GLabel 6375 1575 0    50   Input ~ 0
AC4
Text GLabel 6375 2750 0    50   Input ~ 0
1BG2
Wire Wire Line
	6450 2425 6375 2425
Wire Wire Line
	6450 1575 6375 1575
Text GLabel 6125 1900 0    50   Input ~ 0
2BG1
Text GLabel 6375 1325 0    50   Input ~ 0
2BG2
Text GLabel 6375 1000 0    50   Input ~ 0
AC3
Wire Wire Line
	6450 1000 6375 1000
Wire Wire Line
	6850 2425 6950 2425
Wire Wire Line
	6950 2425 6950 1575
Wire Wire Line
	6850 1575 6950 1575
Wire Wire Line
	6375 1325 6650 1325
Wire Wire Line
	6650 1325 6650 1300
Wire Wire Line
	6650 1900 6650 1875
Wire Wire Line
	6375 2750 6650 2750
Wire Wire Line
	6650 2750 6650 2725
Connection ~ 6950 1575
Wire Wire Line
	6950 1575 6950 1000
Wire Wire Line
	6850 1000 6950 1000
$Comp
L power:VDD #PWR0135
U 1 1 5E86F4E2
P 6950 2525
F 0 "#PWR0135" H 6950 2375 50  0001 C CNN
F 1 "VDD" H 6968 2698 50  0000 C CNN
F 2 "" H 6950 2525 50  0001 C CNN
F 3 "" H 6950 2525 50  0001 C CNN
	1    6950 2525
	-1   0    0    1   
$EndComp
Wire Wire Line
	6950 2425 6950 2525
Connection ~ 6950 2425
Text GLabel 6125 2100 0    50   Input ~ 0
1BG1
Wire Wire Line
	6125 1900 6200 1900
Wire Wire Line
	6125 2100 6200 2100
Text GLabel 8400 1125 0    50   Input ~ 0
AC1
Wire Wire Line
	8400 1125 8525 1125
$Comp
L Device:R R12
U 1 1 5EA2A912
P 9550 1075
F 0 "R12" V 9450 1000 50  0000 C CNN
F 1 "0" V 9450 1150 50  0000 C CNN
F 2 "Resistors_SMD:R_0603_HandSoldering" V 9480 1075 50  0001 C CNN
F 3 "~" H 9550 1075 50  0001 C CNN
	1    9550 1075
	0    1    1    0   
$EndComp
$Comp
L Device:R R13
U 1 1 5EA2E7F7
P 9550 1175
F 0 "R13" V 9450 1100 50  0000 C CNN
F 1 "0" V 9450 1250 50  0000 C CNN
F 2 "Resistors_SMD:R_0603_HandSoldering" V 9480 1175 50  0001 C CNN
F 3 "~" H 9550 1175 50  0001 C CNN
	1    9550 1175
	0    1    -1   0   
$EndComp
$Comp
L Device:R R8
U 1 1 5EA6A11D
P 6350 1900
F 0 "R8" V 6250 1825 50  0000 C CNN
F 1 "0" V 6250 1975 50  0000 C CNN
F 2 "Resistors_SMD:R_0603_HandSoldering" V 6280 1900 50  0001 C CNN
F 3 "~" H 6350 1900 50  0001 C CNN
	1    6350 1900
	0    1    1    0   
$EndComp
$Comp
L Device:R R9
U 1 1 5EA6B7B9
P 6350 2100
F 0 "R9" V 6250 2025 50  0000 C CNN
F 1 "0" V 6250 2175 50  0000 C CNN
F 2 "Resistors_SMD:R_0603_HandSoldering" V 6280 2100 50  0001 C CNN
F 3 "~" H 6350 2100 50  0001 C CNN
	1    6350 2100
	0    1    -1   0   
$EndComp
Text GLabel 9775 1075 2    50   Input ~ 0
AC2
Text GLabel 9775 1175 2    50   Input ~ 0
AC4
Wire Wire Line
	9400 1075 9375 1075
Wire Wire Line
	9375 1075 9375 1125
Wire Wire Line
	9375 1175 9400 1175
Wire Wire Line
	9325 1125 9375 1125
Connection ~ 9375 1125
Wire Wire Line
	9375 1125 9375 1175
Wire Wire Line
	9700 1075 9775 1075
Wire Wire Line
	9700 1175 9775 1175
$Comp
L Device:Q_NMOS_GDS Q5
U 1 1 5EB1C996
P 4450 1675
F 0 "Q5" V 4400 1825 50  0000 C CNN
F 1 "SUM110N04-04" V 4675 1650 50  0000 C CNN
F 2 "TO_SOT_Packages_SMD:TO-263-2" H 4650 1775 50  0001 C CNN
F 3 "~" H 4450 1675 50  0001 C CNN
	1    4450 1675
	0    -1   -1   0   
$EndComp
$Comp
L Device:Q_NMOS_GDS Q4
U 1 1 5EB1C9A0
P 4450 1100
F 0 "Q4" V 4400 1250 50  0000 C CNN
F 1 "SUM110N04-04" V 4700 1025 50  0000 C CNN
F 2 "TO_SOT_Packages_SMD:TO-263-2" H 4650 1200 50  0001 C CNN
F 3 "~" H 4450 1100 50  0001 C CNN
	1    4450 1100
	0    -1   -1   0   
$EndComp
Text GLabel 4175 1000 0    50   Input ~ 0
AC1
Text GLabel 4175 1575 0    50   Input ~ 0
AC2
Text GLabel 4175 1325 0    50   Input ~ 0
1BG2
Wire Wire Line
	4250 1575 4175 1575
Text GLabel 4175 1900 0    50   Input ~ 0
1BG1
Wire Wire Line
	4250 1000 4175 1000
Wire Wire Line
	4175 1325 4450 1325
Wire Wire Line
	4450 1325 4450 1300
Wire Wire Line
	4175 1900 4450 1900
Wire Wire Line
	4450 1900 4450 1875
$Comp
L power:GND #PWR0134
U 1 1 5EB8CC2C
P 4825 2575
F 0 "#PWR0134" H 4825 2325 50  0001 C CNN
F 1 "GND" H 4830 2402 50  0000 C CNN
F 2 "" H 4825 2575 50  0001 C CNN
F 3 "" H 4825 2575 50  0001 C CNN
	1    4825 2575
	1    0    0    -1  
$EndComp
Wire Wire Line
	4650 1000 4825 1000
Wire Wire Line
	4825 1000 4825 1575
Wire Wire Line
	4650 1575 4825 1575
Connection ~ 4825 1575
Wire Wire Line
	4825 1575 4825 2575
Wire Wire Line
	6500 1900 6650 1900
Wire Wire Line
	6650 1900 6650 2100
Wire Wire Line
	6650 2100 6500 2100
Connection ~ 6650 1900
$Comp
L Device:Q_NMOS_GDS Q7
U 1 1 5EC9315A
P 5200 1675
F 0 "Q7" V 5150 1825 50  0000 C CNN
F 1 "SUM110N04-04" V 5425 1650 50  0000 C CNN
F 2 "TO_SOT_Packages_SMD:TO-263-2" H 5400 1775 50  0001 C CNN
F 3 "~" H 5200 1675 50  0001 C CNN
	1    5200 1675
	0    -1   -1   0   
$EndComp
$Comp
L Device:Q_NMOS_GDS Q6
U 1 1 5EC93164
P 5200 1100
F 0 "Q6" V 5150 1250 50  0000 C CNN
F 1 "SUM110N04-04" V 5450 1025 50  0000 C CNN
F 2 "TO_SOT_Packages_SMD:TO-263-2" H 5400 1200 50  0001 C CNN
F 3 "~" H 5200 1100 50  0001 C CNN
	1    5200 1100
	0    -1   -1   0   
$EndComp
Text GLabel 5475 1000 2    50   Input ~ 0
AC3
Text GLabel 5475 1575 2    50   Input ~ 0
AC4
Text GLabel 5475 1325 2    50   Input ~ 0
2TG1
Wire Wire Line
	5400 1575 5475 1575
Text GLabel 5475 1900 2    50   Input ~ 0
2TG2
Wire Wire Line
	5400 1000 5475 1000
Wire Wire Line
	5475 1325 5200 1325
Wire Wire Line
	5200 1325 5200 1300
Wire Wire Line
	5475 1900 5200 1900
Wire Wire Line
	5200 1900 5200 1875
Wire Wire Line
	5000 1000 4825 1000
Wire Wire Line
	5000 1575 4825 1575
Connection ~ 4825 1000
Wire Notes Line
	2600 675  2600 2000
Wire Notes Line
	4725 2000 2600 2000
Wire Notes Line
	4725 2000 4725 675 
Wire Notes Line
	4725 675  2600 675 
$Comp
L suf_power_management:LT4320_MSOP U2
U 1 1 5EDCA8C8
P 8925 2225
F 0 "U2" H 8675 1925 50  0000 C CNN
F 1 "LT4320-1" H 9150 2525 50  0000 C CNN
F 2 "Housings_SSOP:MSOP-12-1EP_3x4mm_Pitch0.65mm" H 8925 2225 50  0001 C CNN
F 3 "" H 8925 2225 50  0001 C CNN
	1    8925 2225
	1    0    0    -1  
$EndComp
Text GLabel 8400 2225 0    50   Input ~ 0
AC3
Wire Wire Line
	8400 2225 8525 2225
Text GLabel 9425 2225 2    50   Input ~ 0
AC4
Wire Wire Line
	9325 2225 9425 2225
Wire Notes Line
	4900 675  4900 1975
Wire Notes Line
	4900 1975 7075 1975
Wire Notes Line
	7075 1975 7075 675 
Wire Notes Line
	7075 675  4900 675 
$Comp
L power:VDD #PWR0138
U 1 1 5EEC7267
P 8925 2675
F 0 "#PWR0138" H 8925 2525 50  0001 C CNN
F 1 "VDD" H 8943 2848 50  0000 C CNN
F 2 "" H 8925 2675 50  0001 C CNN
F 3 "" H 8925 2675 50  0001 C CNN
	1    8925 2675
	-1   0    0    1   
$EndComp
$Comp
L power:VCC #PWR0137
U 1 1 5EEC89AD
P 8925 675
F 0 "#PWR0137" H 8925 525 50  0001 C CNN
F 1 "VCC" H 8942 848 50  0000 C CNN
F 2 "" H 8925 675 50  0001 C CNN
F 3 "" H 8925 675 50  0001 C CNN
	1    8925 675 
	1    0    0    -1  
$EndComp
$Comp
L power:GND #PWR0139
U 1 1 5EEE8CF3
P 9475 1700
F 0 "#PWR0139" H 9475 1450 50  0001 C CNN
F 1 "GND" H 9480 1527 50  0000 C CNN
F 2 "" H 9475 1700 50  0001 C CNN
F 3 "" H 9475 1700 50  0001 C CNN
	1    9475 1700
	1    0    0    -1  
$EndComp
Wire Wire Line
	8875 1475 8875 1525
Wire Wire Line
	8875 1525 8925 1525
Wire Wire Line
	8975 1525 8975 1475
Wire Wire Line
	8925 1875 8925 1700
Wire Wire Line
	8925 1700 9475 1700
$Comp
L Device:R R11
U 1 1 5EF279FA
P 9225 1600
F 0 "R11" V 9125 1525 50  0000 C CNN
F 1 "0" V 9125 1675 50  0000 C CNN
F 2 "Resistors_SMD:R_0603_HandSoldering" V 9155 1600 50  0001 C CNN
F 3 "~" H 9225 1600 50  0001 C CNN
	1    9225 1600
	0    1    1    0   
$EndComp
Wire Wire Line
	8925 1525 8925 1600
Wire Wire Line
	8925 1600 9075 1600
Connection ~ 8925 1525
Wire Wire Line
	8925 1525 8975 1525
Wire Wire Line
	9375 1600 9475 1600
Wire Wire Line
	9475 1600 9475 1700
Connection ~ 9475 1700
$Comp
L Device:R R10
U 1 1 5EF856AC
P 8600 1600
F 0 "R10" V 8500 1525 50  0000 C CNN
F 1 "0" V 8500 1675 50  0000 C CNN
F 2 "Resistors_SMD:R_0603_HandSoldering" V 8530 1600 50  0001 C CNN
F 3 "~" H 8600 1600 50  0001 C CNN
	1    8600 1600
	0    1    1    0   
$EndComp
$Comp
L power:VDD #PWR0136
U 1 1 5EF86F67
P 8350 1725
F 0 "#PWR0136" H 8350 1575 50  0001 C CNN
F 1 "VDD" H 8368 1898 50  0000 C CNN
F 2 "" H 8350 1725 50  0001 C CNN
F 3 "" H 8350 1725 50  0001 C CNN
	1    8350 1725
	-1   0    0    1   
$EndComp
Wire Wire Line
	8450 1600 8350 1600
Wire Wire Line
	8350 1600 8350 1725
Wire Wire Line
	8750 1600 8925 1600
Connection ~ 8925 1600
Wire Wire Line
	8875 2575 8875 2625
Wire Wire Line
	8875 2625 8925 2625
Wire Wire Line
	8975 2625 8975 2575
Wire Wire Line
	8925 2625 8925 2675
Connection ~ 8925 2625
Wire Wire Line
	8925 2625 8975 2625
Wire Wire Line
	8925 675  8925 775 
Text GLabel 8400 925  0    50   Input ~ 0
1TG1
Text GLabel 8400 1325 0    50   Input ~ 0
1BG2
Text GLabel 9425 925  2    50   Input ~ 0
1TG2
Text GLabel 9425 1325 2    50   Input ~ 0
1BG1
Text GLabel 8400 2025 0    50   Input ~ 0
2TG1
Text GLabel 8400 2425 0    50   Input ~ 0
2BG2
Text GLabel 9425 2025 2    50   Input ~ 0
2TG2
Text GLabel 9425 2425 2    50   Input ~ 0
2BG1
Wire Wire Line
	8525 925  8400 925 
Wire Wire Line
	8525 1325 8400 1325
Wire Wire Line
	9325 925  9425 925 
Wire Wire Line
	9325 1325 9425 1325
Wire Wire Line
	8400 2025 8525 2025
Wire Wire Line
	9325 2025 9425 2025
Wire Wire Line
	8400 2425 8525 2425
Wire Wire Line
	9325 2425 9425 2425
Wire Notes Line
	6150 1400 7150 1400
Wire Notes Line
	7150 1400 7150 2850
Wire Notes Line
	7150 2850 6175 2850
Wire Notes Line rgb(255, 0, 0)
	3575 800  2675 800 
Wire Notes Line
	2675 800  2675 1400
Wire Notes Line
	2675 1400 3575 1400
Wire Notes Line
	3575 2225 2700 2225
Wire Notes Line
	2700 2225 2700 2825
Wire Notes Line
	2700 2825 3575 2825
$Comp
L Device:R R3
U 1 1 5E25FD6C
P 1025 6350
F 0 "R3" V 1075 6200 50  0000 C CNN
F 1 "0" V 1075 6475 50  0000 C CNN
F 2 "Resistors_SMD:R_2010_HandSoldering" V 955 6350 50  0001 C CNN
F 3 "~" H 1025 6350 50  0001 C CNN
	1    1025 6350
	0    1    1    0   
$EndComp
$Comp
L Device:R R4
U 1 1 5E261F09
P 1025 6500
F 0 "R4" V 1075 6350 50  0000 C CNN
F 1 "0" V 1075 6625 50  0000 C CNN
F 2 "Resistors_SMD:R_2010_HandSoldering" V 955 6500 50  0001 C CNN
F 3 "~" H 1025 6500 50  0001 C CNN
	1    1025 6500
	0    1    1    0   
$EndComp
$Comp
L Device:R R5
U 1 1 5E263586
P 1025 6650
F 0 "R5" V 1075 6500 50  0000 C CNN
F 1 "0" V 1075 6775 50  0000 C CNN
F 2 "Resistors_SMD:R_2010_HandSoldering" V 955 6650 50  0001 C CNN
F 3 "~" H 1025 6650 50  0001 C CNN
	1    1025 6650
	0    1    1    0   
$EndComp
$Comp
L Device:R R6
U 1 1 5E264B1C
P 1025 6775
F 0 "R6" V 1075 6625 50  0000 C CNN
F 1 "0" V 1075 6900 50  0000 C CNN
F 2 "Resistors_SMD:R_2010_HandSoldering" V 955 6775 50  0001 C CNN
F 3 "~" H 1025 6775 50  0001 C CNN
	1    1025 6775
	0    1    1    0   
$EndComp
$Comp
L Device:C C83
U 1 1 5E2ADD36
P 1225 7075
F 0 "C83" H 1340 7121 50  0000 L CNN
F 1 "10nF" H 1340 7030 50  0000 L CNN
F 2 "Capacitors_SMD:C_1206_HandSoldering" H 1263 6925 50  0001 C CNN
F 3 "~" H 1225 7075 50  0001 C CNN
	1    1225 7075
	1    0    0    -1  
$EndComp
$Comp
L Device:C C84
U 1 1 5E2ADD40
P 1550 6875
F 0 "C84" H 1665 6921 50  0000 L CNN
F 1 "150nF" H 1665 6830 50  0000 L CNN
F 2 "Capacitors_SMD:C_2220_HandSoldering" H 1588 6725 50  0001 C CNN
F 3 "~" H 1550 6875 50  0001 C CNN
	1    1550 6875
	1    0    0    -1  
$EndComp
$Comp
L Device:R R7
U 1 1 5E2ADD4A
P 1550 7300
F 0 "R7" H 1620 7346 50  0000 L CNN
F 1 "150" H 1620 7255 50  0000 L CNN
F 2 "Resistors_SMD:R_2512_HandSoldering" V 1480 7300 50  0001 C CNN
F 3 "~" H 1550 7300 50  0001 C CNN
	1    1550 7300
	1    0    0    -1  
$EndComp
Wire Wire Line
	1175 6650 1225 6650
Wire Wire Line
	1550 6650 1550 6725
Wire Wire Line
	825  7525 1225 7525
Wire Wire Line
	1550 7525 1550 7450
Wire Wire Line
	1225 7225 1225 7525
Connection ~ 1225 7525
Wire Wire Line
	1225 7525 1550 7525
Wire Wire Line
	1225 6925 1225 6775
Connection ~ 1225 6650
Wire Wire Line
	1225 6650 1550 6650
Wire Wire Line
	1550 7025 1550 7150
Wire Wire Line
	1175 6775 1225 6775
Connection ~ 1225 6775
Wire Wire Line
	1225 6775 1225 6650
Wire Wire Line
	1175 6350 1225 6350
Connection ~ 1225 6350
Wire Wire Line
	1225 6350 1225 6500
Wire Wire Line
	825  6350 875  6350
Text GLabel 825  6775 0    50   Input ~ 0
AC3
Wire Wire Line
	875  6775 825  6775
Text GLabel 825  7525 0    50   Input ~ 0
AC4
Wire Wire Line
	875  6650 825  6650
Wire Wire Line
	825  6650 825  6500
Wire Wire Line
	825  6500 875  6500
$Comp
L power:GND #PWR025
U 1 1 5E401128
P 700 6525
F 0 "#PWR025" H 700 6275 50  0001 C CNN
F 1 "GND" H 705 6352 50  0000 C CNN
F 2 "" H 700 6525 50  0001 C CNN
F 3 "" H 700 6525 50  0001 C CNN
	1    700  6525
	1    0    0    -1  
$EndComp
Wire Wire Line
	825  6500 700  6500
Wire Wire Line
	700  6500 700  6525
Connection ~ 825  6500
$EndSCHEMATC
